ERROR! Block timestamp incorrect at line: 51141
ERROR! Block timestamp incorrect at line: 51149 (15909791842 - 15999651603)
ERROR! Block timestamp incorrect at line: 60567

~~BLOCK DATA~~
Core num = 4
Workgroup Size = 8
Data = ./hotspot
 , K1, K2, K3, K4, K5, K6, K7, K8, K9, K10
Total block Uptime, 0, 77991867, 0, 0, 0, 0, 0, 0, 0, 0
Avg block Uptime, 0, 8326, 0, 0, 0, 0, 0, 0, 0, 0
Stdev block Uptime, 0, 1895.50964289, 0, 0, 0, 0, 0, 0, 0, 0
Total block Downtime, 0, 81974704, 0, 0, 0, 0, 0, 0, 0, 0
Avg block Downtime, 0, 8752, 0, 0, 0, 0, 0, 0, 0, 0
Stdev block Downtime, 0, 3234.54687612, 0, 0, 0, 0, 0, 0, 0, 0
Num blocks, 0, 9367, 0, 0, 0, 0, 0, 0, 0, 0
Efficiency, 0, 0.487551033397, 0, 0, 0, 0, 0, 0, 0, 0, 0
ERROR! Block timestamp incorrect at line: 118591
ERROR! Block timestamp incorrect at line: 118595 (16202783924 - 16270282896)
ERROR! Block timestamp incorrect at line: 126829
ERROR! Block timestamp incorrect at line: 126837 (16222789328 - 16334894869)

~~BLOCK DATA~~
Core num = 4
Workgroup Size = 8
Data = ./hotspot
 , K1, K2, K3, K4, K5, K6, K7, K8, K9, K10
Total block Uptime, 0, 79304378, 0, 0, 0, 0, 0, 0, 0, 0
Avg block Uptime, 0, 8467, 0, 0, 0, 0, 0, 0, 0, 0
Stdev block Uptime, 0, 1998.39222767, 0, 0, 0, 0, 0, 0, 0, 0
Total block Downtime, 0, 80428656, 0, 0, 0, 0, 0, 0, 0, 0
Avg block Downtime, 0, 8588, 0, 0, 0, 0, 0, 0, 0, 0
Stdev block Downtime, 0, 3219.77108204, 0, 0, 0, 0, 0, 0, 0, 0
Num blocks, 0, 9366, 0, 0, 0, 0, 0, 0, 0, 0
Efficiency, 0, 0.496480759265, 0, 0, 0, 0, 0, 0, 0, 0, 0
ERROR! Block timestamp incorrect at line: 291104 (0 - 17059264637)
ERROR! Block timestamp incorrect at line: 330802
ERROR! Block timestamp incorrect at line: 336145
ERROR! Block timestamp incorrect at line: 459899 (0 - 17906097890)
ERROR! Block timestamp incorrect at line: 471295
ERROR! Block timestamp incorrect at line: 471296 (17799776077 - 17822346139)
ERROR! Block timestamp incorrect at line: 474942
ERROR! Block timestamp incorrect at line: 474945 (17808775146 - 17898655373)
ERROR! Block timestamp incorrect at line: 506428
ERROR! Block timestamp incorrect at line: 613958
ERROR! Block timestamp incorrect at line: 613962 (18385780932 - 18408350741)
ERROR! Block timestamp incorrect at line: 635168
ERROR! Block timestamp incorrect at line: 635172 (18437775216 - 18460345055)
ERROR! Block timestamp incorrect at line: 636385
ERROR! Block timestamp incorrect at line: 636386 (18440778105 - 18485877099)
ERROR! Block timestamp incorrect at line: 664540
ERROR! Block timestamp incorrect at line: 664541 (18627778636 - 18650348314)
ERROR! Block timestamp incorrect at line: 721718
ERROR! Block timestamp incorrect at line: 721724 (18884792608 - 19019112837)
ERROR! Block timestamp incorrect at line: 737236
ERROR! Block timestamp incorrect at line: 737238 (18922781893 - 19012664783)
ERROR! Block timestamp incorrect at line: 786887
ERROR! Block timestamp incorrect at line: 786889 (19164776820 - 19209877203)
ERROR! Block timestamp incorrect at line: 795939
ERROR! Block timestamp incorrect at line: 795942 (19186777545 - 19298900631)
ERROR! Block timestamp incorrect at line: 849862
ERROR! Block timestamp incorrect at line: 849868 (19317786008 - 19362882851)
ERROR! Block timestamp incorrect at line: 986716
ERROR! Block timestamp incorrect at line: 986719 (14953594129 - 15087801451)

~~BLOCK DATA~~
Core num = 4
Workgroup Size = 16
Data = ./hotspot
 , K1, K2, K3, K4, K5, K6, K7, K8, K9, K10
Total block Uptime, 0, 50303724, 0, 0, 0, 0, 0, 0, 0, 0
Avg block Uptime, 0, 48462, 0, 0, 0, 0, 0, 0, 0, 0
Stdev block Uptime, 0, 4645.75104141, 0, 0, 0, 0, 0, 0, 0, 0
Total block Downtime, 0, 3536022, 0, 0, 0, 0, 0, 0, 0, 0
Avg block Downtime, 0, 3409, 0, 0, 0, 0, 0, 0, 0, 0
Stdev block Downtime, 0, 1128.25032567, 0, 0, 0, 0, 0, 0, 0, 0
Num blocks, 0, 1038, 0, 0, 0, 0, 0, 0, 0, 0
Efficiency, 0, 0.934323204274, 0, 0, 0, 0, 0, 0, 0, 0, 0

~~BLOCK DATA~~
Core num = 4
Workgroup Size = 16
Data = ./hotspot
 , K1, K2, K3, K4, K5, K6, K7, K8, K9, K10
Total block Uptime, 0, 50042425, 0, 0, 0, 0, 0, 0, 0, 0
Avg block Uptime, 0, 48164, 0, 0, 0, 0, 0, 0, 0, 0
Stdev block Uptime, 0, 4570.36885838, 0, 0, 0, 0, 0, 0, 0, 0
Total block Downtime, 0, 3429037, 0, 0, 0, 0, 0, 0, 0, 0
Avg block Downtime, 0, 3303, 0, 0, 0, 0, 0, 0, 0, 0
Stdev block Downtime, 0, 1013.20861475, 0, 0, 0, 0, 0, 0, 0, 0
Num blocks, 0, 1039, 0, 0, 0, 0, 0, 0, 0, 0
Efficiency, 0, 0.935871643083, 0, 0, 0, 0, 0, 0, 0, 0, 0
ERROR! Block timestamp incorrect at line: 1005690
ERROR! Block timestamp incorrect at line: 1009768
ERROR! Block timestamp incorrect at line: 1036572
ERROR! Block timestamp incorrect at line: 1036573 (15470580677 - 15560383321)
ERROR! Block timestamp incorrect at line: 1062027
ERROR! Block timestamp incorrect at line: 1062035 (15720599589 - 15854804281)
ERROR! Block timestamp incorrect at line: 1083769
ERROR! Block timestamp incorrect at line: 1083772 (15943546947 - 16077805693)
ERROR! Block timestamp incorrect at line: 1086815
ERROR! Block timestamp incorrect at line: 1086821 (15987554518 - 16010140073)

~~BLOCK DATA~~
Core num = 4
Workgroup Size = 32
Data = ./hotspot
 , K1, K2, K3, K4, K5, K6, K7, K8, K9, K10
Total block Uptime, 0, 30775604, 0, 0, 0, 0, 0, 0, 0, 0
Avg block Uptime, 0, 173873, 0, 0, 0, 0, 0, 0, 0, 0
Stdev block Uptime, 0, 12763.488195, 0, 0, 0, 0, 0, 0, 0, 0
Total block Downtime, 0, 491547, 0, 0, 0, 0, 0, 0, 0, 0
Avg block Downtime, 0, 2792, 0, 0, 0, 0, 0, 0, 0, 0
Stdev block Downtime, 0, 1135.25500863, 0, 0, 0, 0, 0, 0, 0, 0
Num blocks, 0, 177, 0, 0, 0, 0, 0, 0, 0, 0
Efficiency, 0, 0.98427912412, 0, 0, 0, 0, 0, 0, 0, 0, 0

~~BLOCK DATA~~
Core num = 4
Workgroup Size = 32
Data = ./hotspot
 , K1, K2, K3, K4, K5, K6, K7, K8, K9, K10
Total block Uptime, 0, 30568254, 0, 0, 0, 0, 0, 0, 0, 0
Avg block Uptime, 0, 172702, 0, 0, 0, 0, 0, 0, 0, 0
Stdev block Uptime, 0, 12136.8739416, 0, 0, 0, 0, 0, 0, 0, 0
Total block Downtime, 0, 531862, 0, 0, 0, 0, 0, 0, 0, 0
Avg block Downtime, 0, 3021, 0, 0, 0, 0, 0, 0, 0, 0
Stdev block Downtime, 0, 963.875933382, 0, 0, 0, 0, 0, 0, 0, 0
Num blocks, 0, 177, 0, 0, 0, 0, 0, 0, 0, 0
Efficiency, 0, 0.982898391762, 0, 0, 0, 0, 0, 0, 0, 0, 0

~~BLOCK DATA~~
Core num = 4
Workgroup Size = 64
Data = ./hotspot
 , K1, K2, K3, K4, K5, K6, K7, K8, K9, K10
Total block Uptime, 0, 40693038, 0, 0, 0, 0, 0, 0, 0, 0
Avg block Uptime, 0, 1043411, 0, 0, 0, 0, 0, 0, 0, 0
Stdev block Uptime, 0, 202728.114302, 0, 0, 0, 0, 0, 0, 0, 0
Total block Downtime, 0, 114636, 0, 0, 0, 0, 0, 0, 0, 0
Avg block Downtime, 0, 3016, 0, 0, 0, 0, 0, 0, 0, 0
Stdev block Downtime, 0, 990.732070749, 0, 0, 0, 0, 0, 0, 0, 0
Num blocks, 0, 39, 0, 0, 0, 0, 0, 0, 0, 0
Efficiency, 0, 0.997190822491, 0, 0, 0, 0, 0, 0, 0, 0, 0

~~BLOCK DATA~~
Core num = 4
Workgroup Size = 64
Data = ./hotspot
 , K1, K2, K3, K4, K5, K6, K7, K8, K9, K10
Total block Uptime, 0, 40272195, 0, 0, 0, 0, 0, 0, 0, 0
Avg block Uptime, 0, 958861, 0, 0, 0, 0, 0, 0, 0, 0
Stdev block Uptime, 0, 267945.617296, 0, 0, 0, 0, 0, 0, 0, 0
Total block Downtime, 0, 138453, 0, 0, 0, 0, 0, 0, 0, 0
Avg block Downtime, 0, 3376, 0, 0, 0, 0, 0, 0, 0, 0
Stdev block Downtime, 0, 1268.99983288, 0, 0, 0, 0, 0, 0, 0, 0
Num blocks, 0, 42, 0, 0, 0, 0, 0, 0, 0, 0
Efficiency, 0, 0.996573848556, 0, 0, 0, 0, 0, 0, 0, 0, 0

~~BLOCK DATA~~
Core num = 4
Workgroup Size = 128
Data = ./hotspot
 , K1, K2, K3, K4, K5, K6, K7, K8, K9, K10
Total block Uptime, 0, 53982344, 0, 0, 0, 0, 0, 0, 0, 0
Avg block Uptime, 0, 5998038, 0, 0, 0, 0, 0, 0, 0, 0
Stdev block Uptime, 0, 1426675.1281, 0, 0, 0, 0, 0, 0, 0, 0
Total block Downtime, 0, 68334, 0, 0, 0, 0, 0, 0, 0, 0
Avg block Downtime, 0, 8541, 0, 0, 0, 0, 0, 0, 0, 0
Stdev block Downtime, 0, 3387.24754594, 0, 0, 0, 0, 0, 0, 0, 0
Num blocks, 0, 9, 0, 0, 0, 0, 0, 0, 0, 0
Efficiency, 0, 0.998735742038, 0, 0, 0, 0, 0, 0, 0, 0, 0

~~BLOCK DATA~~
Core num = 4
Workgroup Size = 128
Data = ./hotspot
 , K1, K2, K3, K4, K5, K6, K7, K8, K9, K10
Total block Uptime, 0, 53941902, 0, 0, 0, 0, 0, 0, 0, 0
Avg block Uptime, 0, 5993544, 0, 0, 0, 0, 0, 0, 0, 0
Stdev block Uptime, 0, 1375447.56339, 0, 0, 0, 0, 0, 0, 0, 0
Total block Downtime, 0, 83174, 0, 0, 0, 0, 0, 0, 0, 0
Avg block Downtime, 0, 10396, 0, 0, 0, 0, 0, 0, 0, 0
Stdev block Downtime, 0, 4171.30907959, 0, 0, 0, 0, 0, 0, 0, 0
Num blocks, 0, 9, 0, 0, 0, 0, 0, 0, 0, 0
Efficiency, 0, 0.99846045566, 0, 0, 0, 0, 0, 0, 0, 0, 0

~~BLOCK DATA~~
Core num = 4
Workgroup Size = 256
Data = ./hotspot
 , K1, K2, K3, K4, K5, K6, K7, K8, K9, K10
Total block Uptime, 0, 56470924, 0, 0, 0, 0, 0, 0, 0, 0
Avg block Uptime, 0, 18823641, 0, 0, 0, 0, 0, 0, 0, 0
Stdev block Uptime, 0, 9513985.4203, 0, 0, 0, 0, 0, 0, 0, 0
Total block Downtime, 0, 24106, 0, 0, 0, 0, 0, 0, 0, 0
Avg block Downtime, 0, 12053, 0, 0, 0, 0, 0, 0, 0, 0
Stdev block Downtime, 0, 3791.0, 0, 0, 0, 0, 0, 0, 0, 0
Num blocks, 0, 3, 0, 0, 0, 0, 0, 0, 0, 0
Efficiency, 0, 0.999573307599, 0, 0, 0, 0, 0, 0, 0, 0, 0

~~BLOCK DATA~~
Core num = 4
Workgroup Size = 256
Data = ./hotspot
 , K1, K2, K3, K4, K5, K6, K7, K8, K9, K10
Total block Uptime, 0, 56494506, 0, 0, 0, 0, 0, 0, 0, 0
Avg block Uptime, 0, 18831502, 0, 0, 0, 0, 0, 0, 0, 0
Stdev block Uptime, 0, 9542128.86984, 0, 0, 0, 0, 0, 0, 0, 0
Total block Downtime, 0, 38506, 0, 0, 0, 0, 0, 0, 0, 0
Avg block Downtime, 0, 19253, 0, 0, 0, 0, 0, 0, 0, 0
Stdev block Downtime, 0, 5477.0, 0, 0, 0, 0, 0, 0, 0, 0
Num blocks, 0, 3, 0, 0, 0, 0, 0, 0, 0, 0
Efficiency, 0, 0.999318875845, 0, 0, 0, 0, 0, 0, 0, 0, 0
