00:00:00.000000 00:00:00.000000 arm_2, Device Temperature 70 C
00:00:00.500170 00:00:00.500170 arm_2, Device Temperature 70 C
00:00:01.000341 00:00:00.500171 arm_2, Device Temperature 70 C
00:00:01.500512 00:00:00.500171 arm_2, Device Temperature 70 C
00:00:02.000683 00:00:00.500171 arm_2, Device Temperature 70 C
00:00:02.500853 00:00:00.500170 arm_2, Device Temperature 69 C
00:00:03.001024 00:00:00.500171 arm_2, Device Temperature 70 C
00:00:03.501195 00:00:00.500171 arm_0, Device Temperature 70 C
00:00:04.010803 00:00:00.509608 arm_0, Device Temperature 70 C
00:00:04.504682 00:00:00.493879 arm_1, Device Temperature 70 C
00:00:04.633657 00:00:00.128975 arm_1, Internal Data Total 4608 KB, 100.0% Free, 0.0% Used
00:00:04.633663 00:00:00.000006 arm_1, External Data Total 6291456 KB, 100.0% Free, 0.0% Used
00:00:04.633670 00:00:00.000007 arm_1, External Code/Data Total 376832 KB, 100.0% Free, 0.0% Used
00:00:05.004866 00:00:00.371196 arm_2, Device Temperature 70 C
00:00:05.505036 00:00:00.500170 arm_2, Device Temperature 70 C
00:00:06.005207 00:00:00.500171 arm_2, Device Temperature 70 C
00:00:06.505378 00:00:00.500171 arm_2, Device Temperature 70 C
00:00:07.005549 00:00:00.500171 arm_2, Device Temperature 70 C
00:00:07.505719 00:00:00.500170 arm_2, Device Temperature 70 C
00:00:08.005890 00:00:00.500171 arm_2, Device Temperature 70 C
00:00:08.506061 00:00:00.500171 arm_2, Device Temperature 70 C
00:00:09.006232 00:00:00.500171 arm_2, Device Temperature 70 C
00:00:09.506402 00:00:00.500170 arm_2, Device Temperature 70 C
00:00:10.006581 00:00:00.500179 arm_3, Device Temperature 70 C
00:00:10.506752 00:00:00.500171 arm_3, Device Temperature 70 C
00:00:11.006922 00:00:00.500170 arm_0, Device Temperature 70 C
00:00:11.507093 00:00:00.500171 arm_0, Device Temperature 70 C
00:00:12.007264 00:00:00.500171 arm_0, Device Temperature 70 C
00:00:12.507435 00:00:00.500171 arm_0, Device Temperature 70 C
00:00:13.007605 00:00:00.500170 arm_0, Device Temperature 70 C
00:00:13.507776 00:00:00.500171 arm_0, Device Temperature 70 C
00:00:14.007947 00:00:00.500171 arm_0, Device Temperature 70 C
00:00:14.508118 00:00:00.500171 arm_1, Device Temperature 69 C
00:00:15.008288 00:00:00.500170 arm_1, Device Temperature 70 C
00:00:15.508459 00:00:00.500171 arm_1, Device Temperature 70 C
00:00:16.008630 00:00:00.500171 arm_1, Device Temperature 70 C
00:00:16.508801 00:00:00.500171 arm_1, Device Temperature 70 C
00:00:17.008971 00:00:00.500170 arm_1, Device Temperature 70 C
00:00:17.509142 00:00:00.500171 arm_1, Device Temperature 69 C
00:00:18.009313 00:00:00.500171 arm_1, Device Temperature 70 C
00:00:18.509484 00:00:00.500171 arm_1, Device Temperature 70 C
00:00:19.009654 00:00:00.500170 arm_1, Device Temperature 70 C
00:00:19.509825 00:00:00.500171 arm_1, Device Temperature 70 C
00:00:20.009996 00:00:00.500171 arm_1, Device Temperature 70 C
00:00:20.510167 00:00:00.500171 arm_1, Device Temperature 70 C
00:00:21.010338 00:00:00.500171 arm_1, Device Temperature 70 C
00:00:21.510508 00:00:00.500170 arm_1, Device Temperature 69 C
00:00:22.010679 00:00:00.500171 arm_1, Device Temperature 70 C
00:00:22.510850 00:00:00.500171 arm_1, Device Temperature 69 C
00:00:23.011021 00:00:00.500171 arm_1, Device Temperature 69 C
00:00:23.511191 00:00:00.500170 arm_2, Device Temperature 70 C
00:00:24.011362 00:00:00.500171 arm_2, Device Temperature 69 C
00:00:24.511533 00:00:00.500171 arm_2, Device Temperature 70 C
00:00:24.535519 00:00:00.023986 arm_1, External Code/Data Total 376832 KB, 98.9% Free, 1.1% Used
00:00:24.535894 00:00:00.000375 arm_1, External Code/Data Total 376832 KB, 98.9% Free, 1.1% Used
00:00:24.537332 00:00:00.001438 dsp_1, OpenCL NDR Cache Coherence Complete, Kernel id -2, Work Group id 0
00:00:24.537332 00:00:00.000000 dsp_7, OpenCL NDR Cache Coherence Complete, Kernel id -2, Work Group id 0
00:00:24.537332 00:00:00.000000 dsp_6, OpenCL NDR Cache Coherence Complete, Kernel id -2, Work Group id 0
00:00:24.537332 00:00:00.000000 dsp_5, OpenCL NDR Cache Coherence Complete, Kernel id -2, Work Group id 0
00:00:24.537332 00:00:00.000000 dsp_3, OpenCL NDR Cache Coherence Complete, Kernel id -2, Work Group id 0
00:00:24.537332 00:00:00.000000 dsp_0, OpenCL NDR Cache Coherence Complete, Kernel id -2, Work Group id 0
00:00:24.537332 00:00:00.000000 dsp_4, OpenCL NDR Cache Coherence Complete, Kernel id -2, Work Group id 0
00:00:24.537332 00:00:00.000000 dsp_2, OpenCL NDR Cache Coherence Complete, Kernel id -2, Work Group id 0
00:00:24.537459 00:00:00.000127 arm_2, External Code/Data Total 376832 KB, 97.8% Free, 2.2% Used
00:00:24.546994 00:00:00.009535 arm_2, External Code/Data Total 376832 KB, 96.7% Free, 3.3% Used
00:00:24.556186 00:00:00.009192 arm_2, Internal Data Total 4608 KB, 99.9% Free, 0.1% Used
00:00:24.556207 00:00:00.000021 dsp_0, OpenCL NDR Overhead, Kernel id 0, Work Group id 0
00:00:24.556233 00:00:00.000026 dsp_2, OpenCL NDR Kernel Start, Kernel id 0, Work Group id 0
00:00:24.556239 00:00:00.000006 dsp_5, OpenCL NDR Kernel Start, Kernel id 0, Work Group id 1
00:00:24.556242 00:00:00.000003 dsp_6, OpenCL NDR Kernel Start, Kernel id 0, Work Group id 2
00:00:24.556247 00:00:00.000005 dsp_3, OpenCL NDR Kernel Start, Kernel id 0, Work Group id 3
00:00:24.556252 00:00:00.000005 dsp_4, OpenCL NDR Kernel Start, Kernel id 0, Work Group id 4
00:00:24.556256 00:00:00.000004 dsp_1, OpenCL NDR Kernel Start, Kernel id 0, Work Group id 5
00:00:24.556261 00:00:00.000005 dsp_7, OpenCL NDR Kernel Start, Kernel id 0, Work Group id 6
00:00:24.557477 00:00:00.001216 dsp_2, OpenCL NDR Kernel Complete, Kernel id 0, Work Group id 0
00:00:24.557482 00:00:00.000005 dsp_2, OpenCL NDR Kernel Start, Kernel id 0, Work Group id 7
00:00:24.557517 00:00:00.000035 dsp_5, OpenCL NDR Kernel Complete, Kernel id 0, Work Group id 1
00:00:24.557517 00:00:00.000000 dsp_6, OpenCL NDR Kernel Complete, Kernel id 0, Work Group id 2
00:00:24.557522 00:00:00.000005 dsp_5, OpenCL NDR Kernel Start, Kernel id 0, Work Group id 8
00:00:24.557524 00:00:00.000002 dsp_6, OpenCL NDR Kernel Start, Kernel id 0, Work Group id 9
00:00:24.557528 00:00:00.000004 dsp_3, OpenCL NDR Kernel Complete, Kernel id 0, Work Group id 3
00:00:24.557532 00:00:00.000004 dsp_3, OpenCL NDR Kernel Start, Kernel id 0, Work Group id 10
00:00:24.557535 00:00:00.000003 dsp_4, OpenCL NDR Kernel Complete, Kernel id 0, Work Group id 4
00:00:24.557535 00:00:00.000000 dsp_1, OpenCL NDR Kernel Complete, Kernel id 0, Work Group id 5
00:00:24.557540 00:00:00.000005 dsp_4, OpenCL NDR Kernel Start, Kernel id 0, Work Group id 11
00:00:24.557541 00:00:00.000001 dsp_7, OpenCL NDR Kernel Complete, Kernel id 0, Work Group id 6
00:00:24.557542 00:00:00.000001 dsp_1, OpenCL NDR Kernel Start, Kernel id 0, Work Group id 12
00:00:24.557546 00:00:00.000004 dsp_7, OpenCL NDR Kernel Start, Kernel id 0, Work Group id 13
00:00:24.557712 00:00:00.000166 dsp_0, OpenCL NDR Kernel Start, Kernel id 0, Work Group id 14
00:00:24.558744 00:00:00.001032 dsp_2, OpenCL NDR Kernel Complete, Kernel id 0, Work Group id 7
00:00:24.558746 00:00:00.000002 dsp_2, OpenCL NDR Kernel Start, Kernel id 0, Work Group id 15
00:00:24.558754 00:00:00.000008 dsp_6, OpenCL NDR Kernel Complete, Kernel id 0, Work Group id 9
00:00:24.558755 00:00:00.000001 dsp_5, OpenCL NDR Kernel Complete, Kernel id 0, Work Group id 8
00:00:24.558756 00:00:00.000001 dsp_6, OpenCL NDR Kernel Start, Kernel id 0, Work Group id 16
00:00:24.558757 00:00:00.000001 dsp_5, OpenCL NDR Kernel Start, Kernel id 0, Work Group id 17
00:00:24.558765 00:00:00.000008 dsp_3, OpenCL NDR Kernel Complete, Kernel id 0, Work Group id 10
00:00:24.558767 00:00:00.000002 dsp_3, OpenCL NDR Kernel Start, Kernel id 0, Work Group id 18
00:00:24.558775 00:00:00.000008 dsp_4, OpenCL NDR Kernel Complete, Kernel id 0, Work Group id 11
00:00:24.558777 00:00:00.000002 dsp_4, OpenCL NDR Kernel Start, Kernel id 0, Work Group id 19
00:00:24.558781 00:00:00.000004 dsp_1, OpenCL NDR Kernel Complete, Kernel id 0, Work Group id 12
00:00:24.558783 00:00:00.000002 dsp_1, OpenCL NDR Kernel Start, Kernel id 0, Work Group id 20
00:00:24.558786 00:00:00.000003 dsp_7, OpenCL NDR Kernel Complete, Kernel id 0, Work Group id 13
00:00:24.558788 00:00:00.000002 dsp_7, OpenCL NDR Kernel Start, Kernel id 0, Work Group id 21
00:00:24.558910 00:00:00.000122 dsp_0, OpenCL NDR Kernel Complete, Kernel id 0, Work Group id 14
00:00:24.558912 00:00:00.000002 dsp_0, OpenCL NDR Kernel Start, Kernel id 0, Work Group id 22
00:00:24.559364 00:00:00.000452 dsp_5, OpenCL NDR Kernel Complete, Kernel id 0, Work Group id 17
00:00:24.559366 00:00:00.000002 dsp_5, OpenCL NDR Kernel Start, Kernel id 0, Work Group id 23
00:00:24.559940 00:00:00.000574 dsp_2, OpenCL NDR Kernel Complete, Kernel id 0, Work Group id 15
00:00:24.559942 00:00:00.000002 dsp_2, OpenCL NDR Kernel Start, Kernel id 0, Work Group id 24
00:00:24.559961 00:00:00.000019 dsp_3, OpenCL NDR Kernel Complete, Kernel id 0, Work Group id 18
00:00:24.559963 00:00:00.000002 dsp_6, OpenCL NDR Kernel Complete, Kernel id 0, Work Group id 16
00:00:24.559963 00:00:00.000000 dsp_3, OpenCL NDR Kernel Start, Kernel id 0, Work Group id 25
00:00:24.559965 00:00:00.000002 dsp_6, OpenCL NDR Kernel Start, Kernel id 0, Work Group id 26
00:00:24.559995 00:00:00.000030 dsp_4, OpenCL NDR Kernel Complete, Kernel id 0, Work Group id 19
00:00:24.559998 00:00:00.000003 dsp_4, OpenCL NDR Kernel Start, Kernel id 0, Work Group id 27
00:00:24.560001 00:00:00.000003 dsp_1, OpenCL NDR Kernel Complete, Kernel id 0, Work Group id 20
00:00:24.560003 00:00:00.000002 dsp_1, OpenCL NDR Kernel Start, Kernel id 0, Work Group id 28
00:00:24.560004 00:00:00.000001 dsp_7, OpenCL NDR Kernel Complete, Kernel id 0, Work Group id 21
00:00:24.560007 00:00:00.000003 dsp_7, OpenCL NDR Kernel Start, Kernel id 0, Work Group id 29
00:00:24.560128 00:00:00.000121 dsp_0, OpenCL NDR Kernel Complete, Kernel id 0, Work Group id 22
00:00:24.560130 00:00:00.000002 dsp_0, OpenCL NDR Kernel Start, Kernel id 0, Work Group id 30
00:00:24.560563 00:00:00.000433 dsp_5, OpenCL NDR Kernel Complete, Kernel id 0, Work Group id 23
00:00:24.560565 00:00:00.000002 dsp_5, OpenCL NDR Kernel Start, Kernel id 0, Work Group id 31
00:00:24.561161 00:00:00.000596 dsp_2, OpenCL NDR Kernel Complete, Kernel id 0, Work Group id 24
00:00:24.561163 00:00:00.000002 dsp_2, OpenCL NDR Kernel Start, Kernel id 0, Work Group id 32
00:00:24.561167 00:00:00.000004 dsp_6, OpenCL NDR Kernel Complete, Kernel id 0, Work Group id 26
00:00:24.561169 00:00:00.000002 dsp_6, OpenCL NDR Kernel Start, Kernel id 0, Work Group id 33
00:00:24.561182 00:00:00.000013 dsp_3, OpenCL NDR Kernel Complete, Kernel id 0, Work Group id 25
00:00:24.561184 00:00:00.000002 dsp_3, OpenCL NDR Kernel Start, Kernel id 0, Work Group id 34
00:00:24.561199 00:00:00.000015 dsp_4, OpenCL NDR Kernel Complete, Kernel id 0, Work Group id 27
00:00:24.561202 00:00:00.000003 dsp_4, OpenCL NDR Kernel Start, Kernel id 0, Work Group id 35
00:00:24.561206 00:00:00.000004 dsp_1, OpenCL NDR Kernel Complete, Kernel id 0, Work Group id 28
00:00:24.561208 00:00:00.000002 dsp_1, OpenCL NDR Kernel Start, Kernel id 0, Work Group id 36
00:00:24.561208 00:00:00.000000 dsp_7, OpenCL NDR Kernel Complete, Kernel id 0, Work Group id 29
00:00:24.561211 00:00:00.000003 dsp_7, OpenCL NDR Kernel Start, Kernel id 0, Work Group id 37
00:00:24.561330 00:00:00.000119 dsp_0, OpenCL NDR Kernel Complete, Kernel id 0, Work Group id 30
00:00:24.561332 00:00:00.000002 dsp_0, OpenCL NDR Kernel Start, Kernel id 0, Work Group id 38
00:00:24.561766 00:00:00.000434 dsp_5, OpenCL NDR Kernel Complete, Kernel id 0, Work Group id 31
00:00:24.561768 00:00:00.000002 dsp_5, OpenCL NDR Kernel Start, Kernel id 0, Work Group id 39
00:00:24.561812 00:00:00.000044 dsp_4, OpenCL NDR Kernel Complete, Kernel id 0, Work Group id 35
00:00:24.561814 00:00:00.000002 dsp_4, OpenCL NDR Kernel Start, Kernel id 0, Work Group id 40
00:00:24.562361 00:00:00.000547 dsp_2, OpenCL NDR Kernel Complete, Kernel id 0, Work Group id 32
00:00:24.562363 00:00:00.000002 dsp_2, OpenCL NDR Kernel Start, Kernel id 0, Work Group id 41
00:00:24.562370 00:00:00.000007 dsp_6, OpenCL NDR Kernel Complete, Kernel id 0, Work Group id 33
00:00:24.562372 00:00:00.000002 dsp_6, OpenCL NDR Kernel Start, Kernel id 0, Work Group id 42
00:00:24.562399 00:00:00.000027 dsp_3, OpenCL NDR Kernel Complete, Kernel id 0, Work Group id 34
00:00:24.562401 00:00:00.000002 dsp_3, OpenCL NDR Kernel Start, Kernel id 0, Work Group id 43
00:00:24.562403 00:00:00.000002 dsp_1, OpenCL NDR Kernel Complete, Kernel id 0, Work Group id 36
00:00:24.562405 00:00:00.000002 dsp_1, OpenCL NDR Kernel Start, Kernel id 0, Work Group id 44
00:00:24.562427 00:00:00.000022 dsp_7, OpenCL NDR Kernel Complete, Kernel id 0, Work Group id 37
00:00:24.562429 00:00:00.000002 dsp_7, OpenCL NDR Kernel Start, Kernel id 0, Work Group id 45
00:00:24.562551 00:00:00.000122 dsp_0, OpenCL NDR Kernel Complete, Kernel id 0, Work Group id 38
00:00:24.562553 00:00:00.000002 dsp_0, OpenCL NDR Kernel Start, Kernel id 0, Work Group id 46
00:00:24.562987 00:00:00.000434 dsp_5, OpenCL NDR Kernel Complete, Kernel id 0, Work Group id 39
00:00:24.562988 00:00:00.000001 dsp_5, OpenCL NDR Kernel Start, Kernel id 0, Work Group id 47
00:00:24.563011 00:00:00.000023 dsp_4, OpenCL NDR Kernel Complete, Kernel id 0, Work Group id 40
00:00:24.563013 00:00:00.000002 dsp_4, OpenCL NDR Kernel Start, Kernel id 0, Work Group id 48
00:00:24.563579 00:00:00.000566 dsp_2, OpenCL NDR Kernel Complete, Kernel id 0, Work Group id 41
00:00:24.563581 00:00:00.000002 dsp_2, OpenCL NDR Kernel Start, Kernel id 0, Work Group id 49
00:00:24.563589 00:00:00.000008 dsp_6, OpenCL NDR Kernel Complete, Kernel id 0, Work Group id 42
00:00:24.563591 00:00:00.000002 dsp_6, OpenCL NDR Kernel Start, Kernel id 0, Work Group id 50
00:00:24.563606 00:00:00.000015 dsp_1, OpenCL NDR Kernel Complete, Kernel id 0, Work Group id 44
00:00:24.563608 00:00:00.000002 dsp_1, OpenCL NDR Kernel Start, Kernel id 0, Work Group id 51
00:00:24.563616 00:00:00.000008 dsp_3, OpenCL NDR Kernel Complete, Kernel id 0, Work Group id 43
00:00:24.563618 00:00:00.000002 dsp_3, OpenCL NDR Kernel Start, Kernel id 0, Work Group id 52
00:00:24.563633 00:00:00.000015 dsp_7, OpenCL NDR Kernel Complete, Kernel id 0, Work Group id 45
00:00:24.563636 00:00:00.000003 dsp_7, OpenCL NDR Kernel Start, Kernel id 0, Work Group id 53
00:00:24.563754 00:00:00.000118 dsp_0, OpenCL NDR Kernel Complete, Kernel id 0, Work Group id 46
00:00:24.563756 00:00:00.000002 dsp_0, OpenCL NDR Kernel Start, Kernel id 0, Work Group id 54
00:00:24.564186 00:00:00.000430 dsp_5, OpenCL NDR Kernel Complete, Kernel id 0, Work Group id 47
00:00:24.564188 00:00:00.000002 dsp_5, OpenCL NDR Kernel Start, Kernel id 0, Work Group id 55
00:00:24.564212 00:00:00.000024 dsp_4, OpenCL NDR Kernel Complete, Kernel id 0, Work Group id 48
00:00:24.564215 00:00:00.000003 dsp_4, OpenCL NDR Kernel Start, Kernel id 0, Work Group id 56
00:00:24.564247 00:00:00.000032 dsp_7, OpenCL NDR Kernel Complete, Kernel id 0, Work Group id 53
00:00:24.564249 00:00:00.000002 dsp_7, OpenCL NDR Kernel Start, Kernel id 0, Work Group id 57
00:00:24.564780 00:00:00.000531 dsp_2, OpenCL NDR Kernel Complete, Kernel id 0, Work Group id 49
00:00:24.564782 00:00:00.000002 dsp_2, OpenCL NDR Kernel Start, Kernel id 0, Work Group id 58
00:00:24.564790 00:00:00.000008 dsp_6, OpenCL NDR Kernel Complete, Kernel id 0, Work Group id 50
00:00:24.564792 00:00:00.000002 dsp_6, OpenCL NDR Kernel Start, Kernel id 0, Work Group id 59
00:00:24.564809 00:00:00.000017 dsp_1, OpenCL NDR Kernel Complete, Kernel id 0, Work Group id 51
00:00:24.564811 00:00:00.000002 dsp_1, OpenCL NDR Kernel Start, Kernel id 0, Work Group id 60
00:00:24.564829 00:00:00.000018 dsp_3, OpenCL NDR Kernel Complete, Kernel id 0, Work Group id 52
00:00:24.564831 00:00:00.000002 dsp_3, OpenCL NDR Kernel Start, Kernel id 0, Work Group id 61
00:00:24.564949 00:00:00.000118 dsp_0, OpenCL NDR Kernel Complete, Kernel id 0, Work Group id 54
00:00:24.564951 00:00:00.000002 dsp_0, OpenCL NDR Kernel Start, Kernel id 0, Work Group id 62
00:00:24.565406 00:00:00.000455 dsp_5, OpenCL NDR Kernel Complete, Kernel id 0, Work Group id 55
00:00:24.565408 00:00:00.000002 dsp_5, OpenCL NDR Kernel Start, Kernel id 0, Work Group id 63
00:00:24.565431 00:00:00.000023 dsp_4, OpenCL NDR Kernel Complete, Kernel id 0, Work Group id 56
00:00:24.565433 00:00:00.000002 dsp_4, OpenCL NDR Kernel Start, Kernel id 0, Work Group id 64
00:00:24.565448 00:00:00.000015 dsp_7, OpenCL NDR Kernel Complete, Kernel id 0, Work Group id 57
00:00:24.565450 00:00:00.000002 dsp_7, OpenCL NDR Kernel Start, Kernel id 0, Work Group id 65
00:00:24.565997 00:00:00.000547 dsp_2, OpenCL NDR Kernel Complete, Kernel id 0, Work Group id 58
00:00:24.565999 00:00:00.000002 dsp_2, OpenCL NDR Kernel Start, Kernel id 0, Work Group id 66
00:00:24.566007 00:00:00.000008 dsp_6, OpenCL NDR Kernel Complete, Kernel id 0, Work Group id 59
00:00:24.566009 00:00:00.000002 dsp_6, OpenCL NDR Kernel Start, Kernel id 0, Work Group id 67
00:00:24.566030 00:00:00.000021 dsp_1, OpenCL NDR Kernel Complete, Kernel id 0, Work Group id 60
00:00:24.566032 00:00:00.000002 dsp_1, OpenCL NDR Kernel Start, Kernel id 0, Work Group id 68
00:00:24.566047 00:00:00.000015 dsp_3, OpenCL NDR Kernel Complete, Kernel id 0, Work Group id 61
00:00:24.566050 00:00:00.000003 dsp_3, OpenCL NDR Kernel Start, Kernel id 0, Work Group id 69
00:00:24.566150 00:00:00.000100 dsp_0, OpenCL NDR Kernel Complete, Kernel id 0, Work Group id 62
00:00:24.566152 00:00:00.000002 dsp_0, OpenCL NDR Kernel Start, Kernel id 0, Work Group id 70
00:00:24.566607 00:00:00.000455 dsp_5, OpenCL NDR Kernel Complete, Kernel id 0, Work Group id 63
00:00:24.566609 00:00:00.000002 dsp_5, OpenCL NDR Kernel Start, Kernel id 0, Work Group id 71
00:00:24.566634 00:00:00.000025 dsp_4, OpenCL NDR Kernel Complete, Kernel id 0, Work Group id 64
00:00:24.566637 00:00:00.000003 dsp_4, OpenCL NDR Kernel Start, Kernel id 0, Work Group id 72
00:00:24.566652 00:00:00.000015 dsp_7, OpenCL NDR Kernel Complete, Kernel id 0, Work Group id 65
00:00:24.566654 00:00:00.000002 dsp_7, OpenCL NDR Kernel Start, Kernel id 0, Work Group id 73
00:00:24.567201 00:00:00.000547 dsp_2, OpenCL NDR Kernel Complete, Kernel id 0, Work Group id 66
00:00:24.567203 00:00:00.000002 dsp_2, OpenCL NDR Kernel Start, Kernel id 0, Work Group id 74
00:00:24.567212 00:00:00.000009 dsp_6, OpenCL NDR Kernel Complete, Kernel id 0, Work Group id 67
00:00:24.567214 00:00:00.000002 dsp_6, OpenCL NDR Kernel Start, Kernel id 0, Work Group id 75
00:00:24.567223 00:00:00.000009 dsp_5, OpenCL NDR Kernel Complete, Kernel id 0, Work Group id 71
00:00:24.567225 00:00:00.000002 dsp_5, OpenCL NDR Kernel Start, Kernel id 0, Work Group id 76
00:00:24.567233 00:00:00.000008 dsp_1, OpenCL NDR Kernel Complete, Kernel id 0, Work Group id 68
00:00:24.567235 00:00:00.000002 dsp_1, OpenCL NDR Kernel Start, Kernel id 0, Work Group id 77
00:00:24.567253 00:00:00.000018 dsp_3, OpenCL NDR Kernel Complete, Kernel id 0, Work Group id 69
00:00:24.567255 00:00:00.000002 dsp_3, OpenCL NDR Kernel Start, Kernel id 0, Work Group id 78
00:00:24.567368 00:00:00.000113 dsp_0, OpenCL NDR Kernel Complete, Kernel id 0, Work Group id 70
00:00:24.567371 00:00:00.000003 dsp_0, OpenCL NDR Kernel Start, Kernel id 0, Work Group id 79
00:00:24.567831 00:00:00.000460 dsp_4, OpenCL NDR Kernel Complete, Kernel id 0, Work Group id 72
00:00:24.567834 00:00:00.000003 dsp_4, OpenCL NDR Kernel Start, Kernel id 0, Work Group id 80
00:00:24.567872 00:00:00.000038 dsp_7, OpenCL NDR Kernel Complete, Kernel id 0, Work Group id 73
00:00:24.567874 00:00:00.000002 dsp_7, OpenCL NDR Kernel Start, Kernel id 0, Work Group id 81
00:00:24.568421 00:00:00.000547 dsp_2, OpenCL NDR Kernel Complete, Kernel id 0, Work Group id 74
00:00:24.568422 00:00:00.000001 dsp_5, OpenCL NDR Kernel Complete, Kernel id 0, Work Group id 76
00:00:24.568424 00:00:00.000002 dsp_2, OpenCL NDR Kernel Start, Kernel id 0, Work Group id 82
00:00:24.568424 00:00:00.000000 dsp_5, OpenCL NDR Kernel Start, Kernel id 0, Work Group id 83
00:00:24.568433 00:00:00.000009 dsp_6, OpenCL NDR Kernel Complete, Kernel id 0, Work Group id 75
00:00:24.568435 00:00:00.000002 dsp_6, OpenCL NDR Kernel Start, Kernel id 0, Work Group id 84
00:00:24.568453 00:00:00.000018 dsp_1, OpenCL NDR Kernel Complete, Kernel id 0, Work Group id 77
00:00:24.568455 00:00:00.000002 dsp_1, OpenCL NDR Kernel Start, Kernel id 0, Work Group id 85
00:00:24.568472 00:00:00.000017 dsp_3, OpenCL NDR Kernel Complete, Kernel id 0, Work Group id 78
00:00:24.568474 00:00:00.000002 dsp_3, OpenCL NDR Kernel Start, Kernel id 0, Work Group id 86
00:00:24.568587 00:00:00.000113 dsp_0, OpenCL NDR Kernel Complete, Kernel id 0, Work Group id 79
00:00:24.568589 00:00:00.000002 dsp_0, OpenCL NDR Kernel Start, Kernel id 0, Work Group id 87
00:00:24.569034 00:00:00.000445 dsp_4, OpenCL NDR Kernel Complete, Kernel id 0, Work Group id 80
00:00:24.569036 00:00:00.000002 dsp_4, OpenCL NDR Kernel Start, Kernel id 0, Work Group id 88
00:00:24.569076 00:00:00.000040 dsp_7, OpenCL NDR Kernel Complete, Kernel id 0, Work Group id 81
00:00:24.569078 00:00:00.000002 dsp_7, OpenCL NDR Kernel Start, Kernel id 0, Work Group id 89
00:00:24.569622 00:00:00.000544 dsp_2, OpenCL NDR Kernel Complete, Kernel id 0, Work Group id 82
00:00:24.569624 00:00:00.000002 dsp_5, OpenCL NDR Kernel Complete, Kernel id 0, Work Group id 83
00:00:24.569624 00:00:00.000000 dsp_2, OpenCL NDR Kernel Start, Kernel id 0, Work Group id 90
00:00:24.569626 00:00:00.000002 dsp_5, OpenCL NDR Kernel Start, Kernel id 0, Work Group id 91
00:00:24.569635 00:00:00.000009 dsp_6, OpenCL NDR Kernel Complete, Kernel id 0, Work Group id 84
00:00:24.569637 00:00:00.000002 dsp_6, OpenCL NDR Kernel Start, Kernel id 0, Work Group id 92
00:00:24.569656 00:00:00.000019 dsp_1, OpenCL NDR Kernel Complete, Kernel id 0, Work Group id 85
00:00:24.569658 00:00:00.000002 dsp_1, OpenCL NDR Kernel Start, Kernel id 0, Work Group id 93
00:00:24.569674 00:00:00.000016 dsp_3, OpenCL NDR Kernel Complete, Kernel id 0, Work Group id 86
00:00:24.569676 00:00:00.000002 dsp_3, OpenCL NDR Kernel Start, Kernel id 0, Work Group id 94
00:00:24.569689 00:00:00.000013 dsp_7, OpenCL NDR Kernel Complete, Kernel id 0, Work Group id 89
00:00:24.569691 00:00:00.000002 dsp_7, OpenCL NDR Kernel Start, Kernel id 0, Work Group id 95
00:00:24.569789 00:00:00.000098 dsp_0, OpenCL NDR Kernel Complete, Kernel id 0, Work Group id 87
00:00:24.569792 00:00:00.000003 dsp_0, OpenCL NDR Kernel Start, Kernel id 0, Work Group id 96
00:00:24.570252 00:00:00.000460 dsp_4, OpenCL NDR Kernel Complete, Kernel id 0, Work Group id 88
00:00:24.570254 00:00:00.000002 dsp_4, OpenCL NDR Kernel Start, Kernel id 0, Work Group id 97
00:00:24.570816 00:00:00.000562 dsp_2, OpenCL NDR Kernel Complete, Kernel id 0, Work Group id 90
00:00:24.570819 00:00:00.000003 dsp_2, OpenCL NDR Kernel Start, Kernel id 0, Work Group id 98
00:00:24.570842 00:00:00.000023 dsp_5, OpenCL NDR Kernel Complete, Kernel id 0, Work Group id 91
00:00:24.570844 00:00:00.000002 dsp_5, OpenCL NDR Kernel Start, Kernel id 0, Work Group id 99
00:00:24.570855 00:00:00.000011 dsp_6, OpenCL NDR Kernel Complete, Kernel id 0, Work Group id 92
00:00:24.570857 00:00:00.000002 dsp_6, OpenCL NDR Kernel Start, Kernel id 0, Work Group id 100
00:00:24.570877 00:00:00.000020 dsp_1, OpenCL NDR Kernel Complete, Kernel id 0, Work Group id 93
00:00:24.570879 00:00:00.000002 dsp_1, OpenCL NDR Kernel Start, Kernel id 0, Work Group id 101
00:00:24.570889 00:00:00.000010 dsp_7, OpenCL NDR Kernel Complete, Kernel id 0, Work Group id 95
00:00:24.570891 00:00:00.000002 dsp_7, OpenCL NDR Kernel Start, Kernel id 0, Work Group id 102
00:00:24.570894 00:00:00.000003 dsp_3, OpenCL NDR Kernel Complete, Kernel id 0, Work Group id 94
00:00:24.570896 00:00:00.000002 dsp_3, OpenCL NDR Kernel Start, Kernel id 0, Work Group id 103
00:00:24.571004 00:00:00.000108 dsp_0, OpenCL NDR Kernel Complete, Kernel id 0, Work Group id 96
00:00:24.571006 00:00:00.000002 dsp_0, OpenCL NDR Kernel Start, Kernel id 0, Work Group id 104
00:00:24.571466 00:00:00.000460 dsp_4, OpenCL NDR Kernel Complete, Kernel id 0, Work Group id 97
00:00:24.571468 00:00:00.000002 dsp_4, OpenCL NDR Kernel Start, Kernel id 0, Work Group id 105
00:00:24.572018 00:00:00.000550 dsp_2, OpenCL NDR Kernel Complete, Kernel id 0, Work Group id 98
00:00:24.572020 00:00:00.000002 dsp_2, OpenCL NDR Kernel Start, Kernel id 0, Work Group id 106
00:00:24.572045 00:00:00.000025 dsp_5, OpenCL NDR Kernel Complete, Kernel id 0, Work Group id 99
00:00:24.572048 00:00:00.000003 dsp_5, OpenCL NDR Kernel Start, Kernel id 0, Work Group id 107
00:00:24.572058 00:00:00.000010 dsp_6, OpenCL NDR Kernel Complete, Kernel id 0, Work Group id 100
00:00:24.572061 00:00:00.000003 dsp_6, OpenCL NDR Kernel Start, Kernel id 0, Work Group id 108
00:00:24.572081 00:00:00.000020 dsp_1, OpenCL NDR Kernel Complete, Kernel id 0, Work Group id 101
00:00:24.572083 00:00:00.000002 dsp_1, OpenCL NDR Kernel Start, Kernel id 0, Work Group id 109
00:00:24.572096 00:00:00.000013 dsp_7, OpenCL NDR Kernel Complete, Kernel id 0, Work Group id 102
00:00:24.572098 00:00:00.000002 dsp_7, OpenCL NDR Kernel Start, Kernel id 0, Work Group id 110
00:00:24.572101 00:00:00.000003 dsp_3, OpenCL NDR Kernel Complete, Kernel id 0, Work Group id 103
00:00:24.572103 00:00:00.000002 dsp_3, OpenCL NDR Kernel Start, Kernel id 0, Work Group id 111
00:00:24.572205 00:00:00.000102 dsp_0, OpenCL NDR Kernel Complete, Kernel id 0, Work Group id 104
00:00:24.572207 00:00:00.000002 dsp_0, OpenCL NDR Kernel Start, Kernel id 0, Work Group id 112
00:00:24.572659 00:00:00.000452 dsp_5, OpenCL NDR Kernel Complete, Kernel id 0, Work Group id 107
00:00:24.572661 00:00:00.000002 dsp_5, OpenCL NDR Kernel Start, Kernel id 0, Work Group id 113
00:00:24.572669 00:00:00.000008 dsp_4, OpenCL NDR Kernel Complete, Kernel id 0, Work Group id 105
00:00:24.572671 00:00:00.000002 dsp_4, OpenCL NDR Kernel Start, Kernel id 0, Work Group id 114
00:00:24.573237 00:00:00.000566 dsp_2, OpenCL NDR Kernel Complete, Kernel id 0, Work Group id 106
00:00:24.573239 00:00:00.000002 dsp_2, OpenCL NDR Kernel Start, Kernel id 0, Work Group id 115
00:00:24.573255 00:00:00.000016 dsp_6, OpenCL NDR Kernel Complete, Kernel id 0, Work Group id 108
00:00:24.573258 00:00:00.000003 dsp_6, OpenCL NDR Kernel Start, Kernel id 0, Work Group id 116
00:00:24.573300 00:00:00.000042 dsp_1, OpenCL NDR Kernel Complete, Kernel id 0, Work Group id 109
00:00:24.573303 00:00:00.000003 dsp_1, OpenCL NDR Kernel Start, Kernel id 0, Work Group id 117
00:00:24.573315 00:00:00.000012 dsp_7, OpenCL NDR Kernel Complete, Kernel id 0, Work Group id 110
00:00:24.573318 00:00:00.000003 dsp_7, OpenCL NDR Kernel Start, Kernel id 0, Work Group id 118
00:00:24.573321 00:00:00.000003 dsp_3, OpenCL NDR Kernel Complete, Kernel id 0, Work Group id 111
00:00:24.573323 00:00:00.000002 dsp_3, OpenCL NDR Kernel Start, Kernel id 0, Work Group id 119
00:00:24.573422 00:00:00.000099 dsp_0, OpenCL NDR Kernel Complete, Kernel id 0, Work Group id 112
00:00:24.573424 00:00:00.000002 dsp_0, OpenCL NDR Kernel Start, Kernel id 0, Work Group id 120
00:00:24.573861 00:00:00.000437 dsp_5, OpenCL NDR Kernel Complete, Kernel id 0, Work Group id 113
00:00:24.573863 00:00:00.000002 dsp_5, OpenCL NDR Kernel Start, Kernel id 0, Work Group id 121
00:00:24.573890 00:00:00.000027 dsp_4, OpenCL NDR Kernel Complete, Kernel id 0, Work Group id 114
00:00:24.573893 00:00:00.000003 dsp_4, OpenCL NDR Kernel Start, Kernel id 0, Work Group id 122
00:00:24.574449 00:00:00.000556 dsp_2, OpenCL NDR Kernel Complete, Kernel id 0, Work Group id 115
00:00:24.574451 00:00:00.000002 dsp_2, OpenCL NDR Kernel Start, Kernel id 0, Work Group id 123
00:00:24.574455 00:00:00.000004 dsp_6, OpenCL NDR Kernel Complete, Kernel id 0, Work Group id 116
00:00:24.574457 00:00:00.000002 dsp_6, OpenCL NDR Kernel Start, Kernel id 0, Work Group id 124
00:00:24.574500 00:00:00.000043 dsp_1, OpenCL NDR Kernel Complete, Kernel id 0, Work Group id 117
00:00:24.574503 00:00:00.000003 dsp_1, OpenCL NDR Kernel Start, Kernel id 0, Work Group id 125
00:00:24.574516 00:00:00.000013 dsp_7, OpenCL NDR Kernel Complete, Kernel id 0, Work Group id 118
00:00:24.574518 00:00:00.000002 dsp_7, OpenCL NDR Kernel Start, Kernel id 0, Work Group id 126
00:00:24.574524 00:00:00.000006 dsp_3, OpenCL NDR Kernel Complete, Kernel id 0, Work Group id 119
00:00:24.574526 00:00:00.000002 dsp_3, OpenCL NDR Kernel Start, Kernel id 0, Work Group id 127
00:00:24.574624 00:00:00.000098 dsp_0, OpenCL NDR Kernel Complete, Kernel id 0, Work Group id 120
00:00:24.574627 00:00:00.000003 dsp_0, OpenCL NDR Kernel Start, Kernel id 0, Work Group id 128
00:00:24.575063 00:00:00.000436 dsp_5, OpenCL NDR Kernel Complete, Kernel id 0, Work Group id 121
00:00:24.575065 00:00:00.000002 dsp_5, OpenCL NDR Kernel Start, Kernel id 0, Work Group id 129
00:00:24.575092 00:00:00.000027 dsp_4, OpenCL NDR Kernel Complete, Kernel id 0, Work Group id 122
00:00:24.575094 00:00:00.000002 dsp_4, OpenCL NDR Kernel Start, Kernel id 0, Work Group id 130
00:00:24.575115 00:00:00.000021 dsp_1, OpenCL NDR Kernel Complete, Kernel id 0, Work Group id 125
00:00:24.575117 00:00:00.000002 dsp_1, OpenCL NDR Kernel Start, Kernel id 0, Work Group id 131
00:00:24.575651 00:00:00.000534 dsp_2, OpenCL NDR Kernel Complete, Kernel id 0, Work Group id 123
00:00:24.575653 00:00:00.000002 dsp_2, OpenCL NDR Kernel Start, Kernel id 0, Work Group id 132
00:00:24.575672 00:00:00.000019 dsp_6, OpenCL NDR Kernel Complete, Kernel id 0, Work Group id 124
00:00:24.575674 00:00:00.000002 dsp_6, OpenCL NDR Kernel Start, Kernel id 0, Work Group id 133
00:00:24.575712 00:00:00.000038 dsp_7, OpenCL NDR Kernel Complete, Kernel id 0, Work Group id 126
00:00:24.575715 00:00:00.000003 dsp_7, OpenCL NDR Kernel Start, Kernel id 0, Work Group id 134
00:00:24.575744 00:00:00.000029 dsp_3, OpenCL NDR Kernel Complete, Kernel id 0, Work Group id 127
00:00:24.575746 00:00:00.000002 dsp_3, OpenCL NDR Kernel Start, Kernel id 0, Work Group id 135
00:00:24.575846 00:00:00.000100 dsp_0, OpenCL NDR Kernel Complete, Kernel id 0, Work Group id 128
00:00:24.575848 00:00:00.000002 dsp_0, OpenCL NDR Kernel Start, Kernel id 0, Work Group id 136
00:00:24.576281 00:00:00.000433 dsp_5, OpenCL NDR Kernel Complete, Kernel id 0, Work Group id 129
00:00:24.576283 00:00:00.000002 dsp_5, OpenCL NDR Kernel Start, Kernel id 0, Work Group id 137
00:00:24.576311 00:00:00.000028 dsp_4, OpenCL NDR Kernel Complete, Kernel id 0, Work Group id 130
00:00:24.576313 00:00:00.000002 dsp_4, OpenCL NDR Kernel Start, Kernel id 0, Work Group id 138
00:00:24.576315 00:00:00.000002 dsp_1, OpenCL NDR Kernel Complete, Kernel id 0, Work Group id 131
00:00:24.576317 00:00:00.000002 dsp_1, OpenCL NDR Kernel Start, Kernel id 0, Work Group id 139
00:00:24.576870 00:00:00.000553 dsp_2, OpenCL NDR Kernel Complete, Kernel id 0, Work Group id 132
00:00:24.576872 00:00:00.000002 dsp_2, OpenCL NDR Kernel Start, Kernel id 0, Work Group id 140
00:00:24.576889 00:00:00.000017 dsp_6, OpenCL NDR Kernel Complete, Kernel id 0, Work Group id 133
00:00:24.576891 00:00:00.000002 dsp_6, OpenCL NDR Kernel Start, Kernel id 0, Work Group id 141
00:00:24.576915 00:00:00.000024 dsp_7, OpenCL NDR Kernel Complete, Kernel id 0, Work Group id 134
00:00:24.576917 00:00:00.000002 dsp_7, OpenCL NDR Kernel Start, Kernel id 0, Work Group id 142
00:00:24.576946 00:00:00.000029 dsp_3, OpenCL NDR Kernel Complete, Kernel id 0, Work Group id 135
00:00:24.576949 00:00:00.000003 dsp_3, OpenCL NDR Kernel Start, Kernel id 0, Work Group id 143
00:00:24.577046 00:00:00.000097 dsp_0, OpenCL NDR Kernel Complete, Kernel id 0, Work Group id 136
00:00:24.577048 00:00:00.000002 dsp_0, OpenCL NDR Kernel Start, Kernel id 0, Work Group id 144
00:00:24.577485 00:00:00.000437 dsp_5, OpenCL NDR Kernel Complete, Kernel id 0, Work Group id 137
00:00:24.577487 00:00:00.000002 dsp_5, OpenCL NDR Kernel Start, Kernel id 0, Work Group id 145
00:00:24.577516 00:00:00.000029 dsp_4, OpenCL NDR Kernel Complete, Kernel id 0, Work Group id 138
00:00:24.577518 00:00:00.000002 dsp_4, OpenCL NDR Kernel Start, Kernel id 0, Work Group id 146
00:00:24.577521 00:00:00.000003 dsp_1, OpenCL NDR Kernel Complete, Kernel id 0, Work Group id 139
00:00:24.577523 00:00:00.000002 dsp_1, OpenCL NDR Kernel Start, Kernel id 0, Work Group id 147
00:00:24.577562 00:00:00.000039 dsp_3, OpenCL NDR Kernel Complete, Kernel id 0, Work Group id 143
00:00:24.577565 00:00:00.000003 dsp_3, OpenCL NDR Kernel Start, Kernel id 0, Work Group id 148
00:00:24.578072 00:00:00.000507 dsp_2, OpenCL NDR Kernel Complete, Kernel id 0, Work Group id 140
00:00:24.578074 00:00:00.000002 dsp_2, OpenCL NDR Kernel Start, Kernel id 0, Work Group id 149
00:00:24.578093 00:00:00.000019 dsp_6, OpenCL NDR Kernel Complete, Kernel id 0, Work Group id 141
00:00:24.578095 00:00:00.000002 dsp_6, OpenCL NDR Kernel Start, Kernel id 0, Work Group id 150
00:00:24.578136 00:00:00.000041 dsp_7, OpenCL NDR Kernel Complete, Kernel id 0, Work Group id 142
00:00:24.578139 00:00:00.000003 dsp_7, OpenCL NDR Kernel Start, Kernel id 0, Work Group id 151
00:00:24.578241 00:00:00.000102 dsp_0, OpenCL NDR Kernel Complete, Kernel id 0, Work Group id 144
00:00:24.578243 00:00:00.000002 dsp_0, OpenCL NDR Kernel Start, Kernel id 0, Work Group id 152
00:00:24.578704 00:00:00.000461 dsp_5, OpenCL NDR Kernel Complete, Kernel id 0, Work Group id 145
00:00:24.578706 00:00:00.000002 dsp_5, OpenCL NDR Kernel Start, Kernel id 0, Work Group id 153
00:00:24.578737 00:00:00.000031 dsp_4, OpenCL NDR Kernel Complete, Kernel id 0, Work Group id 146
00:00:24.578739 00:00:00.000002 dsp_4, OpenCL NDR Kernel Start, Kernel id 0, Work Group id 154
00:00:24.578743 00:00:00.000004 dsp_1, OpenCL NDR Kernel Complete, Kernel id 0, Work Group id 147
00:00:24.578745 00:00:00.000002 dsp_1, OpenCL NDR Kernel Start, Kernel id 0, Work Group id 155
00:00:24.578763 00:00:00.000018 dsp_3, OpenCL NDR Kernel Complete, Kernel id 0, Work Group id 148
00:00:24.578765 00:00:00.000002 dsp_3, OpenCL NDR Kernel Start, Kernel id 0, Work Group id 156
00:00:24.579290 00:00:00.000525 dsp_2, OpenCL NDR Kernel Complete, Kernel id 0, Work Group id 149
00:00:24.579292 00:00:00.000002 dsp_2, OpenCL NDR Kernel Start, Kernel id 0, Work Group id 157
00:00:24.579310 00:00:00.000018 dsp_6, OpenCL NDR Kernel Complete, Kernel id 0, Work Group id 150
00:00:24.579312 00:00:00.000002 dsp_6, OpenCL NDR Kernel Start, Kernel id 0, Work Group id 158
00:00:24.579352 00:00:00.000040 dsp_7, OpenCL NDR Kernel Complete, Kernel id 0, Work Group id 151
00:00:24.579354 00:00:00.000002 dsp_7, OpenCL NDR Kernel Start, Kernel id 0, Work Group id 159
00:00:24.579442 00:00:00.000088 dsp_0, OpenCL NDR Kernel Complete, Kernel id 0, Work Group id 152
00:00:24.579445 00:00:00.000003 dsp_0, OpenCL NDR Kernel Start, Kernel id 0, Work Group id 160
00:00:24.579905 00:00:00.000460 dsp_5, OpenCL NDR Kernel Complete, Kernel id 0, Work Group id 153
00:00:24.579908 00:00:00.000003 dsp_5, OpenCL NDR Kernel Start, Kernel id 0, Work Group id 161
00:00:24.579938 00:00:00.000030 dsp_4, OpenCL NDR Kernel Complete, Kernel id 0, Work Group id 154
00:00:24.579940 00:00:00.000002 dsp_4, OpenCL NDR Kernel Start, Kernel id 0, Work Group id 162
00:00:24.579946 00:00:00.000006 dsp_1, OpenCL NDR Kernel Complete, Kernel id 0, Work Group id 155
00:00:24.579948 00:00:00.000002 dsp_1, OpenCL NDR Kernel Start, Kernel id 0, Work Group id 163
00:00:24.579965 00:00:00.000017 dsp_3, OpenCL NDR Kernel Complete, Kernel id 0, Work Group id 156
00:00:24.579967 00:00:00.000002 dsp_3, OpenCL NDR Kernel Start, Kernel id 0, Work Group id 164
00:00:24.580492 00:00:00.000525 dsp_2, OpenCL NDR Kernel Complete, Kernel id 0, Work Group id 157
00:00:24.580494 00:00:00.000002 dsp_2, OpenCL NDR Kernel Start, Kernel id 0, Work Group id 165
00:00:24.580511 00:00:00.000017 dsp_6, OpenCL NDR Kernel Complete, Kernel id 0, Work Group id 158
00:00:24.580513 00:00:00.000002 dsp_6, OpenCL NDR Kernel Start, Kernel id 0, Work Group id 166
00:00:24.580519 00:00:00.000006 dsp_5, OpenCL NDR Kernel Complete, Kernel id 0, Work Group id 161
00:00:24.580521 00:00:00.000002 dsp_5, OpenCL NDR Kernel Start, Kernel id 0, Work Group id 167
00:00:24.580556 00:00:00.000035 dsp_7, OpenCL NDR Kernel Complete, Kernel id 0, Work Group id 159
00:00:24.580558 00:00:00.000002 dsp_7, OpenCL NDR Kernel Start, Kernel id 0, Work Group id 168
00:00:24.580660 00:00:00.000102 dsp_0, OpenCL NDR Kernel Complete, Kernel id 0, Work Group id 160
00:00:24.580662 00:00:00.000002 dsp_0, OpenCL NDR Kernel Start, Kernel id 0, Work Group id 169
00:00:24.581135 00:00:00.000473 dsp_4, OpenCL NDR Kernel Complete, Kernel id 0, Work Group id 162
00:00:24.581137 00:00:00.000002 dsp_4, OpenCL NDR Kernel Start, Kernel id 0, Work Group id 170
00:00:24.581167 00:00:00.000030 dsp_1, OpenCL NDR Kernel Complete, Kernel id 0, Work Group id 163
00:00:24.581169 00:00:00.000002 dsp_1, OpenCL NDR Kernel Start, Kernel id 0, Work Group id 171
00:00:24.581185 00:00:00.000016 dsp_3, OpenCL NDR Kernel Complete, Kernel id 0, Work Group id 164
00:00:24.581187 00:00:00.000002 dsp_3, OpenCL NDR Kernel Start, Kernel id 0, Work Group id 172
00:00:24.581709 00:00:00.000522 dsp_2, OpenCL NDR Kernel Complete, Kernel id 0, Work Group id 165
00:00:24.581711 00:00:00.000002 dsp_2, OpenCL NDR Kernel Start, Kernel id 0, Work Group id 173
00:00:24.581718 00:00:00.000007 dsp_5, OpenCL NDR Kernel Complete, Kernel id 0, Work Group id 167
00:00:24.581720 00:00:00.000002 dsp_5, OpenCL NDR Kernel Start, Kernel id 0, Work Group id 174
00:00:24.581729 00:00:00.000009 dsp_6, OpenCL NDR Kernel Complete, Kernel id 0, Work Group id 166
00:00:24.581731 00:00:00.000002 dsp_6, OpenCL NDR Kernel Start, Kernel id 0, Work Group id 175
00:00:24.581776 00:00:00.000045 dsp_7, OpenCL NDR Kernel Complete, Kernel id 0, Work Group id 168
00:00:24.581778 00:00:00.000002 dsp_7, OpenCL NDR Kernel Start, Kernel id 0, Work Group id 176
00:00:24.581878 00:00:00.000100 dsp_0, OpenCL NDR Kernel Complete, Kernel id 0, Work Group id 169
00:00:24.581880 00:00:00.000002 dsp_0, OpenCL NDR Kernel Start, Kernel id 0, Work Group id 177
00:00:24.582341 00:00:00.000461 dsp_4, OpenCL NDR Kernel Complete, Kernel id 0, Work Group id 170
00:00:24.582343 00:00:00.000002 dsp_4, OpenCL NDR Kernel Start, Kernel id 0, Work Group id 178
00:00:24.582375 00:00:00.000032 dsp_1, OpenCL NDR Kernel Complete, Kernel id 0, Work Group id 171
00:00:24.582377 00:00:00.000002 dsp_1, OpenCL NDR Kernel Start, Kernel id 0, Work Group id 179
00:00:24.582394 00:00:00.000017 dsp_3, OpenCL NDR Kernel Complete, Kernel id 0, Work Group id 172
00:00:24.582397 00:00:00.000003 dsp_3, OpenCL NDR Kernel Start, Kernel id 0, Work Group id 180
00:00:24.582916 00:00:00.000519 dsp_2, OpenCL NDR Kernel Complete, Kernel id 0, Work Group id 173
00:00:24.582918 00:00:00.000002 dsp_2, OpenCL NDR Kernel Start, Kernel id 0, Work Group id 181
00:00:24.582924 00:00:00.000006 dsp_5, OpenCL NDR Kernel Complete, Kernel id 0, Work Group id 174
00:00:24.582926 00:00:00.000002 dsp_5, OpenCL NDR Kernel Start, Kernel id 0, Work Group id 182
00:00:24.582936 00:00:00.000010 dsp_6, OpenCL NDR Kernel Complete, Kernel id 0, Work Group id 175
00:00:24.582938 00:00:00.000002 dsp_6, OpenCL NDR Kernel Start, Kernel id 0, Work Group id 183
00:00:24.582984 00:00:00.000046 dsp_7, OpenCL NDR Kernel Complete, Kernel id 0, Work Group id 176
00:00:24.582985 00:00:00.000001 dsp_7, OpenCL NDR Kernel Start, Kernel id 0, Work Group id 184
00:00:24.582988 00:00:00.000003 dsp_1, OpenCL NDR Kernel Complete, Kernel id 0, Work Group id 179
00:00:24.582990 00:00:00.000002 dsp_1, OpenCL NDR Kernel Start, Kernel id 0, Work Group id 185
00:00:24.583083 00:00:00.000093 dsp_0, OpenCL NDR Kernel Complete, Kernel id 0, Work Group id 177
00:00:24.583085 00:00:00.000002 dsp_0, OpenCL NDR Kernel Start, Kernel id 0, Work Group id 186
00:00:24.583558 00:00:00.000473 dsp_4, OpenCL NDR Kernel Complete, Kernel id 0, Work Group id 178
00:00:24.583560 00:00:00.000002 dsp_4, OpenCL NDR Kernel Start, Kernel id 0, Work Group id 187
00:00:24.583592 00:00:00.000032 dsp_3, OpenCL NDR Kernel Complete, Kernel id 0, Work Group id 180
00:00:24.583594 00:00:00.000002 dsp_3, OpenCL NDR Kernel Start, Kernel id 0, Work Group id 188
00:00:24.584138 00:00:00.000544 dsp_2, OpenCL NDR Kernel Complete, Kernel id 0, Work Group id 181
00:00:24.584140 00:00:00.000002 dsp_2, OpenCL NDR Kernel Start, Kernel id 0, Work Group id 189
00:00:24.584146 00:00:00.000006 dsp_5, OpenCL NDR Kernel Complete, Kernel id 0, Work Group id 182
00:00:24.584148 00:00:00.000002 dsp_5, OpenCL NDR Kernel Start, Kernel id 0, Work Group id 190
00:00:24.584158 00:00:00.000010 dsp_6, OpenCL NDR Kernel Complete, Kernel id 0, Work Group id 183
00:00:24.584160 00:00:00.000002 dsp_6, OpenCL NDR Kernel Start, Kernel id 0, Work Group id 191
00:00:24.584193 00:00:00.000033 dsp_1, OpenCL NDR Kernel Complete, Kernel id 0, Work Group id 185
00:00:24.584195 00:00:00.000002 dsp_1, OpenCL NDR Kernel Start, Kernel id 0, Work Group id 192
00:00:24.584205 00:00:00.000010 dsp_7, OpenCL NDR Kernel Complete, Kernel id 0, Work Group id 184
00:00:24.584207 00:00:00.000002 dsp_7, OpenCL NDR Kernel Start, Kernel id 0, Work Group id 193
00:00:24.584306 00:00:00.000099 dsp_0, OpenCL NDR Kernel Complete, Kernel id 0, Work Group id 186
00:00:24.584308 00:00:00.000002 dsp_0, OpenCL NDR Kernel Start, Kernel id 0, Work Group id 194
00:00:24.584775 00:00:00.000467 dsp_4, OpenCL NDR Kernel Complete, Kernel id 0, Work Group id 187
00:00:24.584777 00:00:00.000002 dsp_4, OpenCL NDR Kernel Start, Kernel id 0, Work Group id 195
00:00:24.584795 00:00:00.000018 dsp_3, OpenCL NDR Kernel Complete, Kernel id 0, Work Group id 188
00:00:24.584797 00:00:00.000002 dsp_3, OpenCL NDR Kernel Start, Kernel id 0, Work Group id 196
00:00:24.585341 00:00:00.000544 dsp_2, OpenCL NDR Kernel Complete, Kernel id 0, Work Group id 189
00:00:24.585343 00:00:00.000002 dsp_2, OpenCL NDR Kernel Start, Kernel id 0, Work Group id 197
00:00:24.585350 00:00:00.000007 dsp_5, OpenCL NDR Kernel Complete, Kernel id 0, Work Group id 190
00:00:24.585352 00:00:00.000002 dsp_5, OpenCL NDR Kernel Start, Kernel id 0, Work Group id 198
00:00:24.585363 00:00:00.000011 dsp_6, OpenCL NDR Kernel Complete, Kernel id 0, Work Group id 191
00:00:24.585365 00:00:00.000002 dsp_6, OpenCL NDR Kernel Start, Kernel id 0, Work Group id 199
00:00:24.585400 00:00:00.000035 dsp_1, OpenCL NDR Kernel Complete, Kernel id 0, Work Group id 192
00:00:24.585402 00:00:00.000002 dsp_1, OpenCL NDR Kernel Start, Kernel id 0, Work Group id 200
00:00:24.585412 00:00:00.000010 dsp_7, OpenCL NDR Kernel Complete, Kernel id 0, Work Group id 193
00:00:24.585414 00:00:00.000002 dsp_7, OpenCL NDR Kernel Start, Kernel id 0, Work Group id 201
00:00:24.585512 00:00:00.000098 dsp_0, OpenCL NDR Kernel Complete, Kernel id 0, Work Group id 194
00:00:24.585515 00:00:00.000003 dsp_0, OpenCL NDR Kernel Start, Kernel id 0, Work Group id 202
00:00:24.585957 00:00:00.000442 dsp_2, OpenCL NDR Kernel Complete, Kernel id 0, Work Group id 197
00:00:24.585959 00:00:00.000002 dsp_2, OpenCL NDR Kernel Start, Kernel id 0, Work Group id 203
00:00:24.585981 00:00:00.000022 dsp_4, OpenCL NDR Kernel Complete, Kernel id 0, Work Group id 195
00:00:24.585983 00:00:00.000002 dsp_4, OpenCL NDR Kernel Start, Kernel id 0, Work Group id 204
00:00:24.586017 00:00:00.000034 dsp_3, OpenCL NDR Kernel Complete, Kernel id 0, Work Group id 196
00:00:24.586019 00:00:00.000002 dsp_3, OpenCL NDR Kernel Start, Kernel id 0, Work Group id 205
00:00:24.586547 00:00:00.000528 dsp_5, OpenCL NDR Kernel Complete, Kernel id 0, Work Group id 198
00:00:24.586549 00:00:00.000002 dsp_5, OpenCL NDR Kernel Start, Kernel id 0, Work Group id 206
00:00:24.586583 00:00:00.000034 dsp_6, OpenCL NDR Kernel Complete, Kernel id 0, Work Group id 199
00:00:24.586585 00:00:00.000002 dsp_6, OpenCL NDR Kernel Start, Kernel id 0, Work Group id 207
00:00:24.586620 00:00:00.000035 dsp_1, OpenCL NDR Kernel Complete, Kernel id 0, Work Group id 200
00:00:24.586622 00:00:00.000002 dsp_1, OpenCL NDR Kernel Start, Kernel id 0, Work Group id 208
00:00:24.586631 00:00:00.000009 dsp_7, OpenCL NDR Kernel Complete, Kernel id 0, Work Group id 201
00:00:24.586633 00:00:00.000002 dsp_7, OpenCL NDR Kernel Start, Kernel id 0, Work Group id 209
00:00:24.586734 00:00:00.000101 dsp_0, OpenCL NDR Kernel Complete, Kernel id 0, Work Group id 202
00:00:24.586736 00:00:00.000002 dsp_0, OpenCL NDR Kernel Start, Kernel id 0, Work Group id 210
00:00:24.587154 00:00:00.000418 dsp_2, OpenCL NDR Kernel Complete, Kernel id 0, Work Group id 203
00:00:24.587156 00:00:00.000002 dsp_2, OpenCL NDR Kernel Start, Kernel id 0, Work Group id 211
00:00:24.587196 00:00:00.000040 dsp_4, OpenCL NDR Kernel Complete, Kernel id 0, Work Group id 204
00:00:24.587198 00:00:00.000002 dsp_4, OpenCL NDR Kernel Start, Kernel id 0, Work Group id 212
00:00:24.587232 00:00:00.000034 dsp_3, OpenCL NDR Kernel Complete, Kernel id 0, Work Group id 205
00:00:24.587234 00:00:00.000002 dsp_3, OpenCL NDR Kernel Start, Kernel id 0, Work Group id 213
00:00:24.587747 00:00:00.000513 dsp_5, OpenCL NDR Kernel Complete, Kernel id 0, Work Group id 206
00:00:24.587749 00:00:00.000002 dsp_5, OpenCL NDR Kernel Start, Kernel id 0, Work Group id 214
00:00:24.587783 00:00:00.000034 dsp_6, OpenCL NDR Kernel Complete, Kernel id 0, Work Group id 207
00:00:24.587785 00:00:00.000002 dsp_6, OpenCL NDR Kernel Start, Kernel id 0, Work Group id 215
00:00:24.587820 00:00:00.000035 dsp_1, OpenCL NDR Kernel Complete, Kernel id 0, Work Group id 208
00:00:24.587822 00:00:00.000002 dsp_1, OpenCL NDR Kernel Start, Kernel id 0, Work Group id 216
00:00:24.587834 00:00:00.000012 dsp_7, OpenCL NDR Kernel Complete, Kernel id 0, Work Group id 209
00:00:24.587837 00:00:00.000003 dsp_7, OpenCL NDR Kernel Start, Kernel id 0, Work Group id 217
00:00:24.587936 00:00:00.000099 dsp_0, OpenCL NDR Kernel Complete, Kernel id 0, Work Group id 210
00:00:24.587938 00:00:00.000002 dsp_0, OpenCL NDR Kernel Start, Kernel id 0, Work Group id 218
00:00:24.588359 00:00:00.000421 dsp_2, OpenCL NDR Kernel Complete, Kernel id 0, Work Group id 211
00:00:24.588361 00:00:00.000002 dsp_2, OpenCL NDR Kernel Start, Kernel id 0, Work Group id 219
00:00:24.588397 00:00:00.000036 dsp_6, OpenCL NDR Kernel Complete, Kernel id 0, Work Group id 215
00:00:24.588397 00:00:00.000000 dsp_4, OpenCL NDR Kernel Complete, Kernel id 0, Work Group id 212
00:00:24.588399 00:00:00.000002 dsp_6, OpenCL NDR Kernel Start, Kernel id 0, Work Group id 220
00:00:24.588400 00:00:00.000001 dsp_4, OpenCL NDR Kernel Start, Kernel id 0, Work Group id 221
00:00:24.588435 00:00:00.000035 dsp_3, OpenCL NDR Kernel Complete, Kernel id 0, Work Group id 213
00:00:24.588437 00:00:00.000002 dsp_3, OpenCL NDR Kernel Start, Kernel id 0, Work Group id 222
00:00:24.588965 00:00:00.000528 dsp_5, OpenCL NDR Kernel Complete, Kernel id 0, Work Group id 214
00:00:24.588967 00:00:00.000002 dsp_5, OpenCL NDR Kernel Start, Kernel id 0, Work Group id 223
00:00:24.589017 00:00:00.000050 dsp_1, OpenCL NDR Kernel Complete, Kernel id 0, Work Group id 216
00:00:24.589019 00:00:00.000002 dsp_1, OpenCL NDR Kernel Start, Kernel id 0, Work Group id 224
00:00:24.589055 00:00:00.000036 dsp_7, OpenCL NDR Kernel Complete, Kernel id 0, Work Group id 217
00:00:24.589057 00:00:00.000002 dsp_7, OpenCL NDR Kernel Start, Kernel id 0, Work Group id 225
00:00:24.589155 00:00:00.000098 dsp_0, OpenCL NDR Kernel Complete, Kernel id 0, Work Group id 218
00:00:24.589158 00:00:00.000003 dsp_0, OpenCL NDR Kernel Start, Kernel id 0, Work Group id 226
00:00:24.589578 00:00:00.000420 dsp_2, OpenCL NDR Kernel Complete, Kernel id 0, Work Group id 219
00:00:24.589580 00:00:00.000002 dsp_2, OpenCL NDR Kernel Start, Kernel id 0, Work Group id 227
00:00:24.589593 00:00:00.000013 dsp_6, OpenCL NDR Kernel Complete, Kernel id 0, Work Group id 220
00:00:24.589595 00:00:00.000002 dsp_6, OpenCL NDR Kernel Start, Kernel id 0, Work Group id 228
00:00:24.589613 00:00:00.000018 dsp_4, OpenCL NDR Kernel Complete, Kernel id 0, Work Group id 221
00:00:24.589615 00:00:00.000002 dsp_4, OpenCL NDR Kernel Start, Kernel id 0, Work Group id 229
00:00:24.589652 00:00:00.000037 dsp_3, OpenCL NDR Kernel Complete, Kernel id 0, Work Group id 222
00:00:24.589654 00:00:00.000002 dsp_3, OpenCL NDR Kernel Start, Kernel id 0, Work Group id 230
00:00:24.590182 00:00:00.000528 dsp_5, OpenCL NDR Kernel Complete, Kernel id 0, Work Group id 223
00:00:24.590184 00:00:00.000002 dsp_5, OpenCL NDR Kernel Start, Kernel id 0, Work Group id 231
00:00:24.590220 00:00:00.000036 dsp_1, OpenCL NDR Kernel Complete, Kernel id 0, Work Group id 224
00:00:24.590222 00:00:00.000002 dsp_1, OpenCL NDR Kernel Start, Kernel id 0, Work Group id 232
00:00:24.590257 00:00:00.000035 dsp_7, OpenCL NDR Kernel Complete, Kernel id 0, Work Group id 225
00:00:24.590260 00:00:00.000003 dsp_7, OpenCL NDR Kernel Start, Kernel id 0, Work Group id 233
00:00:24.590357 00:00:00.000097 dsp_0, OpenCL NDR Kernel Complete, Kernel id 0, Work Group id 226
00:00:24.590359 00:00:00.000002 dsp_0, OpenCL NDR Kernel Start, Kernel id 0, Work Group id 234
00:00:24.590780 00:00:00.000421 dsp_2, OpenCL NDR Kernel Complete, Kernel id 0, Work Group id 227
00:00:24.590782 00:00:00.000002 dsp_2, OpenCL NDR Kernel Start, Kernel id 0, Work Group id 235
00:00:24.590796 00:00:00.000014 dsp_6, OpenCL NDR Kernel Complete, Kernel id 0, Work Group id 228
00:00:24.590798 00:00:00.000002 dsp_6, OpenCL NDR Kernel Start, Kernel id 0, Work Group id 236
00:00:24.590817 00:00:00.000019 dsp_4, OpenCL NDR Kernel Complete, Kernel id 0, Work Group id 229
00:00:24.590819 00:00:00.000002 dsp_4, OpenCL NDR Kernel Start, Kernel id 0, Work Group id 237
00:00:24.590857 00:00:00.000038 dsp_3, OpenCL NDR Kernel Complete, Kernel id 0, Work Group id 230
00:00:24.590860 00:00:00.000003 dsp_3, OpenCL NDR Kernel Start, Kernel id 0, Work Group id 238
00:00:24.590874 00:00:00.000014 dsp_7, OpenCL NDR Kernel Complete, Kernel id 0, Work Group id 233
00:00:24.590876 00:00:00.000002 dsp_7, OpenCL NDR Kernel Start, Kernel id 0, Work Group id 239
00:00:24.591389 00:00:00.000513 dsp_5, OpenCL NDR Kernel Complete, Kernel id 0, Work Group id 231
00:00:24.591391 00:00:00.000002 dsp_5, OpenCL NDR Kernel Start, Kernel id 0, Work Group id 240
00:00:24.591442 00:00:00.000051 dsp_1, OpenCL NDR Kernel Complete, Kernel id 0, Work Group id 232
00:00:24.591444 00:00:00.000002 dsp_1, OpenCL NDR Kernel Start, Kernel id 0, Work Group id 241
00:00:24.591556 00:00:00.000112 dsp_0, OpenCL NDR Kernel Complete, Kernel id 0, Work Group id 234
00:00:24.591559 00:00:00.000003 dsp_0, OpenCL NDR Kernel Start, Kernel id 0, Work Group id 242
00:00:24.592001 00:00:00.000442 dsp_2, OpenCL NDR Kernel Complete, Kernel id 0, Work Group id 235
00:00:24.592003 00:00:00.000002 dsp_2, OpenCL NDR Kernel Start, Kernel id 0, Work Group id 243
00:00:24.592017 00:00:00.000014 dsp_6, OpenCL NDR Kernel Complete, Kernel id 0, Work Group id 236
00:00:24.592019 00:00:00.000002 dsp_6, OpenCL NDR Kernel Start, Kernel id 0, Work Group id 244
00:00:24.592038 00:00:00.000019 dsp_4, OpenCL NDR Kernel Complete, Kernel id 0, Work Group id 237
00:00:24.592041 00:00:00.000003 dsp_4, OpenCL NDR Kernel Start, Kernel id 0, Work Group id 245
00:00:24.592075 00:00:00.000034 dsp_7, OpenCL NDR Kernel Complete, Kernel id 0, Work Group id 239
00:00:24.592077 00:00:00.000002 dsp_7, OpenCL NDR Kernel Start, Kernel id 0, Work Group id 246
00:00:24.592079 00:00:00.000002 dsp_3, OpenCL NDR Kernel Complete, Kernel id 0, Work Group id 238
00:00:24.592081 00:00:00.000002 dsp_3, OpenCL NDR Kernel Start, Kernel id 0, Work Group id 247
00:00:24.592606 00:00:00.000525 dsp_5, OpenCL NDR Kernel Complete, Kernel id 0, Work Group id 240
00:00:24.592608 00:00:00.000002 dsp_5, OpenCL NDR Kernel Start, Kernel id 0, Work Group id 248
00:00:24.592658 00:00:00.000050 dsp_1, OpenCL NDR Kernel Complete, Kernel id 0, Work Group id 241
00:00:24.592660 00:00:00.000002 dsp_1, OpenCL NDR Kernel Start, Kernel id 0, Work Group id 249
00:00:24.592756 00:00:00.000096 dsp_0, OpenCL NDR Kernel Complete, Kernel id 0, Work Group id 242
00:00:24.592758 00:00:00.000002 dsp_0, OpenCL NDR Kernel Start, Kernel id 0, Work Group id 250
00:00:24.593204 00:00:00.000446 dsp_2, OpenCL NDR Kernel Complete, Kernel id 0, Work Group id 243
00:00:24.593206 00:00:00.000002 dsp_2, OpenCL NDR Kernel Start, Kernel id 0, Work Group id 251
00:00:24.593221 00:00:00.000015 dsp_6, OpenCL NDR Kernel Complete, Kernel id 0, Work Group id 244
00:00:24.593224 00:00:00.000003 dsp_6, OpenCL NDR Kernel Start, Kernel id 0, Work Group id 252
00:00:24.593242 00:00:00.000018 dsp_4, OpenCL NDR Kernel Complete, Kernel id 0, Work Group id 245
00:00:24.593244 00:00:00.000002 dsp_4, OpenCL NDR Kernel Start, Kernel id 0, Work Group id 253
00:00:24.593278 00:00:00.000034 dsp_7, OpenCL NDR Kernel Complete, Kernel id 0, Work Group id 246
00:00:24.593280 00:00:00.000002 dsp_7, OpenCL NDR Kernel Start, Kernel id 0, Work Group id 254
00:00:24.593283 00:00:00.000003 dsp_3, OpenCL NDR Kernel Complete, Kernel id 0, Work Group id 247
00:00:24.593286 00:00:00.000003 dsp_3, OpenCL NDR Kernel Start, Kernel id 0, Work Group id 255
00:00:24.593811 00:00:00.000525 dsp_5, OpenCL NDR Kernel Complete, Kernel id 0, Work Group id 248
00:00:24.593813 00:00:00.000002 dsp_5, OpenCL NDR Kernel Start, Kernel id 0, Work Group id 256
00:00:24.593818 00:00:00.000005 dsp_2, OpenCL NDR Kernel Complete, Kernel id 0, Work Group id 251
00:00:24.593820 00:00:00.000002 dsp_2, OpenCL NDR Kernel Start, Kernel id 0, Work Group id 257
00:00:24.593864 00:00:00.000044 dsp_1, OpenCL NDR Kernel Complete, Kernel id 0, Work Group id 249
00:00:24.593866 00:00:00.000002 dsp_1, OpenCL NDR Kernel Start, Kernel id 0, Work Group id 258
00:00:24.593976 00:00:00.000110 dsp_0, OpenCL NDR Kernel Complete, Kernel id 0, Work Group id 250
00:00:24.593978 00:00:00.000002 dsp_0, OpenCL NDR Kernel Start, Kernel id 0, Work Group id 259
00:00:24.594420 00:00:00.000442 dsp_6, OpenCL NDR Kernel Complete, Kernel id 0, Work Group id 252
00:00:24.594423 00:00:00.000003 dsp_6, OpenCL NDR Kernel Start, Kernel id 0, Work Group id 260
00:00:24.594465 00:00:00.000042 dsp_4, OpenCL NDR Kernel Complete, Kernel id 0, Work Group id 253
00:00:24.594467 00:00:00.000002 dsp_4, OpenCL NDR Kernel Start, Kernel id 0, Work Group id 261
00:00:24.594500 00:00:00.000033 dsp_7, OpenCL NDR Kernel Complete, Kernel id 0, Work Group id 254
00:00:24.594502 00:00:00.000002 dsp_7, OpenCL NDR Kernel Start, Kernel id 0, Work Group id 262
00:00:24.594505 00:00:00.000003 dsp_3, OpenCL NDR Kernel Complete, Kernel id 0, Work Group id 255
00:00:24.594507 00:00:00.000002 dsp_3, OpenCL NDR Kernel Start, Kernel id 0, Work Group id 263
00:00:24.595014 00:00:00.000507 dsp_2, OpenCL NDR Kernel Complete, Kernel id 0, Work Group id 257
00:00:24.595016 00:00:00.000002 dsp_2, OpenCL NDR Kernel Start, Kernel id 0, Work Group id 264
00:00:24.595028 00:00:00.000012 dsp_5, OpenCL NDR Kernel Complete, Kernel id 0, Work Group id 256
00:00:24.595030 00:00:00.000002 dsp_5, OpenCL NDR Kernel Start, Kernel id 0, Work Group id 265
00:00:24.595082 00:00:00.000052 dsp_1, OpenCL NDR Kernel Complete, Kernel id 0, Work Group id 258
00:00:24.595084 00:00:00.000002 dsp_1, OpenCL NDR Kernel Start, Kernel id 0, Work Group id 266
00:00:24.595194 00:00:00.000110 dsp_0, OpenCL NDR Kernel Complete, Kernel id 0, Work Group id 259
00:00:24.595196 00:00:00.000002 dsp_0, OpenCL NDR Kernel Start, Kernel id 0, Work Group id 267
00:00:24.595623 00:00:00.000427 dsp_6, OpenCL NDR Kernel Complete, Kernel id 0, Work Group id 260
00:00:24.595625 00:00:00.000002 dsp_6, OpenCL NDR Kernel Start, Kernel id 0, Work Group id 268
00:00:24.595666 00:00:00.000041 dsp_4, OpenCL NDR Kernel Complete, Kernel id 0, Work Group id 261
00:00:24.595668 00:00:00.000002 dsp_4, OpenCL NDR Kernel Start, Kernel id 0, Work Group id 269
00:00:24.595700 00:00:00.000032 dsp_7, OpenCL NDR Kernel Complete, Kernel id 0, Work Group id 262
00:00:24.595702 00:00:00.000002 dsp_7, OpenCL NDR Kernel Start, Kernel id 0, Work Group id 270
00:00:24.595705 00:00:00.000003 dsp_3, OpenCL NDR Kernel Complete, Kernel id 0, Work Group id 263
00:00:24.595707 00:00:00.000002 dsp_3, OpenCL NDR Kernel Start, Kernel id 0, Work Group id 271
00:00:24.596217 00:00:00.000510 dsp_2, OpenCL NDR Kernel Complete, Kernel id 0, Work Group id 264
00:00:24.596219 00:00:00.000002 dsp_2, OpenCL NDR Kernel Start, Kernel id 0, Work Group id 272
00:00:24.596233 00:00:00.000014 dsp_5, OpenCL NDR Kernel Complete, Kernel id 0, Work Group id 265
00:00:24.596235 00:00:00.000002 dsp_5, OpenCL NDR Kernel Start, Kernel id 0, Work Group id 273
00:00:24.596280 00:00:00.000045 dsp_4, OpenCL NDR Kernel Complete, Kernel id 0, Work Group id 269
00:00:24.596282 00:00:00.000002 dsp_4, OpenCL NDR Kernel Start, Kernel id 0, Work Group id 274
00:00:24.596286 00:00:00.000004 dsp_1, OpenCL NDR Kernel Complete, Kernel id 0, Work Group id 266
00:00:24.596288 00:00:00.000002 dsp_1, OpenCL NDR Kernel Start, Kernel id 0, Work Group id 275
00:00:24.596398 00:00:00.000110 dsp_0, OpenCL NDR Kernel Complete, Kernel id 0, Work Group id 267
00:00:24.596401 00:00:00.000003 dsp_0, OpenCL NDR Kernel Start, Kernel id 0, Work Group id 276
00:00:24.596843 00:00:00.000442 dsp_6, OpenCL NDR Kernel Complete, Kernel id 0, Work Group id 268
00:00:24.596845 00:00:00.000002 dsp_6, OpenCL NDR Kernel Start, Kernel id 0, Work Group id 277
00:00:24.596898 00:00:00.000053 dsp_7, OpenCL NDR Kernel Complete, Kernel id 0, Work Group id 270
00:00:24.596901 00:00:00.000003 dsp_7, OpenCL NDR Kernel Start, Kernel id 0, Work Group id 278
00:00:24.596925 00:00:00.000024 dsp_3, OpenCL NDR Kernel Complete, Kernel id 0, Work Group id 271
00:00:24.596928 00:00:00.000003 dsp_3, OpenCL NDR Kernel Start, Kernel id 0, Work Group id 279
00:00:24.597437 00:00:00.000509 dsp_2, OpenCL NDR Kernel Complete, Kernel id 0, Work Group id 272
00:00:24.597440 00:00:00.000003 dsp_2, OpenCL NDR Kernel Start, Kernel id 0, Work Group id 280
00:00:24.597455 00:00:00.000015 dsp_5, OpenCL NDR Kernel Complete, Kernel id 0, Work Group id 273
00:00:24.597457 00:00:00.000002 dsp_5, OpenCL NDR Kernel Start, Kernel id 0, Work Group id 281
00:00:24.597482 00:00:00.000025 dsp_4, OpenCL NDR Kernel Complete, Kernel id 0, Work Group id 274
00:00:24.597484 00:00:00.000002 dsp_4, OpenCL NDR Kernel Start, Kernel id 0, Work Group id 282
00:00:24.597506 00:00:00.000022 dsp_1, OpenCL NDR Kernel Complete, Kernel id 0, Work Group id 275
00:00:24.597508 00:00:00.000002 dsp_1, OpenCL NDR Kernel Start, Kernel id 0, Work Group id 283
00:00:24.597619 00:00:00.000111 dsp_0, OpenCL NDR Kernel Complete, Kernel id 0, Work Group id 276
00:00:24.597621 00:00:00.000002 dsp_0, OpenCL NDR Kernel Start, Kernel id 0, Work Group id 284
00:00:24.598063 00:00:00.000442 dsp_6, OpenCL NDR Kernel Complete, Kernel id 0, Work Group id 277
00:00:24.598065 00:00:00.000002 dsp_6, OpenCL NDR Kernel Start, Kernel id 0, Work Group id 285
00:00:24.598104 00:00:00.000039 dsp_7, OpenCL NDR Kernel Complete, Kernel id 0, Work Group id 278
00:00:24.598106 00:00:00.000002 dsp_7, OpenCL NDR Kernel Start, Kernel id 0, Work Group id 286
00:00:24.598132 00:00:00.000026 dsp_3, OpenCL NDR Kernel Complete, Kernel id 0, Work Group id 279
00:00:24.598134 00:00:00.000002 dsp_3, OpenCL NDR Kernel Start, Kernel id 0, Work Group id 287
00:00:24.598641 00:00:00.000507 dsp_2, OpenCL NDR Kernel Complete, Kernel id 0, Work Group id 280
00:00:24.598643 00:00:00.000002 dsp_2, OpenCL NDR Kernel Start, Kernel id 0, Work Group id 288
00:00:24.598659 00:00:00.000016 dsp_5, OpenCL NDR Kernel Complete, Kernel id 0, Work Group id 281
00:00:24.598661 00:00:00.000002 dsp_5, OpenCL NDR Kernel Start, Kernel id 0, Work Group id 289
00:00:24.598688 00:00:00.000027 dsp_4, OpenCL NDR Kernel Complete, Kernel id 0, Work Group id 282
00:00:24.598690 00:00:00.000002 dsp_4, OpenCL NDR Kernel Start, Kernel id 0, Work Group id 290
00:00:24.598711 00:00:00.000021 dsp_1, OpenCL NDR Kernel Complete, Kernel id 0, Work Group id 283
00:00:24.598714 00:00:00.000003 dsp_1, OpenCL NDR Kernel Start, Kernel id 0, Work Group id 291
00:00:24.598747 00:00:00.000033 dsp_3, OpenCL NDR Kernel Complete, Kernel id 0, Work Group id 287
00:00:24.598748 00:00:00.000001 dsp_3, OpenCL NDR Kernel Start, Kernel id 0, Work Group id 292
00:00:24.598824 00:00:00.000076 dsp_0, OpenCL NDR Kernel Complete, Kernel id 0, Work Group id 284
00:00:24.598826 00:00:00.000002 dsp_0, OpenCL NDR Kernel Start, Kernel id 0, Work Group id 293
00:00:24.599269 00:00:00.000443 dsp_6, OpenCL NDR Kernel Complete, Kernel id 0, Work Group id 285
00:00:24.599271 00:00:00.000002 dsp_6, OpenCL NDR Kernel Start, Kernel id 0, Work Group id 294
00:00:24.599326 00:00:00.000055 dsp_7, OpenCL NDR Kernel Complete, Kernel id 0, Work Group id 286
00:00:24.599328 00:00:00.000002 dsp_7, OpenCL NDR Kernel Start, Kernel id 0, Work Group id 295
00:00:24.599838 00:00:00.000510 dsp_2, OpenCL NDR Kernel Complete, Kernel id 0, Work Group id 288
00:00:24.599840 00:00:00.000002 dsp_2, OpenCL NDR Kernel Start, Kernel id 0, Work Group id 296
00:00:24.599879 00:00:00.000039 dsp_5, OpenCL NDR Kernel Complete, Kernel id 0, Work Group id 289
00:00:24.599881 00:00:00.000002 dsp_5, OpenCL NDR Kernel Start, Kernel id 0, Work Group id 297
00:00:24.599908 00:00:00.000027 dsp_4, OpenCL NDR Kernel Complete, Kernel id 0, Work Group id 290
00:00:24.599910 00:00:00.000002 dsp_4, OpenCL NDR Kernel Start, Kernel id 0, Work Group id 298
00:00:24.599931 00:00:00.000021 dsp_1, OpenCL NDR Kernel Complete, Kernel id 0, Work Group id 291
00:00:24.599933 00:00:00.000002 dsp_1, OpenCL NDR Kernel Start, Kernel id 0, Work Group id 299
00:00:24.599946 00:00:00.000013 dsp_3, OpenCL NDR Kernel Complete, Kernel id 0, Work Group id 292
00:00:24.599948 00:00:00.000002 dsp_3, OpenCL NDR Kernel Start, Kernel id 0, Work Group id 300
00:00:24.600045 00:00:00.000097 dsp_0, OpenCL NDR Kernel Complete, Kernel id 0, Work Group id 293
00:00:24.600047 00:00:00.000002 dsp_0, OpenCL NDR Kernel Start, Kernel id 0, Work Group id 301
00:00:24.600486 00:00:00.000439 dsp_6, OpenCL NDR Kernel Complete, Kernel id 0, Work Group id 294
00:00:24.600489 00:00:00.000003 dsp_6, OpenCL NDR Kernel Start, Kernel id 0, Work Group id 302
00:00:24.600543 00:00:00.000054 dsp_7, OpenCL NDR Kernel Complete, Kernel id 0, Work Group id 295
00:00:24.600545 00:00:00.000002 dsp_7, OpenCL NDR Kernel Start, Kernel id 0, Work Group id 303
00:00:24.601040 00:00:00.000495 dsp_2, OpenCL NDR Kernel Complete, Kernel id 0, Work Group id 296
00:00:24.601042 00:00:00.000002 dsp_2, OpenCL NDR Kernel Start, Kernel id 0, Work Group id 304
00:00:24.601083 00:00:00.000041 dsp_5, OpenCL NDR Kernel Complete, Kernel id 0, Work Group id 297
00:00:24.601086 00:00:00.000003 dsp_5, OpenCL NDR Kernel Start, Kernel id 0, Work Group id 305
00:00:24.601113 00:00:00.000027 dsp_4, OpenCL NDR Kernel Complete, Kernel id 0, Work Group id 298
00:00:24.601115 00:00:00.000002 dsp_4, OpenCL NDR Kernel Start, Kernel id 0, Work Group id 306
00:00:24.601138 00:00:00.000023 dsp_1, OpenCL NDR Kernel Complete, Kernel id 0, Work Group id 299
00:00:24.601140 00:00:00.000002 dsp_1, OpenCL NDR Kernel Start, Kernel id 0, Work Group id 307
00:00:24.601153 00:00:00.000013 dsp_3, OpenCL NDR Kernel Complete, Kernel id 0, Work Group id 300
00:00:24.601155 00:00:00.000002 dsp_3, OpenCL NDR Kernel Start, Kernel id 0, Work Group id 308
00:00:24.601253 00:00:00.000098 dsp_0, OpenCL NDR Kernel Complete, Kernel id 0, Work Group id 301
00:00:24.601255 00:00:00.000002 dsp_0, OpenCL NDR Kernel Start, Kernel id 0, Work Group id 309
00:00:24.601691 00:00:00.000436 dsp_6, OpenCL NDR Kernel Complete, Kernel id 0, Work Group id 302
00:00:24.601694 00:00:00.000003 dsp_6, OpenCL NDR Kernel Start, Kernel id 0, Work Group id 310
00:00:24.601698 00:00:00.000004 dsp_5, OpenCL NDR Kernel Complete, Kernel id 0, Work Group id 305
00:00:24.601700 00:00:00.000002 dsp_5, OpenCL NDR Kernel Start, Kernel id 0, Work Group id 311
00:00:24.601712 00:00:00.000012 dsp_4, OpenCL NDR Kernel Complete, Kernel id 0, Work Group id 306
00:00:24.601714 00:00:00.000002 dsp_4, OpenCL NDR Kernel Start, Kernel id 0, Work Group id 312
00:00:24.601739 00:00:00.000025 dsp_1, OpenCL NDR Kernel Complete, Kernel id 0, Work Group id 307
00:00:24.601741 00:00:00.000002 dsp_1, OpenCL NDR Kernel Start, Kernel id 0, Work Group id 313
00:00:24.601749 00:00:00.000008 dsp_7, OpenCL NDR Kernel Complete, Kernel id 0, Work Group id 303
00:00:24.601751 00:00:00.000002 dsp_7, OpenCL NDR Kernel Start, Kernel id 0, Work Group id 314
00:00:24.601754 00:00:00.000003 dsp_3, OpenCL NDR Kernel Complete, Kernel id 0, Work Group id 308
00:00:24.601756 00:00:00.000002 dsp_3, OpenCL NDR Kernel Start, Kernel id 0, Work Group id 315
00:00:24.601853 00:00:00.000097 dsp_0, OpenCL NDR Kernel Complete, Kernel id 0, Work Group id 309
00:00:24.601855 00:00:00.000002 dsp_0, OpenCL NDR Kernel Start, Kernel id 0, Work Group id 316
00:00:24.602261 00:00:00.000406 dsp_2, OpenCL NDR Kernel Complete, Kernel id 0, Work Group id 304
00:00:24.602263 00:00:00.000002 dsp_2, OpenCL NDR Kernel Start, Kernel id 0, Work Group id 317
00:00:24.602279 00:00:00.000016 dsp_5, OpenCL NDR Kernel Complete, Kernel id 0, Work Group id 311
00:00:24.602281 00:00:00.000002 dsp_5, OpenCL NDR Kernel Start, Kernel id 0, Work Group id 318
00:00:24.602292 00:00:00.000011 dsp_4, OpenCL NDR Kernel Complete, Kernel id 0, Work Group id 312
00:00:24.602292 00:00:00.000000 dsp_6, OpenCL NDR Kernel Complete, Kernel id 0, Work Group id 310
00:00:24.602294 00:00:00.000002 dsp_4, OpenCL NDR Kernel Start, Kernel id 0, Work Group id 319
00:00:24.602295 00:00:00.000001 dsp_6, OpenCL NDR Kernel Start, Kernel id 0, Work Group id 320
00:00:24.602319 00:00:00.000024 dsp_1, OpenCL NDR Kernel Complete, Kernel id 0, Work Group id 313
00:00:24.602321 00:00:00.000002 dsp_1, OpenCL NDR Kernel Start, Kernel id 0, Work Group id 321
00:00:24.602332 00:00:00.000011 dsp_3, OpenCL NDR Kernel Complete, Kernel id 0, Work Group id 315
00:00:24.602334 00:00:00.000002 dsp_3, OpenCL NDR Kernel Start, Kernel id 0, Work Group id 322
00:00:24.602348 00:00:00.000014 dsp_7, OpenCL NDR Kernel Complete, Kernel id 0, Work Group id 314
00:00:24.602350 00:00:00.000002 dsp_7, OpenCL NDR Kernel Start, Kernel id 0, Work Group id 323
00:00:24.602431 00:00:00.000081 dsp_0, OpenCL NDR Kernel Complete, Kernel id 0, Work Group id 316
00:00:24.602858 00:00:00.000427 dsp_5, OpenCL NDR Kernel Complete, Kernel id 0, Work Group id 318
00:00:24.602860 00:00:00.000002 dsp_2, OpenCL NDR Kernel Complete, Kernel id 0, Work Group id 317
00:00:24.602871 00:00:00.000011 dsp_6, OpenCL NDR Kernel Complete, Kernel id 0, Work Group id 320
00:00:24.602871 00:00:00.000000 dsp_4, OpenCL NDR Kernel Complete, Kernel id 0, Work Group id 319
00:00:24.602880 00:00:00.000009 dsp_7, OpenCL NDR Kernel Complete, Kernel id 0, Work Group id 323
00:00:24.602898 00:00:00.000018 dsp_1, OpenCL NDR Kernel Complete, Kernel id 0, Work Group id 321
00:00:24.602912 00:00:00.000014 dsp_3, OpenCL NDR Kernel Complete, Kernel id 0, Work Group id 322
00:00:24.602927 00:00:00.000015 dsp_0, OpenCL NDR Cache Coherence Complete, Kernel id 0, Work Group id 0
00:00:24.602928 00:00:00.000001 dsp_1, OpenCL NDR Cache Coherence Complete, Kernel id 0, Work Group id 0
00:00:24.602928 00:00:00.000000 dsp_4, OpenCL NDR Cache Coherence Complete, Kernel id 0, Work Group id 0
00:00:24.602928 00:00:00.000000 dsp_2, OpenCL NDR Cache Coherence Complete, Kernel id 0, Work Group id 0
00:00:24.602928 00:00:00.000000 dsp_5, OpenCL NDR Cache Coherence Complete, Kernel id 0, Work Group id 0
00:00:24.602928 00:00:00.000000 dsp_7, OpenCL NDR Cache Coherence Complete, Kernel id 0, Work Group id 0
00:00:24.602928 00:00:00.000000 dsp_3, OpenCL NDR Cache Coherence Complete, Kernel id 0, Work Group id 0
00:00:24.602929 00:00:00.000001 dsp_6, OpenCL NDR Cache Coherence Complete, Kernel id 0, Work Group id 0
00:00:24.602931 00:00:00.000002 arm_2, External Code/Data Total 376832 KB, 96.7% Free, 3.3% Used
00:00:24.602934 00:00:00.000003 arm_2, Internal Data Total 4608 KB, 100.0% Free, 0.0% Used
00:00:24.602936 00:00:00.000002 arm_2, External Code/Data Total 376832 KB, 97.8% Free, 2.2% Used
00:00:24.609178 00:00:00.006242 arm_2, External Code/Data Total 376832 KB, 98.9% Free, 1.1% Used
00:00:25.011831 00:00:00.402653 arm_3, Device Temperature 70 C
00:00:25.512002 00:00:00.500171 arm_3, Device Temperature 70 C
00:00:26.012173 00:00:00.500171 arm_3, Device Temperature 70 C
00:00:26.512344 00:00:00.500171 arm_3, Device Temperature 70 C
00:00:27.012514 00:00:00.500170 arm_3, Device Temperature 70 C
00:00:27.209122 00:00:00.196608 arm_1, External Code/Data Total 376832 KB, 99.9% Free, 0.1% Used
00:00:27.209697 00:00:00.000575 dsp_3, OpenCL Monitor Exit, Kernel id 0, Work Group id 0
00:00:27.209698 00:00:00.000001 dsp_2, OpenCL Monitor Exit, Kernel id 0, Work Group id 0
00:00:27.209698 00:00:00.000000 dsp_5, OpenCL Monitor Exit, Kernel id 0, Work Group id 0
00:00:27.209699 00:00:00.000001 dsp_4, OpenCL Monitor Exit, Kernel id 0, Work Group id 0
00:00:27.209700 00:00:00.000001 dsp_6, OpenCL Monitor Exit, Kernel id 0, Work Group id 0
00:00:27.209701 00:00:00.000001 dsp_1, OpenCL Monitor Exit, Kernel id 0, Work Group id 0
00:00:27.209702 00:00:00.000001 dsp_7, OpenCL Monitor Exit, Kernel id 0, Work Group id 0
00:00:27.209703 00:00:00.000001 dsp_0, OpenCL Monitor Exit, Kernel id 0, Work Group id 0
00:00:27.514838 00:00:00.305135 arm_3, Device Temperature 70 C
00:00:28.015009 00:00:00.500171 arm_3, Device Temperature 70 C
00:00:28.515180 00:00:00.500171 arm_3, Device Temperature 69 C
00:00:29.015351 00:00:00.500171 arm_3, Device Temperature 70 C
00:00:29.515521 00:00:00.500170 arm_3, Device Temperature 70 C
00:00:30.015692 00:00:00.500171 arm_3, Device Temperature 69 C
00:00:30.515863 00:00:00.500171 arm_3, Device Temperature 70 C
00:00:31.016034 00:00:00.500171 arm_3, Device Temperature 69 C
00:00:31.516205 00:00:00.500171 arm_3, Device Temperature 70 C
00:00:32.016375 00:00:00.500170 arm_3, Device Temperature 69 C
00:00:32.516546 00:00:00.500171 arm_3, Device Temperature 70 C
00:00:33.016717 00:00:00.500171 arm_3, Device Temperature 69 C
00:00:33.516888 00:00:00.500171 arm_3, Device Temperature 70 C
00:00:34.017058 00:00:00.500170 arm_3, Device Temperature 70 C
00:00:34.517229 00:00:00.500171 arm_3, Device Temperature 69 C
00:00:35.017400 00:00:00.500171 arm_3, Device Temperature 69 C
00:00:35.517571 00:00:00.500171 arm_3, Device Temperature 69 C
00:00:36.017741 00:00:00.500170 arm_3, Device Temperature 70 C
00:00:36.517912 00:00:00.500171 arm_3, Device Temperature 70 C
00:00:37.018083 00:00:00.500171 arm_3, Device Temperature 69 C
00:00:37.518254 00:00:00.500171 arm_3, Device Temperature 70 C
00:00:38.018425 00:00:00.500171 arm_3, Device Temperature 69 C
00:00:38.518595 00:00:00.500170 arm_3, Device Temperature 69 C
00:00:39.018766 00:00:00.500171 arm_3, Device Temperature 69 C
00:00:39.518937 00:00:00.500171 arm_3, Device Temperature 69 C
00:00:40.019108 00:00:00.500171 arm_3, Device Temperature 69 C
00:00:40.519278 00:00:00.500170 arm_3, Device Temperature 69 C
00:00:41.019449 00:00:00.500171 arm_3, Device Temperature 70 C
00:00:41.519620 00:00:00.500171 arm_3, Device Temperature 69 C
00:00:42.019791 00:00:00.500171 arm_3, Device Temperature 70 C
00:00:42.519961 00:00:00.500170 arm_3, Device Temperature 69 C
00:00:43.020132 00:00:00.500171 arm_3, Device Temperature 69 C
00:00:43.520303 00:00:00.500171 arm_3, Device Temperature 69 C
00:00:44.020474 00:00:00.500171 arm_3, Device Temperature 69 C
00:00:44.520644 00:00:00.500170 arm_3, Device Temperature 69 C
00:00:45.020815 00:00:00.500171 arm_3, Device Temperature 69 C
00:00:45.520986 00:00:00.500171 arm_3, Device Temperature 70 C
00:00:46.021157 00:00:00.500171 arm_3, Device Temperature 69 C
