0	51.2389
1	51.6321
2	54.4178
3	55.3541
4	54.5675
5	52.101
6	53.617
7	52.6031
8	49.9788
9	46.2626
10	41.8527
11	39.631
12	44.6024
13	48.5625
14	51.6776
15	53.3833
16	53.1685
17	53.8762
18	55.2848
19	55.0739
20	53.0316
21	49.1338
22	42.1534
23	42.3581
24	44.1561
25	46.8329
26	49.6376
27	51.66
28	52.1099
29	54.3695
30	56.3776
31	57.3541
32	56.6117
33	53.6606
34	48.3253
35	45.7348
36	45.3123
37	46.5451
38	48.6921
39	50.8545
40	51.6825
41	53.6871
42	56.3537
43	58.7321
44	60.013
45	61.5021
46	53.2893
47	49.3989
48	47.5073
49	47.4661
50	48.9331
51	50.3995
52	50.1274
53	51.8729
54	54.923
55	58.6111
56	62.6575
57	61.5183
58	56.5242
59	52.6487
60	50.0358
61	49.0923
62	50.2519
63	48.877
64	48.1835
65	49.2651
66	52.124
67	56.6284
68	64.4465
69	60.7103
70	57.9984
71	54.9009
72	52.2053
73	50.7632
74	50.2808
75	48.0366
76	46.5354
77	46.4597
78	48.3217
79	52.6097
80	57.2929
81	58.4862
82	57.8064
83	55.8517
84	53.4825
85	51.6942
86	50.5839
87	48.2657
88	45.8242
89	44.1904
90	44.0819
91	46.6301
92	52.4821
93	55.4223
94	56.3324
95	55.5363
96	53.5684
97	52.7148
98	52.0533
99	49.7297
100	46.5143
101	43.1682
102	39.6136
103	43.8972
104	48.7745
105	52.271
106	54.1843
107	54.3043
108	51.7687
109	54.2885
110	54.1758
111	52.2693
112	48.7818
113	43.9242
114	39.5385
115	43.1451
116	46.5016
117	49.7242
118	52.0553
119	52.729
120	53.5483
121	55.5205
122	56.3191
123	55.4129
124	52.4798
125	46.6728
126	44.0576
127	44.1719
128	45.809
129	48.2544
130	50.5776
131	51.687
132	53.4722
133	55.838
134	57.7904
135	58.4686
136	57.2715
137	52.6155
138	48.3133
139	46.447
140	46.5206
141	48.0208
142	50.2608
143	50.7699
144	52.2027
145	54.8916
146	57.9823
147	60.6836
148	64.2356
149	56.6445
150	52.1257
151	49.2591
152	48.1716
153	48.858
154	50.2859
155	49.1043
156	50.0402
157	52.6457
158	56.511
159	61.4764
160	62.7068
161	58.6297
162	54.9317
163	51.874
164	50.1206
165	50.3742
166	48.9526
167	47.4808
168	47.5181
169	49.4041
170	53.2837
171	61.8588
172	60.038
173	58.75
174	56.3669
175	53.6952
176	51.6836
177	50.8669
178	48.7053
179	46.5601
180	45.3279
181	45.75
182	48.3403
183	53.6686
184	56.6246
185	57.3689
186	56.3927
187	54.3841
188	52.1306
189	51.6594
190	49.6444
191	46.8455
192	44.1747
193	42.3873
194	42.0519
195	49.1266
196	53.035
197	55.0836
198	55.2993
199	53.898
200	53.1469
201	53.3755
202	51.6775
203	48.5702
204	44.6214
205	39.6987
206	41.8174
207	46.2489
208	49.9745
209	52.6063
210	53.6284
211	52.1698
212	54.5494
213	55.3415
214	54.4105
215	51.6321
216	46.9879
217	41.1469
218	42.8469
219	45.1133
220	47.983
221	50.6071
222	52.0597
223	52.9701
224	55.1988
225	56.8733
226	57.2082
227	55.6183
228	51.5124
229	46.8707
230	45.2355
231	45.5781
232	47.3017
233	49.5778
234	51.4002
235	52.3494
236	54.7184
237	57.351
238	59.3257
239	60.2556
240	57.2232
241	51.6862
242	48.6061
243	47.4869
244	48.1068
245	50.0689
246	50.3057
247	50.9506
248	53.2748
249	56.6303
250	60.3484
251	65.5378
252	59.6418
253	55.105
254	51.6523
255	49.657
256	49.4494
257	50.6721
258	48.7375
259	48.74
260	50.5405
261	54.0441
262	59.2491
263	62.6292
264	60.0539
265	57.0599
266	53.9896
267	51.673
268	51.0073
269	49.6587
270	47.6392
271	46.6462
272	47.3149
273	50.06
274	56.6462
275	58.4187
276	58.7719
277	57.4582
278	55.2014
279	52.9246
280	51.7435
281	50.0176
282	47.5523
283	45.3601
284	44.3159
285	44.9541
286	49.8937
287	54.2772
288	56.3713
289	56.5338
290	55.1917
291	52.8611
292	52.9357
293	51.5227
294	48.773
295	45.459
296	42.2806
297	38.5827
298	46.3078
299	50.6615
300	53.5781
301	54.793
302	54.1776
303	53.5819
304	54.6726
305	53.8356
306	51.2722
307	47.2779
308	41.6617
309	41.3317
310	44.6956
311	48.1264
312	51.1095
313	52.894
314	52.495
315	54.6579
316	56.2242
317	56.3829
318	54.686
319	50.87
320	44.606
321	44.0524
322	44.8842
323	46.9822
324	49.5186
325	51.5222
326	52.5211
327	54.6582
328	56.9508
329	58.4554
330	58.395
331	56.3414
332	50.7067
333	47.4935
334	46.4658
335	47.2034
336	49.0879
337	51.6918
338	51.4432
339	53.4651
340	56.3908
341	59.3605
342	61.7206
343	61.0015
344	54.8765
345	50.9883
346	48.8135
347	48.4456
348	49.8233
349	49.834
350	49.5948
351	51.2264
352	54.3707
353	58.5727
354	64.7717
355	61.3292
356	57.4031
357	53.844
358	51.2141
359	50.1332
360	50.9576
361	48.5509
362	47.6348
363	48.3905
364	51.0544
365	55.8101
366	60.7252
367	60.0623
368	58.211
369	55.5701
370	53.0242
371	51.5652
372	50.3621
373	48.1071
374	46.2455
375	45.6275
376	46.894
377	50.574
378	55.539
379	57.5284
380	57.4936
381	55.9892
382	53.7931
383	52.258
384	51.2647
385	48.8451
386	46.0211
387	43.687
388	42.3716
389	45.9729
390	51.2489
391	54.4262
392	55.7262
393	55.2619
394	53.2304
395	53.7257
396	53.1211
397	50.813
398	47.3319
399	43.2298
400	35.8899
401	43.9204
402	48.122
403	51.507
404	53.5618
405	53.8321
406	53.473
407	55.2632
408	55.3938
409	53.7254
410	50.2372
411	44.661
412	42.0391
413	43.8392
414	46.4823
415	49.3919
416	51.6835
417	52.3026
418	54.1088
419	56.2052
420	57.4103
421	57.0095
422	54.51
423	49.0451
424	46.1096
425	45.3548
426	46.3649
427	48.4392
428	50.6828
429	51.7708
430	53.4794
431	56.047
432	58.4867
433	59.9287
434	60.0467
435	54.5347
436	50.1349
437	47.8539
438	47.4796
439	48.6827
440	51.3483
441	50.372
442	51.7519
443	54.5491
444	58.0799
445	61.7777
446	63.682
447	57.7096
448	53.541
449	50.6021
450	49.2827
451	49.8629
452	49.6779
453	48.5937
454	49.31
455	51.8055
456	55.9047
457	62.3832
458	61.7144
459	58.9601
460	55.7993
461	52.9049
462	51.1032
463	51.3329
464	48.8261
465	47.1409
466	46.7646
467	48.237
468	51.9331
469	57.4713
470	58.9026
471	58.4813
472	56.6583
473	54.256
474	52.2473
475	51.2199
476	49.0761
477	46.6295
478	44.3251
479	43.9777
480	45.072
481	51.5437
482	54.938
483	56.2132
484	55.6949
485	53.9155
486	52.0918
487	52.0273
488	50.007
489	46.9632
490	43.6901
491	40.6666
492	42.2243
493	47.7229
494	51.5584
495	53.8307
496	54.3284
497	52.9105
498	53.6929
499	53.9804
500	52.4362
501	49.2782
502	44.8328
503	34.3497
504	42.0832
505	45.5422
506	48.9213
507	51.5314
508	52.6528
509	52.63
510	54.844
511	55.9065
512	55.3514
513	52.8394
514	48.0067
515	43.6514
516	43.5855
517	45.0494
518	47.4635
519	49.928
520	51.3991
521	52.7628
522	55.0681
523	57.1278
524	58.0527
525	57.1695
526	53.7747
527	48.5175
528	46.2423
529	45.998
530	47.2972
531	49.4341
532	50.5972
533	51.6026
534	54.0679
535	57.0808
536	59.7925
537	61.95
538	57.5855
539	52.5628
540	49.3256
541	47.8719
542	48.2026
543	50.4833
544	49.0438
545	49.5854
546	51.8582
547	55.4469
548	59.9479
549	64.3356
550	59.2638
551	55.3939
552	52.0972
553	50.0032
554	49.697
555	49.3236
556	47.5631
557	47.2772
558	48.7857
559	52.2227
560	58.2334
561	60.1941
562	59.0275
563	56.7229
564	53.9794
565	51.7192
566	51.1785
567	48.9926
568	46.799
569	45.3657
570	45.467
571	47.6494
572	52.7471
573	56.2005
574	57.3017
575	56.5748
576	54.6739
577	52.4382
578	51.5868
579	49.8836
580	47.2148
581	44.5224
582	42.6482
583	41.3406
584	47.9327
585	52.3009
586	54.7315
587	55.2936
588	54.2068
589	52.2209
590	53.1497
591	51.8189
592	48.9908
593	45.2524
594	40.9779
595	40.1507
596	45.1503
597	49.1172
598	52.0536
599	53.456
600	52.8627
601	53.8121
602	54.9401
603	54.3671
604	51.968
605	47.7922
606	39.5798
607	42.0348
608	44.2492
609	47.1397
610	49.9344
611	51.743
612	52.1579
613	54.4448
614	56.2682
615	56.8834
616	55.6734
617	52.1714
618	46.942
619	44.9465
620	44.9979
621	46.5583
622	48.8311
623	50.8783
624	51.7765
625	53.9412
626	56.5451
627	58.6396
628	59.4478
629	59.4003
630	51.9078
631	48.3917
632	46.9027
633	47.2218
634	48.9213
635	50.1163
636	50.2485
637	52.255
638	55.405
639	58.9841
640	62.8125
641	60.372
642	55.3906
643	51.6358
644	49.2921
645	48.687
646	50.2722
647	48.5844
648	48.2179
649	49.6521
650	52.7974
651	57.4743
652	63.7498
653	60.2519
654	57.2309
655	54.042
656	51.4668
657	50.3213
658	49.7449
659	47.5824
660	46.3537
661	46.6822
662	49.0004
663	53.8674
664	57.8937
665	58.5256
666	57.4228
667	55.2311
668	52.8466
669	51.329
670	49.9604
671	47.5911
672	45.3247
673	44.0693
674	44.4959
675	48.1093
676	53.2657
677	55.7703
678	56.2658
679	55.1559
680	53.0459
681	52.3582
682	51.3581
683	48.8559
684	45.6595
685	42.5518
686	39.1832
687	44.7015
688	49.4674
689	52.7312
690	54.3128
691	54.0921
692	52.124
693	53.9697
694	53.5134
695	51.2979
696	47.6228
697	42.7022
698	39.5765
699	43.3939
700	46.9354
701	50.1263
702	52.2418
703	52.5528
704	53.5774
705	55.3676
706	55.8302
707	54.511
708	51.1666
709	44.4772
710	43.3036
711	43.9312
712	45.9107
713	48.4858
714	50.7126
715	51.6458
716	53.629
717	56.3286
718	58.0046
719	58.2358
720	56.4647
721	51.3738
722	47.6372
723	46.2375
724	46.7023
725	48.4418
726	50.7179
727	51.1814
728	52.8795
729	55.6446
730	58.5924
731	60.9374
732	67.5833
733	55.6957
734	51.3974
735	48.8512
736	48.1251
737	49.1226
738	50.2675
739	49.4889
740	50.7522
741	53.592
742	57.5253
743	62.466
744	62.3595
745	58.0982
746	54.3467
747	51.4346
748	49.9689
749	50.6568
750	48.923
751	47.7148
752	48.1215
753	50.3934
754	54.612
755	61.7796
756	60.3909
757	58.6635
758	56.0411
759	53.3539
760	51.5441
761	50.7384
762	48.5135
763	46.5369
764	45.6621
765	46.5683
766	49.7671
767	54.9825
768	57.3852
769	57.6664
770	56.3549
771	54.2027
772	52.0203
773	51.4634
774	49.2733
775	46.5122
776	44.103
777	42.7702
778	44.0469
779	50.3798
780	53.9693
781	55.6404
782	55.4995
783	53.845
784	53.3137
785	53.1723
786	51.195
787	47.9538
788	44.0677
789	39.1621
790	42.7127
791	47.23
792	50.8802
793	53.271
794	53.9618
795	52.2119
796	54.7808
797	55.2529
798	53.953
799	50.8502
800	45.9549
801	41.0407
802	43.1163
803	45.7236
804	48.7152
805	51.2435
806	52.399
807	53.4415
808	55.6152
809	57.0277
810	56.9522
811	54.875
812	50.0308
813	46.1405
814	45.0493
815	45.8169
816	47.793
817	50.1038
818	51.5931
819	52.9225
820	55.3621
821	57.8412
822	59.4505
823	59.5769
824	55.6194
825	50.563
826	47.8775
827	47.1582
828	48.0967
829	50.2332
830	50.328
831	51.3057
832	53.8324
833	57.2039
834	60.7274
835	66.8068
836	58.6107
837	54.1087
838	50.8476
839	49.1625
840	49.2986
841	50.2729
842	48.687
843	49.0355
844	51.1697
845	54.9062
846	60.2816
847	62.4933
848	59.5564
849	56.3393
850	53.2683
851	51.1465
852	50.8735
853	49.2557
854	47.3974
855	46.7377
856	47.8366
857	51.0401
858	57.7937
859	58.8964
860	58.737
861	57.068
862	54.6605
863	52.4627
864	51.4058
865	49.4729
866	47.0487
867	45.1173
868	44.5187
869	45.7386
870	51.1054
871	55.0112
872	56.6663
873	56.4418
874	54.8485
875	52.4206
876	52.5491
877	50.8624
878	48.0095
879	44.8058
880	41.9441
881	40.3667
882	47.2091
883	51.406
884	54.0365
885	54.9032
886	53.9621
887	53.5984
888	54.3402
889	53.1644
890	50.3352
891	46.2224
892	40.4483
893	41.5373
894	45.1762
895	48.702
896	51.5707
897	53.0818
898	51.9975
899	54.7529
900	56.0696
901	55.8526
902	53.7415
903	49.5207
904	43.682
905	43.6479
906	44.932
907	47.2905
908	49.8659
909	51.6777
910	52.7118
911	54.9318
912	57.0733
913	58.2275
914	57.6707
915	54.9771
916	49.442
917	46.7332
918	46.1543
919	47.2325
920	49.2776
921	51.3027
922	51.7011
923	53.9146
924	56.8299
925	59.5649
926	61.5052
927	59.4893
928	53.719
929	50.0972
930	48.2741
931	48.2584
932	49.919
933	49.724
934	49.8374
935	51.7674
936	55.0818
937	59.2744
938	66.0935
939	60.623
940	56.5384
941	53.013
942	50.5967
943	49.8418
944	50.4957
945	48.3362
946	47.7342
947	48.8745
948	51.9016
949	57.0016
950	61.0981
951	59.9344
952	57.7186
953	54.9287
954	52.4556
955	51.3019
956	49.7193
957	47.4984
958	45.8867
959	45.6826
960	47.4645
961	52.1603
962	56.1547
963	57.6261
964	57.1684
965	55.3984
966	53.1483
967	51.8413
968	50.5169
969	48.0058
970	45.3108
971	43.3237
972	42.5038
973	46.9963
974	51.9274
975	54.7515
976	55.6678
977	54.8807
978	52.6123
979	53.2716
980	52.3345
981	49.7986
982	46.2636
983	42.3013
984	37.7779
985	44.4109
986	48.6418
987	51.8742
988	53.64
989	53.5602
990	53.4002
991	54.9134
992	54.6951
993	52.6685
994	48.8995
995	42.9997
996	41.5831
997	43.8155
998	46.7134
999	49.6535
1000	51.7697
1001	51.9063
1002	54.1165
1003	56.07
1004	56.9463
1005	56.1002
1006	53.0959
1007	47.425
1008	45.1473
1009	44.8962
1010	46.2704
1011	48.5141
1012	50.696
1013	51.715
1014	53.6359
1015	56.1842
1016	58.3818
1017	59.3853
1018	58.9697
1019	52.9711
1020	48.9707
1021	47.0996
1022	47.1058
1023	48.5719
1024	51.0602
1025	50.3465
1026	52.011
1027	54.9403
1028	58.3975
1029	61.8348
1030	62.2408
1031	56.4738
1032	52.4048
1033	49.7183
1034	48.7337
1035	49.6621
1036	49.2497
1037	48.4865
1038	49.5533
1039	52.3469
1040	56.6201
1041	63.6736
1042	61.2346
1043	58.1464
1044	54.8541
1045	52.0447
1046	50.5037
1047	50.6766
1048	48.2779
1049	46.8294
1050	46.8333
1051	48.7471
1052	52.9193
1053	58.1233
1054	58.965
1055	58.0861
1056	55.9849
1057	53.522
1058	51.6964
1059	50.581
1060	48.3379
1061	46.0229
1062	44.5705
1063	44.7261
1064	46.1303
1065	52.8789
1066	55.8191
1067	56.6627
1068	55.8008
1069	53.8435
1070	52.3277
1071	51.8419
1072	49.6118
1073	46.5487
1074	43.478
1075	40.8108
1076	43.5843
1077	48.9113
1078	52.5299
1079	54.4768
1080	54.6269
1081	52.8718
1082	53.8905
1083	53.8349
1084	51.9724
1085	48.6063
1086	44.1085
1087	36.9794
1088	42.7471
1089	46.4207
1090	49.8044
1091	52.2271
1092	53.025
1093	53.1273
1094	55.1788
1095	55.9329
1096	54.9788
1097	52.0647
1098	46.7706
1099	43.2393
1100	43.712
1101	45.5573
1102	48.1443
1103	50.5575
1104	51.6989
1105	53.3333
1106	55.6238
1107	57.4478
1108	57.9586
1109	56.5369
1110	52.1952
1111	47.7817
1112	45.9934
1113	46.1666
1114	47.7424
1115	49.9536
1116	50.9542
1117	52.2748
1118	54.854
1119	57.7655
1120	60.155
1121	61.9139
1122	56.5932
1123	51.8124
1124	48.8879
1125	47.8006
1126	48.4583
1127	51.3872
1128	49.3982
1129	50.2755
1130	52.8023
1131	56.4861
1132	60.9164
1133	63.8047
1134	58.7842
1135	54.8305
1136	51.6495
1137	49.8239
1138	49.8804
1139	49.3024
1140	47.7837
1141	47.8495
1142	49.7404
1143	53.5083
1144	60.1149
1145	60.678
1146	59.043
1147	56.4576
1148	53.6565
1149	51.5539
1150	51.0976
1151	48.8524
1152	46.784
1153	45.6728
1154	46.2317
1155	48.963
1156	54.2825
1157	57.1112
1158	57.7236
1159	56.6273
1160	54.5401
1161	52.3463
1162	51.5159
1163	49.5929
1164	46.92
1165	44.4474
1166	42.9973
1167	41.8558
1168	49.3245
1169	53.3638
1170	55.415
1171	55.6043
1172	54.2421
1173	52.6098
1174	53.0701
1175	51.4422
1176	48.4513
1177	44.7453
1178	40.6484
1179	41.1773
1180	46.1982
1181	50.1171
1182	52.8337
1183	53.9144
1184	52.932
1185	54.1455
1186	54.9701
1187	54.035
1188	51.3049
1189	46.8943
1190	37.7105
1191	42.2876
1192	44.8759
1193	47.93
1194	50.6673
1195	52.0636
1196	52.4976
1197	54.766
1198	56.3658
1199	56.5982
1200	54.9216
1201	50.8663
1202	45.966
1203	44.5523
1204	45.0607
1205	46.9135
1206	49.267
1207	51.1427
1208	52.1791
1209	54.4595
1210	56.9532
1211	58.722
1212	59.0284
1213	57.082
1214	50.8491
1215	47.7367
1216	46.66
1217	47.3239
1218	49.2208
1219	50.1865
1220	50.6954
1221	52.9314
1222	56.1329
1223	59.548
1224	63.1437
1225	59.4423
1226	54.5131
1227	50.9284
1228	48.8841
1229	48.6222
1230	50.7198
1231	48.6275
1232	48.5989
1233	50.3713
1234	53.7644
1235	58.5667
1236	63.5494
1237	59.9565
1238	56.6769
1239	53.4484
1240	51.0357
1241	50.2155
1242	49.4975
1243	47.4604
1244	46.5339
1245	47.2742
1246	50.0331
1247	55.5265
1248	58.6427
1249	58.7302
1250	57.2344
1251	54.849
1252	52.4958
1253	51.2944
1254	49.609
1255	47.2354
1256	45.188
1257	44.343
1258	45.3228
1259	49.7148
1260	54.2598
1261	56.3113
1262	56.3974
1263	55.0016
1264	52.7922
1265	52.2239
1266	50.9135
1267	48.2734
1268	45.1477
1269	42.3296
1270	39.0126
1271	45.8248
1272	50.4325
1273	53.4235
1274	54.6566
1275	54.1038
1276	52.5
1277	53.8716
1278	53.0745
1279	50.5779
1280	46.7633
1281	41.8227
1282	39.9878
1283	44.0173
1284	47.6892
1285	50.7991
1286	52.6657
1287	52.5891
1288	53.8595
1289	55.4311
1290	55.5399
1291	53.815
1292	50.0874
1293	41.508
1294	42.9657
1295	44.079
1296	46.3604
1297	49.0179
1298	51.1035
1299	51.932
1300	54.0536
1301	56.2512
1302	57.6143
1303	57.3793
1304	55.0224
1305	49.7216
1306	46.543
1307	45.6133
1308	46.4499
1309	48.391
1310	50.6562
1311	51.1288
1312	53.0569
1313	55.8515
1314	58.6057
1315	60.5506
1316	61.85
1317	54.2311
1318	50.1972
1319	47.9996
1320	47.6372
1321	48.9247
1322	49.8125
1323	49.4215
1324	50.9959
1325	54.0306
1326	57.978
1327	62.8734
1328	61.399
1329	56.9914
1330	53.2412
1331	50.5175
1332	49.3613
1333	50.5425
1334	48.4275
1335	47.5098
1336	48.2897
1337	50.9256
1338	55.4465
1339	61.7245
1340	60.1028
1341	57.9743
1342	55.1604
1343	52.505
1344	50.9375
1345	50.0829
1346	47.8451
1347	46.0781
1348	45.5863
1349	46.9816
1350	50.8152
1351	55.6799
1352	57.5308
1353	57.3603
1354	55.745
1355	53.4933
1356	51.4409
1357	50.7279
1358	48.4047
1359	45.7299
1360	43.6278
1361	42.7835
1362	45.3283
1363	51.0965
1364	54.3316
1365	55.6112
1366	55.1255
1367	53.2489
1368	52.9087
1369	52.4102
1370	50.1825
1371	46.855
1372	43.0875
1373	38.1075
1374	43.1822
1375	47.7354
1376	51.2594
1377	53.3767
1378	53.7272
1379	52.3404
1380	54.4469
1381	54.5844
1382	52.9263
1383	49.5342
1384	44.426
1385	40.5368
1386	42.9946
1387	45.8955
1388	48.9583
1389	51.3476
1390	52.1686
1391	53.3978
1392	55.4707
1393	56.5885
1394	56.0903
1395	53.5349
1396	47.7195
1397	45.0202
1398	44.4637
1399	45.6309
1400	47.8191
1401	50.1176
1402	51.3746
1403	52.9967
1404	55.4609
1405	57.7402
1406	58.9477
1407	58.5214
1408	53.8457
1409	49.2618
1410	46.9939
1411	46.6737
1412	47.9062
1413	50.1811
1414	50.1716
1415	51.4606
1416	54.1508
1417	57.4859
1418	60.7618
1419	66.0171
1420	57.2905
1421	52.8756
1422	49.8488
1423	48.4939
1424	48.9696
1425	49.7043
1426	48.4635
1427	49.1589
1428	51.6019
1429	55.5256
1430	61.048
1431	61.992
1432	58.7257
1433	55.3383
1434	52.9323
1435	51.0408
1436	51.2136
1437	49.2602
1438	47.6023
1439	47.2971
1440	48.8237
1441	52.4646
1442	58.9225
1443	59.6282
1444	58.9775
1445	56.99
1446	54.4776
1447	52.4059
1448	51.4069
1449	49.3198
1450	46.9831
1451	45.3524
1452	45.2242
1453	47.0459
1454	52.6305
1455	56.0463
1456	57.2534
1457	56.6574
1458	54.8479
1459	52.3162
1460	52.4974
1461	50.5685
1462	47.6585
1463	44.6179
1464	42.119
1465	42.1787
1466	48.5126
1467	52.5042
1468	54.8173
1469	55.3299
1470	54.0788
1471	53.9395
1472	54.3283
1473	52.8267
1474	49.7688
1475	45.5903
1476	39.6025
1477	42.2436
1478	46.1107
1479	49.6771
1480	52.3876
1481	53.6
1482	52.6418
1483	55.1863
1484	56.2233
1485	55.623
1486	53.1152
1487	48.5168
1488	43.2666
1489	43.7521
1490	45.4551
1491	48.0292
1492	50.5965
1493	52.1707
1494	53.3022
1495	55.5558
1496	57.5034
1497	58.2773
1498	57.2127
1499	53.8263
1500	48.6466
1501	46.4515
1502	46.3151
1503	47.7059
1504	49.8688
1505	51.5407
1506	52.3729
1507	54.7382
1508	57.5937
1509	60.0453
1510	61.53
1511	58.3892
1512	52.9562
1513	49.6408
1514	48.1872
1515	48.5156
1516	50.4367
1517	50.0539
1518	50.5151
1519	52.7175
1520	56.1553
1521	60.2831
1522	70.3129
1523	60.2023
1524	56.0129
1525	52.5727
1526	50.4048
1527	49.9893
1528	50.4662
1529	48.5595
1530	48.2898
1531	49.8076
1532	53.1666
1533	58.5902
1534	61.7094
1535	60.0699
1536	57.5331
1537	54.6433
1538	52.2873
1539	51.4922
1540	49.8407
1541	47.7004
1542	46.3742
1543	46.601
1544	48.8963
1545	54.2273
1546	57.4243
1547	58.3796
1548	57.5195
1549	55.5216
1550	53.265
1551	52.1196
1552	50.5154
1553	47.9582
1554	45.4405
1555	43.8413
1556	43.5396
1557	48.758
1558	53.3223
1559	55.765
1560	56.2943
1561	55.2058
1562	52.6972
1563	53.5215
1564	52.2683
1565	49.5419
1566	46.0055
1567	42.236
1568	39.5727
1569	45.728
1570	49.9333
1571	52.9685
1572	54.4222
1573	53.9907
1574	54.0445
1575	55.2602
1576	54.6885
1577	52.3249
1578	48.3178
1579	42.0641
1580	42.027
1581	44.6533
1582	47.7556
1583	50.6771
1584	52.5799
1585	52.2505
1586	54.8599
1587	56.6293
1588	57.1519
1589	55.8581
1590	52.3609
1591	46.72
1592	45.0637
1593	45.3012
1594	47.0068
1595	49.3757
1596	51.4464
1597	52.4592
1598	54.5458
1599	57.0276
1600	58.94
1601	59.4748
1602	58.5295
1603	52.2121
1604	48.6366
1605	47.189
1606	47.5646
1607	49.2611
1608	51.2733
1609	51.1301
1610	53.051
1611	56.0669
1612	59.3963
1613	62.5283
1614	61.5621
1615	55.9652
1616	52.0471
1617	49.6474
1618	49.007
1619	50.2773
1620	49.6335
1621	49.2041
1622	50.6118
1623	53.669
1624	58.0659
1625	66.3204
1626	61.3895
1627	58.0155
1628	54.6448
1629	51.9651
1630	50.7138
1631	50.8116
1632	48.5327
1633	47.3538
1634	47.7497
1635	50.0923
1636	54.7276
1637	59.3939
1638	59.6659
1639	58.3575
1640	56.02
1641	53.5433
1642	51.9544
1643	50.6836
1644	48.3886
1645	46.2502
1646	45.1717
1647	45.8484
1648	48.6292
1649	54.3921
1650	56.8605
1651	57.2738
1652	56.0927
1653	53.9987
1654	52.7281
1655	51.8695
1656	49.4673
1657	46.4348
1658	43.6181
1659	41.3361
1660	45.2184
1661	50.3476
1662	53.7059
1663	55.3059
1664	55.1129
1665	53.0124
1666	54.2791
1667	53.8796
1668	51.7222
1669	48.1931
1670	43.6955
1671	38.5312
1672	43.7633
1673	47.367
1674	50.7037
1675	52.9021
1676	53.3579
1677	53.6203
1678	55.4748
1679	55.8988
1680	54.5486
1681	51.2591
1682	45.4882
1683	42.9881
1684	43.973
1685	46.1605
1686	48.873
1687	51.1895
1688	51.8831
1689	53.9198
1690	56.1486
1691	57.6985
1692	57.7733
1693	55.807
1694	50.8712
1695	47.157
1696	45.861
1697	46.4359
1698	48.2533
1699	50.4917
1700	51.3857
1701	52.983
1702	55.6315
1703	58.3913
1704	60.4136
1705	61.7903
1706	55.6137
1707	51.1125
1708	48.5327
1709	47.819
1710	48.7857
1711	51.002
1712	49.8284
1713	51.0291
1714	53.7747
1715	57.5014
1716	61.8119
1717	63.2775
1718	58.247
1719	54.2653
1720	51.2461
1721	49.715
1722	50.1444
1723	49.3364
1724	48.0883
1725	48.514
1726	50.7696
1727	54.8302
1728	62.2984
1729	61.041
1730	58.9742
1731	56.1554
1732	53.3451
1733	51.4405
1734	51.0408
1735	48.7536
1736	46.8531
1737	46.0927
1738	47.1168
1739	50.3964
1740	55.7061
1741	57.9316
1742	58.064
1743	56.6269
1744	54.3959
1745	52.2957
1746	51.4245
1747	49.3235
1748	46.6941
1749	44.4875
1750	43.4969
1751	41.2171
1752	50.7097
1753	54.3858
1754	56.0391
1755	55.8632
1756	54.2552
1757	52.9178
1758	52.957
1759	51.0569
1760	47.9478
1761	44.3292
1762	40.445
1763	42.2911
1764	47.3079
1765	51.1258
1766	53.586
1767	54.3319
1768	52.9433
1769	54.4471
1770	54.9504
1771	53.6591
1772	50.6295
1773	46.0297
1774	39.0408
1775	42.6863
1776	45.6024
1777	48.7687
1778	51.403
1779	52.6779
1780	53.1834
1781	55.3876
1782	56.7283
1783	56.5619
1784	54.4258
1785	49.8069
1786	45.4614
1787	44.6161
1788	45.5586
1789	47.6651
1790	50.0529
1791	51.6924
1792	52.9443
1793	55.2947
1794	57.6317
1795	59.0365
1796	58.8168
1797	55.6346
1798	50.1874
1799	47.5035
1800	46.8425
1801	47.8304
1802	49.8858
1803	50.6647
1804	51.5241
1805	53.9539
1806	57.1568
1807	60.3541
1808	63.7287
1809	58.8005
1810	53.9674
1811	50.5988
1812	48.8785
1813	48.9593
1814	51.2089
1815	49.0708
1816	49.3852
1817	51.4757
1818	55.0739
1819	59.9544
1820	63.6734
1821	59.895
1822	56.4093
1823	53.1927
1824	50.9812
1825	50.5123
1826	49.6088
1827	47.7383
1828	47.1387
1829	48.2924
1830	51.471
1831	57.7113
1832	59.5995
1833	59.1637
1834	57.3099
1835	54.776
1836	52.5005
1837	51.5114
1838	49.6002
1839	47.269
1840	45.482
1841	45.0742
1842	46.6217
1843	51.5484
1844	55.5161
1845	57.1028
1846	56.7909
1847	55.1415
1848	52.8779
1849	52.3787
1850	50.7891
1851	48.0548
1852	45.0514
1853	42.5716
1854	38.7175
1855	47.3156
1856	51.7189
1857	54.4014
1858	55.2753
1859	54.4044
1860	53.1027
1861	54.0561
1862	52.9268
1863	50.1819
1864	46.279
1865	41.3561
1866	40.8447
1867	45.0659
1868	48.8128
1869	51.7947
1870	53.3837
1871	52.8916
1872	54.4493
1873	55.7693
1874	55.5124
1875	53.3953
1876	49.3168
1877	41.5647
1878	43.1049
1879	44.6719
1880	47.2111
1881	49.9033
1882	51.8044
1883	52.5934
1884	54.7994
1885	56.8459
1886	57.8638
1887	57.1492
1888	54.1933
1889	48.9076
1890	46.285
1891	45.8221
1892	47.0059
1893	49.1079
1894	51.3158
1895	51.8532
1896	53.9727
1897	56.749
1898	59.2607
1899	60.7656
1900	60.1715
1901	53.512
1902	49.7833
1903	47.9566
1904	47.9545
1905	49.5063
1906	50.1616
1907	50.1466
1908	52.0102
1909	55.1967
1910	59.1027
1911	63.9548
1912	61.0353
1913	56.5256
1914	52.8305
1915	50.3338
1916	49.5038
1917	51.4025
1918	48.675
1919	48.0698
1920	49.2206
1921	52.1926
1922	56.9772
1923	62.3502
1924	60.3813
1925	57.8941
1926	54.9382
1927	52.3606
1928	51.0741
1929	50.1132
1930	47.9114
1931	46.3918
1932	46.3032
1933	48.1867
1934	52.7085
1935	56.9583
1936	58.2612
1937	57.6567
1938	55.7731
1939	53.4677
1940	51.8439
1941	50.6636
1942	48.2515
1943	45.711
1944	43.9582
1945	43.632
1946	47.1992
1947	52.4667
1948	55.3169
1949	56.1973
1950	55.3841
1951	53.3197
1952	53.1374
1953	52.2978
1954	49.8533
1955	46.4896
1956	42.8958
1957	37.5354
1958	44.4176
1959	48.9549
1960	52.3048
1961	54.121
1962	54.1278
1963	53.0059
1964	54.7476
1965	54.5415
1966	52.5419
1967	48.9007
1968	43.6147
1969	40.8524
1970	43.6777
1971	46.822
1972	49.9055
1973	52.1153
1974	52.5635
1975	54.0336
1976	55.9621
1977	56.7571
1978	55.8301
1979	52.8109
1980	45.5941
1981	44.7174
1982	44.6813
1983	46.2177
1984	48.5748
1985	50.8136
1986	51.9143
1987	53.7669
1988	56.2089
1989	58.2446
1990	59.0182
1991	58.0183
1992	52.8283
1993	48.7219
1994	46.8888
1995	46.9606
1996	48.4577
1997	50.837
1998	50.7617
1999	52.3362
2000	55.1473
2001	58.393
2002	61.3708
2003	63.8564
2004	56.6234
2005	52.3468
2006	49.5928
2007	48.5824
2008	49.3884
2009	49.8878
2010	48.9956
2011	50.0331
2012	52.7549
2013	56.8164
2014	62.4795
2015	62.0568
2016	58.5004
2017	54.9967
2018	52.0706
2019	50.4411
2020	51.1582
2021	48.7591
2022	47.3374
2023	47.4026
2024	49.3479
2025	53.4017
2026	59.4868
2027	59.6925
2028	58.577
2029	56.3115
2030	53.7411
2031	51.8419
2032	50.837
2033	48.6465
2034	46.4428
2035	45.1489
2036	45.5102
2037	47.9582
2038	53.5402
2039	56.4537
2040	57.2105
2041	56.2636
2042	54.2769
2043	52.0245
2044	51.8654
2045	49.7295
2046	46.8104
2047	43.9844
2048	41.8907
2049	43.3386
2050	49.2835
2051	53.0245
2052	54.994
2053	55.1524
2054	53.6108
2055	53.6838
2056	53.7186
2057	51.9099
2058	48.6649
2059	44.4749
2060	38.0976
2061	42.5213
2062	46.5662
2063	50.1195
2064	52.6312
2065	53.5246
2066	52.7556
2067	55.0313
2068	55.7633
2069	54.778
2070	51.897
2071	46.9483
2072	42.4502
2073	43.4417
2074	45.5257
2075	48.2682
2076	50.7811
2077	52.071
2078	53.3625
2079	55.6013
2080	57.3146
2081	57.6836
2082	56.1056
2083	51.8776
2084	47.4085
2085	45.732
2086	46.0257
2087	47.6967
2088	49.9323
2089	51.3412
2090	52.5308
2091	55.0054
2092	57.7515
2093	59.8738
2094	60.8719
2095	56.7702
2096	51.6808
2097	48.7072
2098	47.635
2099	48.2935
2100	50.4541
2101	49.9029
2102	50.7023
2103	53.1459
2104	56.6575
2105	60.6658
2106	66.3297
2107	59.1582
2108	54.9188
2109	51.6129
2110	49.7237
2111	49.6559
2112	49.9399
2113	48.3037
2114	48.379
2115	50.2614
2116	53.9158
2117	59.6527
2118	61.6385
2119	59.5543
2120	56.7433
2121	53.8032
2122	51.6065
2123	51.2403
2124	49.2462
2125	47.2312
2126	46.222
2127	46.8906
2128	49.6928
2129	55.3361
2130	57.8531
2131	58.2994
2132	57.0629
2133	54.8781
2134	52.6632
2135	51.6162
2136	49.7799
2137	47.2231
2138	44.9293
2139	43.7548
2140	43.9875
2141	49.7608
2142	53.933
2143	55.9722
2144	56.1175
2145	54.7539
2146	51.756
2147	52.9891
2148	51.4412
2149	48.5656
2150	45.0816
2151	41.4595
2152	40.3799
2153	46.2739
2154	50.3995
2155	53.1968
2156	54.3208
2157	53.5402
2158	53.818
2159	54.7183
2160	53.7942
2161	51.1209
2162	46.9219
2163	40.2146
2164	41.7817
2165	44.7591
2166	48.0138
2167	50.8688
2168	52.5238
2169	52.2891
2170	54.7468
2171	56.294
2172	56.4433
2173	54.7057
2174	50.7297
2175	45.3355
2176	44.277
2177	44.9824
2178	46.9823
2179	49.4308
2180	51.3399
2181	52.4103
2182	54.6157
2183	56.9844
2184	58.5719
2185	58.6128
2186	57.1925
2187	50.6846
2188	47.5568
2189	46.5405
2190	47.2684
2191	49.1587
2192	50.8242
2193	51.1336
2194	53.2785
2195	56.3332
2196	59.4811
2197	62.2679
2198	60.039
2199	54.6136
2200	50.895
2201	48.8112
2202	48.5188
2203	50.1243
2204	49.248
2205	49.1602
2206	50.8935
2207	54.175
2208	58.6438
2209	67.3989
2210	60.6028
2211	56.9941
2212	53.5981
2213	51.0901
2214	50.1532
2215	50.1412
2216	48.0127
2217	47.1317
2218	47.9254
2219	50.678
2220	55.7686
2221	59.6979
2222	59.4219
2223	57.7173
2224	55.1882
2225	52.7442
2226	51.4526
2227	49.9519
2228	47.6527
2229	45.7333
2230	45.0581
2231	46.2684
2232	50.2595
2233	55.0005
2234	56.9843
2235	56.9747
2236	55.5036
2237	53.3169
2238	52.2352
2239	51.0443
2240	48.511
2241	45.5598
2242	43.0463
2243	41.1675
2244	46.0474
2245	50.9454
2246	54.0044
2247	55.2419
2248	54.7161
2249	52.2054
2250	53.7854
2251	53.0467
2252	50.6228
2253	46.9791
2254	42.534
2255	38.9537
2256	44.0481
2257	47.9873
2258	51.2271
2259	53.1686
2260	53.2676
2261	53.7216
2262	55.3461
2263	55.4239
2264	53.6866
2265	50.0535
2266	43.7517
2267	42.5156
2268	43.9822
2269	46.4687
2270	49.2585
2271	51.4345
2272	51.9006
2273	54.1319
2274	56.2536
2275	57.4945
2276	57.1173
2277	54.6042
2278	49.342
2279	46.2696
2280	45.4654
2281	46.4203
2282	48.4406
2283	50.6574
2284	51.5028
2285	53.3371
2286	56.0086
2287	58.5679
2288	60.1815
2289	61.2576
2290	54.2778
2291	50.0933
2292	47.8849
2293	47.5457
2294	48.7985
2295	50.6119
2296	49.9512
2297	51.4575
2298	54.3823
2299	58.098
2300	62.2436
2301	62.3328
2302	57.2839
2303	53.3293
2304	50.5144
2305	49.2984
2306	50.1099
2307	49.0499
2308	48.0968
2309	48.8849
2310	51.4817
2311	55.793
2312	65.5764
2313	60.9052
2314	58.4474
2315	55.4447
2316	52.6731
2317	51.0041
2318	50.6086
2319	48.3225
2320	46.6302
2321	46.2441
2322	47.7349
2323	51.5629
2324	56.6389
2325	58.2758
2326	57.943
2327	56.1985
2328	53.8684
2329	51.9159
2330	50.9382
2331	48.7032
2332	46.1649
2333	44.2675
2334	43.7673
2335	44.9765
2336	51.6939
2337	54.9758
2338	56.2192
2339	55.691
2340	53.8712
2341	52.784
2342	52.4333
2343	50.2906
2344	47.1107
2345	43.6347
2346	39.9867
2347	43.107
2348	48.0841
2349	51.7504
2350	53.9221
2351	54.3259
2352	52.488
2353	54.3315
2354	54.5006
2355	52.8651
2356	49.5725
2357	44.8308
2358	39.2305
2359	42.8422
2360	46.037
2361	49.2633
2362	51.7515
2363	52.7132
2364	53.339
2365	55.4346
2366	56.4849
2367	55.9097
2368	53.3273
2369	48.1154
2370	44.5632
2371	44.2702
2372	45.6187
2373	47.9369
2374	50.3123
2375	51.6242
2376	53.1959
2377	55.5696
2378	57.7051
2379	58.7123
2380	57.9469
2381	53.8651
2382	49.0662
2383	46.8304
2384	46.5824
2385	47.8683
2386	50.0402
2387	50.6778
2388	51.8602
2389	54.4444
2390	57.1315
2391	60.0588
2392	63.2813
2393	57.1246
2394	52.4336
2395	49.3232
2396	47.9458
2397	48.3629
2398	50.16
2399	48.5823
2400	49.2391
2401	51.6221
2402	55.3785
2403	60.2921
2404	62.7282
2405	58.7438
2406	55.1064
2407	51.9515
2408	49.9762
2409	49.8829
2410	48.7533
2411	47.0872
2412	46.8345
2413	48.3968
2414	51.9687
2415	59.338
2416	59.4293
2417	58.4959
2418	56.3233
2419	53.6877
2420	51.5354
2421	50.6822
2422	48.6092
2423	46.3666
2424	44.8779
2425	44.9286
2426	47.0557
2427	52.2885
2428	55.6923
2429	56.8087
2430	56.1159
2431	54.249
2432	51.9782
2433	51.4943
2434	49.6597
2435	46.8771
2436	44.0472
2437	41.9507
2438	39.3087
2439	47.8265
2440	51.9808
2441	54.3245
2442	54.8343
2443	53.6646
2444	52.6337
2445	53.1909
2446	51.7436
2447	48.7879
2448	44.8501
2449	39.973
2450	40.8143
2451	45.1939
2452	48.9606
2453	51.7704
2454	53.058
2455	52.1096
2456	54.0066
2457	55.0463
2458	54.4175
2459	51.9279
2460	47.5344
2461	40.8041
2462	42.3856
2463	44.3696
2464	47.1198
2465	49.799
2466	51.4745
2467	52.2853
2468	54.5243
2469	56.3776
2470	57.0227
2471	55.8212
2472	52.247
2473	47.2078
2474	45.1398
2475	45.1346
2476	46.6358
2477	48.8555
2478	50.9714
2479	51.6191
2480	53.8891
2481	56.5985
2482	58.8211
2483	59.8503
2484	57.844
2485	51.8235
2486	48.437
2487	46.9977
2488	47.3462
2489	49.1325
2490	49.5827
2491	49.9315
2492	52.0574
2493	55.3492
2494	59.1581
2495	64.0136
2496	59.6803
2497	55.117
2498	51.5288
2499	49.2936
2500	48.8009
2501	50.3768
2502	48.073
2503	47.797
2504	49.3104
2505	52.5854
2506	57.5947
2507	61.9783
2508	59.6349
2509	56.835
2510	53.7876
2511	51.332
2512	50.3637
2513	49.2417
2514	47.1225
2515	45.8846
2516	46.2139
2517	48.5784
2518	53.9194
2519	57.2151
2520	57.9779
2521	56.9624
2522	54.8499
2523	52.5375
2524	51.1884
2525	49.6816
2526	47.2262
2527	44.8669
2528	43.5016
2529	43.7189
2530	48.0938
2531	52.8812
2532	55.3211
2533	55.8007
2534	54.6827
2535	52.4668
2536	52.4052
2537	51.2446
2538	48.6207
2539	45.2728
2540	41.9065
2541	33.1866
2542	44.8089
2543	49.2782
2544	52.4096
2545	53.9025
2546	53.5676
2547	52.6913
2548	54.084
2549	53.5308
2550	51.2124
2551	47.3664
2552	41.9315
2553	40.3944
2554	43.5595
2555	46.8952
2556	49.9494
2557	51.9427
2558	51.9733
2559	53.7435
2560	55.4871
2561	55.9358
2562	54.5803
2563	51.1167
2564	44.4614
2565	43.6381
2566	44.1031
2567	45.9736
2568	48.4543
2569	50.5863
2570	51.5986
2571	53.6272
2572	56.0004
2573	57.7512
2574	58.0644
2575	56.4712
2576	50.9741
2577	47.3558
2578	45.9689
2579	46.4197
2580	48.1477
2581	50.61
2582	50.4969
2583	52.3271
2584	55.2138
2585	58.3172
2586	60.9492
2587	61.6065
2588	55.0265
2589	50.9377
2590	48.49
2591	47.8324
2592	48.9547
2593	49.225
2594	48.6858
2595	50.0547
2596	53.0199
2597	57.1674
2598	62.997
2599	61.0964
2600	57.2947
2601	53.7291
2602	50.9443
2603	49.6038
2604	50.7514
2605	48.0113
2606	46.8577
2607	47.3033
2608	49.652
2609	54.0916
2610	59.6514
2611	59.3416
2612	57.793
2613	55.2933
2614	52.7121
2615	51.0313
2616	49.9579
2617	47.7137
2618	45.6868
2619	44.7613
2620	45.6256
2621	48.7391
2622	54.0778
2623	56.4789
2624	56.7892
2625	55.5175
2626	53.3952
2627	51.566
2628	50.911
2629	48.6069
2630	46.2604
2631	43.6986
2632	42.048
2633	44.6972
2634	50.292
2635	53.7407
2636	55.3464
2637	55.1565
2638	53.3468
2639	53.6151
2640	53.2991
2641	51.2073
2642	47.8203
2643	43.6743
2644	36.2437
2645	43.1448
2646	47.3146
2647	50.8026
2648	53.0789
2649	53.6379
2650	53.0444
2651	55.0674
2652	55.4739
2653	54.1081
2654	50.8833
2655	45.6085
2656	42.0213
2657	43.4971
2658	45.92
2659	48.7822
2660	51.1956
2661	52.152
2662	53.6679
2663	55.8448
2664	57.2868
2665	57.2317
2666	55.1402
2667	49.9895
2668	46.5197
2669	45.362
2670	46.0675
2671	47.9823
2672	50.2439
2673	51.4602
2674	52.9514
2675	55.4906
2676	58.0787
2677	59.8291
2678	60.3152
2679	55.4178
2680	50.6903
2681	48.0886
2682	47.4033
2683	48.3727
2684	50.7607
2685	50.0543
2686	51.1773
2687	53.8265
2688	57.3602
2689	61.1951
2690	64.6888
2691	58.288
2692	54.0535
2693	50.9281
2694	49.3427
2695	49.6258
2696	49.7014
2697	48.3561
2698	48.7834
2699	51.0113
2700	54.92
2701	60.9815
2702	61.6722
2703	59.1795
2704	56.1438
2705	53.2029
2706	51.2045
2707	51.4241
2708	48.9182
2709	47.0709
2710	46.4055
2711	47.5208
2712	50.8189
2713	56.5263
2714	58.4101
2715	58.3603
2716	56.7784
2717	54.4501
2718	52.3261
2719	51.3146
2720	49.293
2721	46.7837
2722	44.758
2723	44.0403
2724	44.8138
2725	50.9682
2726	54.723
2727	56.3424
2728	56.1126
2729	54.5049
2730	52.2742
2731	52.6516
2732	50.8354
2733	47.8549
2734	44.4774
2735	41.241
2736	41.5924
2737	47.295
2738	51.2888
2739	53.8118
2740	54.5944
2741	53.4707
2742	53.9776
2743	54.5482
2744	53.279
2745	50.3285
2746	45.9868
2747	38.5231
2748	42.1015
2749	45.3834
2750	48.7375
2751	51.4802
2752	52.8569
2753	52.689
2754	55.0305
2755	56.3211
2756	56.0829
2757	53.9119
2758	49.4715
2759	44.53
2760	44.049
2761	45.1962
2762	47.4498
2763	49.9311
2764	51.6266
2765	52.8205
2766	55.0972
2767	57.3073
2768	58.5343
2769	58.0615
2770	56.4541
2771	49.6604
2772	46.9996
2773	46.4156
2774	47.4736
2775	49.5177
2776	50.9083
2777	51.6119
2778	53.9445
2779	56.9884
2780	59.9026
2781	62.3109
2782	58.9276
2783	53.6939
2784	50.2198
2785	48.4755
2786	48.529
2787	50.4686
2788	49.3559
2789	49.6125
2790	51.6504
2791	55.1127
2792	59.6004
2793	65.6424
2794	60.1448
2795	56.3547
2796	52.9857
2797	50.6879
2798	50.0856
2799	49.9282
2800	47.9841
2801	47.4248
2802	48.6158
2803	51.7539
2804	57.304
2805	60.2955
2806	59.4966
2807	57.4333
2808	54.7594
2809	52.3939
2810	51.4816
2811	49.6556
2812	47.399
2813	45.7385
2814	45.4905
2815	47.2422
2816	51.9671
2817	55.9555
2818	57.4472
2819	57.0283
2820	55.3008
2821	53.0675
2822	52.119
2823	50.6346
2824	48.0139
2825	45.1943
2826	43.0306
2827	41.5549
2828	47.3221
2829	51.9526
2830	54.6779
2831	55.5435
2832	54.7007
2833	52.1924
2834	53.6702
2835	52.6025
2836	49.9456
2837	46.2385
2838	41.8966
2839	39.7782
2840	44.8502
2841	48.8387
2842	51.9343
2843	53.591
2844	53.3222
2845	53.9945
2846	55.3591
2847	55.08
2848	52.9709
2849	49.0309
2850	42.0476
2851	42.3899
2852	44.3031
2853	47.0423
2854	49.8607
2855	51.8548
2856	52.2482
2857	54.5306
2858	56.5015
2859	57.403
2860	56.5638
2861	53.5044
2862	48.1544
2863	45.6954
2864	45.3763
2865	46.6845
2866	48.8662
2867	51.0107
2868	51.8681
2869	53.817
2870	56.4642
2871	58.7759
2872	59.9438
2873	61.1227
2874	53.0873
2875	49.2547
2876	47.4384
2877	47.4688
2878	48.9797
2879	50.4706
2880	50.2523
2881	52.0414
2882	55.1022
2883	58.752
2884	62.6935
2885	61.4475
2886	56.397
2887	52.5234
2888	49.9513
2889	49.0657
2890	50.271
2891	48.9368
2892	48.2985
2893	49.4454
2894	52.3542
2895	56.8712
2896	64.7485
2897	60.7644
2898	57.9603
2899	54.825
2900	52.1383
2901	50.7394
2902	50.2952
2903	48.0559
2904	46.6085
2905	46.6149
2906	48.5677
2907	52.9489
2908	57.5682
2909	58.6301
2910	57.8528
2911	55.8383
2912	53.4549
2913	51.71
2914	50.5538
2915	48.2301
2916	45.8298
2917	44.2812
2918	44.2975
2919	46.98
2920	52.7533
2921	55.6145
2922	56.4419
2923	55.5804
2924	53.5863
2925	52.7065
2926	51.9931
2927	49.642
2928	46.4407
2929	43.1617
2930	39.7543
2931	44.106
2932	49.0015
2933	52.4688
2934	54.3252
2935	54.3853
2936	51.8662
2937	54.2843
2938	54.1119
2939	52.1501
2940	48.6357
2941	43.7997
2942	39.4825
2943	43.2358
2944	46.6574
2945	49.8921
2946	52.1941
2947	52.8156
2948	53.6069
2949	55.552
2950	56.285
2951	55.297
2952	52.2873
2953	46.4082
2954	43.9245
2955	44.1643
2956	45.8858
2957	48.371
2958	50.6875
2959	51.7472
2960	53.5762
2961	55.9265
2962	57.8181
2963	58.3988
2964	57.0721
2965	52.3515
2966	48.147
2967	46.3732
2968	46.5291
2969	48.0825
2970	50.3265
2971	50.8718
2972	52.3469
2973	55.0431
2974	58.094
2975	60.7019
2976	64.0195
2977	56.4755
2978	51.9727
2979	49.1581
2980	48.1368
2981	48.8782
2982	50.3459
2983	49.2104
2984	50.2035
2985	52.848
2986	56.7125
2987	61.6182
2988	62.7419
2989	58.5619
2990	54.8279
2991	51.783
2992	50.0743
2993	50.3817
2994	48.9863
2995	47.5591
2996	47.6676
2997	49.6273
2998	53.5617
2999	62.3802
3000	60.1804
3001	58.7797
3002	56.3311
3003	53.6417
3004	51.6562
3005	50.8716
3006	48.6927
3007	46.5834
3008	45.4272
3009	45.952
3010	48.6702
3011	53.9845
3012	56.8289
3013	57.4755
3014	56.4246
3015	54.3798
3016	52.1493
3017	51.6246
3018	49.5824
3019	46.7988
3020	44.1921
3021	42.5204
3022	42.325
3023	49.3914
3024	53.2547
3025	55.2349
3026	55.382
3027	53.9373
3028	53.1518
3029	53.3263
3030	51.5806
3031	48.4559
3032	44.5381
3033	39.7185
3034	41.9398
3035	46.4365
3036	50.1687
3037	52.7661
3038	53.7335
3039	52.2351
3040	54.5735
3041	55.3091
3042	54.3082
3043	51.4716
3044	46.8014
3045	40.9751
3046	42.8523
3047	45.2124
3048	48.1245
3049	50.7442
3050	52.1548
3051	53.0457
3052	55.2682
3053	56.8892
3054	57.139
3055	55.4495
3056	51.2201
3057	46.6758
3058	45.1592
3059	45.5966
3060	47.381
3061	49.6733
3062	51.4609
3063	52.4673
3064	54.8444
3065	57.4387
3066	59.3286
3067	59.851
3068	56.7157
3069	51.227
3070	48.2152
3071	47.1735
3072	47.8574
3073	49.8449
3074	50.1216
3075	50.8192
3076	53.1758
3077	56.5236
3078	60.1799
3079	65.1975
3080	59.2615
3081	54.6954
3082	51.2633
3083	49.3193
3084	49.1694
3085	50.4467
3086	48.5414
3087	48.606
3088	50.4677
3089	54.0073
3090	59.2038
3091	62.5001
3092	59.7871
3093	56.7235
3094	53.6354
3095	51.3435
3096	50.7302
3097	49.3937
3098	47.4015
3099	46.4754
3100	47.2309
3101	50.0642
3102	56.7601
3103	58.362
3104	58.5971
3105	57.1992
3106	54.9
3107	52.628
3108	51.6853
3109	49.9225
3110	47.4703
3111	45.3372
3112	44.393
3113	45.1757
3114	50.1526
3115	54.4608
3116	56.4709
3117	56.5542
3118	55.159
3119	52.8279
3120	52.8474
3121	51.3901
3122	48.6281
3123	45.3485
3124	42.2614
3125	38.6653
3126	46.4749
3127	50.8245
3128	53.6972
3129	54.8502
3130	54.181
3131	53.5438
3132	54.5872
3133	53.6896
3134	51.0803
3135	47.0775
3136	41.5105
3137	41.2938
3138	44.7627
3139	48.2359
3140	51.2124
3141	52.956
3142	52.5029
3143	54.6518
3144	56.1732
3145	56.2578
3146	54.4801
3147	50.5956
3148	44.2822
3149	43.9162
3150	44.8577
3151	47.0231
3152	49.5808
3153	51.5593
3154	52.5482
3155	54.701
3156	56.9595
3157	58.3879
3158	58.2192
3159	56.0111
3160	50.4226
3161	47.3044
3162	46.3685
3163	47.1796
3164	49.1011
3165	51.715
3166	51.5045
3167	53.5564
3168	56.4714
3169	59.3806
3170	61.6228
3171	60.7829
3172	54.6467
3173	50.7922
3174	48.6789
3175	48.3767
3176	49.7968
3177	49.8487
3178	49.6644
3179	51.3483
3180	54.5172
3181	58.6967
3182	64.7906
3183	61.2508
3184	57.2527
3185	53.6793
3186	51.0778
3187	50.0487
3188	50.9402
3189	48.5392
3190	47.6808
3191	48.5108
3192	51.2418
3193	56.039
3194	60.912
3195	60.0934
3196	58.1479
3197	55.4606
3198	52.9153
3199	51.4986
3200	50.2948
3201	48.0458
3202	46.2371
3203	45.7067
3204	47.0818
3205	50.9476
3206	55.7506
3207	57.6329
3208	57.5067
3209	55.9409
3210	53.7273
3211	52.201
3212	51.1573
3213	48.7264
3214	45.9369
3215	43.6865
3216	42.5121
3217	46.1939
3218	51.4428
3219	54.562
3220	55.7898
3221	55.2631
3222	53.2084
3223	53.6519
3224	52.9928
3225	50.6471
3226	47.1666
3227	43.1197
3228	35.7489
3229	44.0211
3230	48.2615
3231	51.6338
3232	53.6427
3233	53.8572
3234	53.4512
3235	55.2086
3236	55.2749
3237	53.5393
3238	50.0051
3239	44.4212
3240	41.8992
3241	43.8311
3242	46.5472
3243	49.4796
3244	51.7504
3245	52.3146
3246	54.1282
3247	56.1977
3248	57.3352
3249	56.8427
3250	54.2428
3251	48.6665
3252	45.9053
3253	45.2612
3254	46.3546
3255	48.4733
3256	50.713
3257	51.8014
3258	53.5448
3259	56.1025
3260	58.4853
3261	59.8254
3262	59.7797
3263	54.2573
3264	49.9149
3265	47.7096
3266	47.4109
3267	48.6668
3268	51.317
3269	50.4246
3270	51.8516
3271	54.6666
3272	58.1691
3273	61.779
3274	63.5706
3275	57.5234
3276	53.3485
3277	50.4458
3278	49.184
3279	49.8169
3280	49.6723
3281	48.6365
3282	49.417
3283	51.9655
3284	56.0836
3285	62.5256
3286	61.7328
3287	58.8726
3288	55.6637
3289	52.7704
3290	51.0063
3291	51.312
3292	48.7832
3293	47.1429
3294	46.8432
3295	48.4036
3296	52.1838
3297	57.7327
3298	59.0105
3299	58.4831
3300	56.5912
3301	54.1648
3302	52.1813
3303	51.142
3304	48.9823
3305	46.5673
3306	44.8507
3307	44.6169
3308	45.916
3309	52.2878
3310	55.6014
3311	56.791
3312	56.2008
3313	54.3841
3314	52.5517
3315	52.4319
3316	50.3782
3317	47.3397
3318	44.1227
3319	41.2187
3320	42.8828
3321	48.4088
3322	52.2209
3323	54.4385
3324	54.8735
3325	53.4145
3326	54.1518
3327	54.383
3328	52.7818
3329	49.5914
3330	45.1586
3331	35.0928
3332	42.6106
3333	46.1469
3334	49.5471
3335	52.1343
3336	53.2064
3337	53.1342
3338	55.3357
3339	56.3395
3340	55.7058
3341	53.1177
3342	48.2246
3343	43.9351
3344	44.0107
3345	45.5685
3346	48.0321
3347	50.685
3348	52.1107
3349	53.4982
3350	55.7985
3351	57.8066
3352	58.6419
3353	57.6409
3354	54.0904
3355	48.967
3356	46.788
3357	46.6313
3358	47.9919
3359	50.1468
3360	51.3216
3361	52.3755
3362	54.8559
3363	57.8388
3364	60.4689
3365	62.4746
3366	58.0492
3367	53.0369
3368	49.8482
3369	48.4614
3370	48.8528
3371	51.1493
3372	49.7756
3373	50.374
3374	52.69
3375	56.2859
3376	60.7397
3377	65.0503
3378	59.8432
3379	55.9267
3380	52.6353
3381	50.5821
3382	50.3305
3383	49.9949
3384	48.2687
3385	48.0494
3386	49.6311
3387	53.1248
3388	59.1644
3389	61.004
3390	59.7111
3391	57.3309
3392	54.5603
3393	52.3177
3394	51.8598
3395	49.6202
3396	47.4525
3397	46.0871
3398	46.2847
3399	48.5811
3400	53.7431
3401	57.066
3402	58.0639
3403	57.2551
3404	55.3084
3405	53.0769
3406	52.2041
3407	50.4658
3408	47.8033
3409	45.1648
3410	43.3936
3411	42.2839
3412	48.8477
3413	53.1736
3414	55.5366
3415	56.0268
3416	54.8879
3417	52.8729
3418	53.752
3419	52.3709
3420	49.5188
3421	45.8017
3422	41.6102
3423	40.893
3424	45.9738
3425	49.9561
3426	52.8635
3427	54.2125
3428	53.5673
3429	54.4804
3430	55.5591
3431	54.9183
3432	52.4587
3433	48.2525
3434	40.0816
3435	42.6551
3436	44.9757
3437	47.9188
3438	50.7175
3439	52.4911
3440	52.8578
3441	55.1552
3442	56.934
3443	57.4705
3444	56.1653
3445	52.5609
3446	47.3495
3447	45.4864
3448	45.6399
3449	47.2698
3450	49.5691
3451	51.5883
3452	52.5217
3453	54.7037
3454	57.279
3455	59.2986
3456	59.9881
3457	59.7873
3458	52.3452
3459	48.8968
3460	47.4871
3461	47.8761
3462	49.613
3463	50.8316
3464	51.018
3465	53.0619
3466	56.2126
3467	59.7411
3468	63.4484
3469	60.9117
3470	55.8903
3471	52.1493
3472	49.854
3473	49.3084
3474	50.9318
3475	49.2915
3476	48.983
3477	50.4791
3478	53.6652
3479	58.3409
3480	64.5997
3481	60.9152
3482	57.8129
3483	54.5969
3484	52.0395
3485	50.9416
3486	50.3987
3487	48.2508
3488	47.0815
3489	47.4927
3490	49.8967
3491	54.8483
3492	58.7818
3493	59.2837
3494	58.0879
3495	55.8444
3496	53.4543
3497	51.9938
3498	50.5694
3499	48.2034
3500	45.9867
3501	44.8224
3502	45.3763
3503	49.0976
3504	54.1663
3505	56.5851
3506	56.997
3507	55.8261
3508	53.6984
3509	52.9816
3510	51.9328
3511	49.4111
3512	46.2395
3513	43.2103
3514	40.0115
3515	45.5675
3516	50.3367
3517	53.5611
3518	55.081
3519	54.8015
3520	52.7809
3521	54.5939
3522	54.0782
3523	51.8135
3524	48.1226
3525	43.239
3526	40.203
3527	44.1476
3528	47.7423
3529	50.9346
3530	53.0139
3531	53.271
3532	54.2692
3533	56.0245
3534	56.4184
3535	55.0199
3536	51.6073
3537	44.8594
3538	43.8371
3539	44.5858
3540	46.6424
3541	49.2483
3542	51.4601
3543	52.3512
3544	54.3666
3545	56.647
3546	58.2554
3547	58.386
3548	56.4857
3549	51.3613
3550	47.7291
3551	46.4253
3552	46.9701
3553	48.7563
3554	51.0261
3555	51.5316
3556	53.2663
3557	56.0294
3558	58.9271
3559	61.1688
3560	68.1699
3561	55.7597
3562	51.4904
3563	49.0038
3564	48.3459
3565	49.3944
3566	50.5753
3567	49.8474
3568	51.1646
3569	54.0349
3570	57.9551
3571	62.819
3572	62.6024
3573	58.2542
3574	54.479
3575	51.5893
3576	50.1732
3577	50.9125
3578	49.2077
3579	48.0498
3580	48.5279
3581	50.8679
3582	55.1299
3583	62.3597
3584	60.7472
3585	58.9142
3586	56.1089
3587	53.4132
3588	51.6367
3589	50.8578
3590	48.6254
3591	46.6925
3592	45.8981
3593	46.9066
3594	50.231
3595	55.3991
3596	57.6862
3597	57.8699
3598	56.4887
3599	54.3083
3600	52.1634
3601	51.5423
3602	49.3326
3603	46.5964
3604	44.2603
3605	43.0508
3606	44.4583
3607	50.7627
3608	54.2964
3609	55.8943
3610	55.6858
3611	53.9946
3612	53.428
3613	53.2321
3614	51.2129
3615	47.9644
3616	44.1223
3617	39.3415
3618	42.9794
3619	47.5468
3620	51.1919
3621	53.5405
3622	54.1744
3623	52.343
3624	54.9114
3625	55.3239
3626	53.9569
3627	50.8044
3628	45.897
3629	41.0312
3630	43.266
3631	45.9575
3632	48.9813
3633	51.4965
3634	52.6049
3635	53.6314
3636	55.7898
3637	57.1427
3638	56.9805
3639	54.8076
3640	49.8415
3641	46.0834
3642	45.1118
3643	45.9706
3644	48.0005
3645	50.3188
3646	51.7778
3647	53.1562
3648	55.5952
3649	58.027
3650	59.5446
3651	59.5331
3652	55.4968
3653	50.5013
3654	47.8916
3655	47.2515
3656	48.2503
3657	50.4029
3658	50.5423
3659	51.57
3660	54.1212
3661	57.4739
3662	60.9231
3663	66.7357
3664	58.6015
3665	54.0845
3666	50.8543
3667	49.2258
3668	49.4189
3669	50.4405
3670	48.8931
3671	49.3037
3672	51.4935
3673	55.2551
3674	60.6057
3675	62.7172
3676	59.6561
3677	56.3805
3678	53.302
3679	51.2122
3680	50.9938
3681	49.3877
3682	47.5644
3683	46.9753
3684	48.1595
3685	51.4436
3686	58.3489
3687	59.2056
3688	58.9306
3689	57.1836
3690	54.7423
3691	52.5579
3692	51.5186
3693	49.5575
3694	47.1552
3695	45.2906
3696	44.7963
3697	46.1642
3698	51.5366
3699	55.3577
3700	56.9244
3701	56.6223
3702	54.9819
3703	52.5668
3704	52.6305
3705	50.9048
3706	48.0488
3707	44.8907
3708	42.1316
3709	40.679
3710	47.5638
3711	51.7436
3712	54.3221
3713	55.1244
3714	54.1333
3715	53.7295
3716	54.4199
3717	53.1862
3718	50.3194
3719	46.2107
3720	40.5057
3721	41.7084
3722	45.4387
3723	48.9952
3724	51.8478
3725	53.3127
3726	52.1898
3727	54.9138
3728	56.1796
3729	55.8876
3730	53.7006
3731	49.4218
3732	43.576
3733	43.7143
3734	45.1025
3735	47.5201
3736	50.1077
3737	51.887
3738	52.9154
3739	55.142
3740	57.2414
3741	58.3139
3742	57.6478
3743	54.7939
3744	49.3446
3745	46.7372
3746	46.2509
3747	47.3983
3748	49.4727
3749	51.486
3750	51.9412
3751	54.1774
3752	57.072
3753	59.7365
3754	61.5491
3755	59.4247
3756	53.6605
3757	50.0835
3758	48.3273
3759	48.3768
3760	50.0729
3761	49.9219
3762	50.091
3763	52.0678
3764	55.3967
3765	59.5532
3766	66.2216
3767	60.6922
3768	56.5494
3769	53.0212
3770	50.6412
3771	49.9407
3772	50.6511
3773	48.5106
3774	47.9698
3775	49.1823
3776	52.2684
3777	57.3965
3778	61.4239
3779	60.1141
3780	57.8123
3781	54.9856
3782	52.5218
3783	51.4163
3784	50.0193
3785	47.8133
3786	46.2611
3787	46.1472
3788	48.0351
3789	52.9809
3790	56.7131
3791	58.0748
3792	57.5281
3793	55.7031
3794	53.4444
3795	52.1433
3796	50.7743
3797	48.2606
3798	45.6097
3799	43.7143
3800	43.0443
3801	47.5923
3802	52.4827
3803	55.2403
3804	56.0819
3805	55.2357
3806	52.9553
3807	53.5548
3808	52.5654
3809	49.9996
3810	46.4766
3811	42.5832
3812	38.1433
3813	44.8978
3814	49.1537
3815	52.3631
3816	54.0773
3817	53.942
3818	53.739
3819	55.212
3820	54.9287
3821	52.84
3822	49.0357
3823	43.145
3824	41.8428
3825	43.9029
3826	46.8637
3827	49.8165
3828	51.9044
3829	51.984
3830	54.2009
3831	56.1196
3832	56.9239
3833	55.9867
3834	52.888
3835	47.1508
3836	45.0366
3837	44.8953
3838	46.3476
3839	48.6277
3840	50.7967
3841	51.8202
3842	53.7686
3843	56.2978
3844	58.43
3845	59.326
3846	58.7357
3847	52.7639
3848	48.8318
3849	47.0415
3850	47.1228
3851	48.6359
3852	51.1395
3853	50.4767
3854	52.1832
3855	55.121
3856	58.5383
3857	61.8745
3858	62.1646
3859	56.3446
3860	52.2821
3861	49.6403
3862	48.7162
3863	49.6937
3864	49.3223
3865	48.6117
3866	49.7404
3867	52.5791
3868	56.8584
3869	63.8477
3870	61.2921
3871	58.1094
3872	54.7802
3873	51.9812
3874	50.4835
3875	50.7185
3876	48.3149
3877	46.9176
3878	46.9998
3879	48.9976
3880	53.2445
3881	58.4261
3882	59.1186
3883	58.1378
3884	55.9752
3885	53.497
3886	51.705
3887	50.5732
3888	48.3228
3889	46.0481
3890	44.6779
3891	44.9497
3892	46.6295
3893	53.1744
3894	56.0263
3895	56.7824
3896	55.8522
3897	53.8651
3898	52.3408
3899	51.8015
3900	49.5451
3901	46.4976
3902	43.4938
3903	40.959
3904	43.8249
3905	49.1626
3906	52.7467
3907	54.6329
3908	54.7203
3909	52.9318
3910	53.8999
3911	53.7869
3912	51.8724
3913	48.484
3914	44.0129
3915	36.8821
3916	42.8614
3917	46.5996
3918	49.9933
3919	52.385
3920	53.1306
3921	53.1891
3922	55.2184
3923	55.9098
3924	54.8785
3925	51.8955
3926	46.5535
3927	43.1132
3928	43.722
3929	45.6543
3930	48.2817
3931	50.689
3932	51.7775
3933	53.4398
3934	55.7165
3935	57.4816
3936	57.8992
3937	56.3606
3938	51.9017
3939	47.6196
3940	45.9316
3941	46.191
3942	47.8224
3943	50.0427
3944	51.0579
3945	52.4222
3946	55.0078
3947	57.8791
3948	60.1776
3949	61.7698
3950	56.4175
3951	51.6613
3952	48.7941
3953	47.7768
3954	48.4924
3955	51.3667
3956	49.5124
3957	50.4446
3958	53.0071
3959	56.6865
3960	61.0549
3961	63.8455
3962	58.7151
3963	54.7278
3964	51.5625
3965	49.7838
3966	49.8947
3967	49.3529
3968	47.8755
3969	48.0091
3970	49.9687
3971	53.783
3972	60.401
3973	60.83
3974	59.0762
3975	56.4244
3976	53.6057
3977	51.5284
3978	51.1346
3979	48.8599
3980	46.8254
3981	45.7873
3982	46.4429
3983	49.2839
3984	54.6337
3985	57.3305
3986	57.839
3987	56.665
3988	54.5397
3989	52.3597
3990	51.5031
3991	49.5519
3992	46.8945
3993	44.485
3994	43.1451
3995	42.2456
3996	49.6169
3997	53.6024
3998	55.5801
3999	55.6974
4000	54.2886
4001	52.6314
4002	53.0384
4003	51.3649
4004	48.3594
4005	44.6868
4006	40.6884
4007	41.3266
4008	46.4108
4009	50.3326
4010	53.0115
4011	54.0353
4012	53.0049
4013	54.1794
4014	54.9503
4015	53.949
4016	51.166
4017	46.7376
4018	37.3607
4019	42.312
4020	44.9968
4021	48.093
4022	50.825
4023	52.3424
4024	52.7349
4025	55.0029
4026	56.5514
4027	56.7026
4028	54.9338
4029	50.7832
4030	45.9325
4031	44.6511
4032	45.2587
4033	47.1744
4034	49.5457
4035	51.3832
4036	52.4611
4037	54.7505
4038	57.2066
4039	58.893
4040	59.0765
4041	56.9838
4042	50.8269
4043	47.7907
4044	46.7962
4045	47.5272
4046	49.4538
4047	50.444
4048	51.0058
4049	53.2723
4050	56.464
4051	59.8167
4052	63.2738
4053	59.4937
4054	54.5403
4055	50.9807
4056	48.9911
4057	48.7894
4058	50.9105
4059	48.8799
4060	48.9106
4061	50.7405
4062	54.1645
4063	58.951
4064	63.3272
4065	59.5773
4066	56.2278
4067	52.983
4068	50.5963
4069	49.8272
4070	49.139
4071	47.1255
4072	46.2629
4073	47.0854
4074	49.9235
4075	55.492
4076	58.4887
4077	58.4488
4078	56.8659
4079	54.437
4080	52.087
4081	50.9414
4082	49.2054
4083	46.8437
4084	44.854
4085	44.1047
4086	45.2133
4087	49.6841
4088	54.1334
4089	56.0938
4090	56.0969
4091	54.6453
4092	52.4276
4093	51.8261
4094	50.4713
4095	47.8204
