00:00:00.000000 00:00:00.000000 arm_2, Device Temperature 71 C
00:00:00.500170 00:00:00.500170 arm_2, Device Temperature 71 C
00:00:01.000341 00:00:00.500171 arm_2, Device Temperature 71 C
00:00:01.500512 00:00:00.500171 arm_2, Device Temperature 71 C
00:00:02.000683 00:00:00.500171 arm_2, Device Temperature 71 C
00:00:02.500853 00:00:00.500170 arm_2, Device Temperature 71 C
00:00:03.001024 00:00:00.500171 arm_2, Device Temperature 71 C
00:00:03.501195 00:00:00.500171 arm_2, Device Temperature 71 C
00:00:04.001366 00:00:00.500171 arm_1, Device Temperature 71 C
00:00:04.501536 00:00:00.500170 arm_1, Device Temperature 71 C
00:00:05.001707 00:00:00.500171 arm_1, Device Temperature 71 C
00:00:05.511315 00:00:00.509608 arm_1, Device Temperature 71 C
00:00:06.008340 00:00:00.497025 arm_0, Device Temperature 71 C
00:00:06.107430 00:00:00.099090 arm_0, Internal Data Total 4608 KB, 100.0% Free, 0.0% Used
00:00:06.107437 00:00:00.000007 arm_0, External Data Total 6291456 KB, 100.0% Free, 0.0% Used
00:00:06.107444 00:00:00.000007 arm_0, External Code/Data Total 376832 KB, 100.0% Free, 0.0% Used
00:00:06.510097 00:00:00.402653 arm_1, Device Temperature 71 C
00:00:07.010268 00:00:00.500171 arm_1, Device Temperature 71 C
00:00:07.510439 00:00:00.500171 arm_1, Device Temperature 71 C
00:00:08.010609 00:00:00.500170 arm_2, Device Temperature 71 C
00:00:08.510780 00:00:00.500171 arm_2, Device Temperature 71 C
00:00:09.010951 00:00:00.500171 arm_2, Device Temperature 71 C
00:00:09.511122 00:00:00.500171 arm_2, Device Temperature 71 C
00:00:10.011299 00:00:00.500177 arm_2, Device Temperature 71 C
00:00:10.511470 00:00:00.500171 arm_2, Device Temperature 71 C
00:00:11.011641 00:00:00.500171 arm_2, Device Temperature 71 C
00:00:11.511811 00:00:00.500170 arm_3, Device Temperature 71 C
00:00:12.011982 00:00:00.500171 arm_3, Device Temperature 71 C
00:00:12.512153 00:00:00.500171 arm_3, Device Temperature 71 C
00:00:13.012324 00:00:00.500171 arm_3, Device Temperature 71 C
00:00:13.512494 00:00:00.500170 arm_3, Device Temperature 71 C
00:00:14.012665 00:00:00.500171 arm_3, Device Temperature 71 C
00:00:14.512836 00:00:00.500171 arm_3, Device Temperature 71 C
00:00:15.013007 00:00:00.500171 arm_0, Device Temperature 71 C
00:00:15.513177 00:00:00.500170 arm_0, Device Temperature 71 C
00:00:16.013348 00:00:00.500171 arm_0, Device Temperature 71 C
00:00:16.513519 00:00:00.500171 arm_0, Device Temperature 71 C
00:00:17.013690 00:00:00.500171 arm_0, Device Temperature 71 C
00:00:17.513860 00:00:00.500170 arm_0, Device Temperature 71 C
00:00:18.017177 00:00:00.503317 arm_0, Device Temperature 71 C
00:00:18.517348 00:00:00.500171 arm_1, Device Temperature 71 C
00:00:19.017518 00:00:00.500170 arm_1, Device Temperature 71 C
00:00:19.517689 00:00:00.500171 arm_1, Device Temperature 71 C
00:00:20.017860 00:00:00.500171 arm_1, Device Temperature 71 C
00:00:20.518031 00:00:00.500171 arm_1, Device Temperature 71 C
00:00:21.018202 00:00:00.500171 arm_1, Device Temperature 71 C
00:00:21.518372 00:00:00.500170 arm_1, Device Temperature 71 C
00:00:22.018543 00:00:00.500171 arm_1, Device Temperature 71 C
00:00:22.518714 00:00:00.500171 arm_1, Device Temperature 71 C
00:00:23.018885 00:00:00.500171 arm_1, Device Temperature 71 C
00:00:23.519055 00:00:00.500170 arm_1, Device Temperature 71 C
00:00:24.019226 00:00:00.500171 arm_1, Device Temperature 71 C
00:00:24.519397 00:00:00.500171 arm_1, Device Temperature 71 C
00:00:25.019568 00:00:00.500171 arm_1, Device Temperature 71 C
00:00:25.519738 00:00:00.500170 arm_1, Device Temperature 71 C
00:00:26.019909 00:00:00.500171 arm_1, Device Temperature 71 C
00:00:26.520080 00:00:00.500171 arm_1, Device Temperature 71 C
00:00:27.020251 00:00:00.500171 arm_1, Device Temperature 71 C
00:00:27.520421 00:00:00.500170 arm_1, Device Temperature 71 C
00:00:28.020592 00:00:00.500171 arm_1, Device Temperature 71 C
00:00:28.520763 00:00:00.500171 arm_1, Device Temperature 71 C
00:00:28.643446 00:00:00.122683 arm_0, External Code/Data Total 376832 KB, 98.9% Free, 1.1% Used
00:00:28.643824 00:00:00.000378 arm_0, External Code/Data Total 376832 KB, 98.9% Free, 1.1% Used
00:00:28.648985 00:00:00.005161 dsp_1, OpenCL NDR Cache Coherence Complete, Kernel id -2, Work Group id 0
00:00:28.648985 00:00:00.000000 dsp_2, OpenCL NDR Cache Coherence Complete, Kernel id -2, Work Group id 0
00:00:28.648985 00:00:00.000000 dsp_0, OpenCL NDR Cache Coherence Complete, Kernel id -2, Work Group id 0
00:00:28.648985 00:00:00.000000 dsp_5, OpenCL NDR Cache Coherence Complete, Kernel id -2, Work Group id 0
00:00:28.648985 00:00:00.000000 dsp_3, OpenCL NDR Cache Coherence Complete, Kernel id -2, Work Group id 0
00:00:28.648985 00:00:00.000000 dsp_4, OpenCL NDR Cache Coherence Complete, Kernel id -2, Work Group id 0
00:00:28.648985 00:00:00.000000 dsp_7, OpenCL NDR Cache Coherence Complete, Kernel id -2, Work Group id 0
00:00:28.648985 00:00:00.000000 dsp_6, OpenCL NDR Cache Coherence Complete, Kernel id -2, Work Group id 0
00:00:28.649135 00:00:00.000150 arm_1, External Code/Data Total 376832 KB, 97.1% Free, 2.9% Used
00:00:28.649139 00:00:00.000004 arm_1, External Code/Data Total 376832 KB, 96.0% Free, 4.0% Used
00:00:28.658330 00:00:00.009191 arm_1, External Code/Data Total 376832 KB, 94.9% Free, 5.1% Used
00:00:28.667227 00:00:00.008897 arm_1, Internal Data Total 4608 KB, 99.9% Free, 0.1% Used
00:00:28.667249 00:00:00.000022 dsp_0, OpenCL NDR Overhead, Kernel id 0, Work Group id 0
00:00:28.667275 00:00:00.000026 dsp_4, OpenCL NDR Kernel Start, Kernel id 0, Work Group id 0
00:00:28.667280 00:00:00.000005 dsp_7, OpenCL NDR Kernel Start, Kernel id 0, Work Group id 1
00:00:28.667284 00:00:00.000004 dsp_6, OpenCL NDR Kernel Start, Kernel id 0, Work Group id 2
00:00:28.667289 00:00:00.000005 dsp_3, OpenCL NDR Kernel Start, Kernel id 0, Work Group id 3
00:00:28.667294 00:00:00.000005 dsp_1, OpenCL NDR Kernel Start, Kernel id 0, Work Group id 4
00:00:28.667298 00:00:00.000004 dsp_5, OpenCL NDR Kernel Start, Kernel id 0, Work Group id 5
00:00:28.667303 00:00:00.000005 dsp_2, OpenCL NDR Kernel Start, Kernel id 0, Work Group id 6
00:00:28.667674 00:00:00.000371 dsp_0, OpenCL NDR Kernel Start, Kernel id 0, Work Group id 7
00:00:28.775415 00:00:00.107741 dsp_4, OpenCL NDR Kernel Complete, Kernel id 0, Work Group id 0
00:00:28.775425 00:00:00.000010 dsp_4, OpenCL NDR Kernel Start, Kernel id 0, Work Group id 8
00:00:28.793710 00:00:00.018285 dsp_0, OpenCL NDR Kernel Complete, Kernel id 0, Work Group id 7
00:00:28.793714 00:00:00.000004 dsp_0, OpenCL NDR Kernel Start, Kernel id 0, Work Group id 9
00:00:28.793808 00:00:00.000094 dsp_3, OpenCL NDR Kernel Complete, Kernel id 0, Work Group id 3
00:00:28.793812 00:00:00.000004 dsp_3, OpenCL NDR Kernel Start, Kernel id 0, Work Group id 10
00:00:28.793840 00:00:00.000028 dsp_6, OpenCL NDR Kernel Complete, Kernel id 0, Work Group id 2
00:00:28.793844 00:00:00.000004 dsp_6, OpenCL NDR Kernel Start, Kernel id 0, Work Group id 11
00:00:28.793867 00:00:00.000023 dsp_1, OpenCL NDR Kernel Complete, Kernel id 0, Work Group id 4
00:00:28.793870 00:00:00.000003 dsp_1, OpenCL NDR Kernel Start, Kernel id 0, Work Group id 12
00:00:28.793874 00:00:00.000004 dsp_2, OpenCL NDR Kernel Complete, Kernel id 0, Work Group id 6
00:00:28.793878 00:00:00.000004 dsp_2, OpenCL NDR Kernel Start, Kernel id 0, Work Group id 13
00:00:28.793899 00:00:00.000021 dsp_7, OpenCL NDR Kernel Complete, Kernel id 0, Work Group id 1
00:00:28.793903 00:00:00.000004 dsp_7, OpenCL NDR Kernel Start, Kernel id 0, Work Group id 14
00:00:28.793904 00:00:00.000001 dsp_5, OpenCL NDR Kernel Complete, Kernel id 0, Work Group id 5
00:00:28.793907 00:00:00.000003 dsp_5, OpenCL NDR Kernel Start, Kernel id 0, Work Group id 15
00:00:28.822415 00:00:00.028508 dsp_4, OpenCL NDR Kernel Complete, Kernel id 0, Work Group id 8
00:00:28.822447 00:00:00.000032 dsp_4, OpenCL NDR Kernel Start, Kernel id 0, Work Group id 16
00:00:28.897945 00:00:00.075498 dsp_0, OpenCL NDR Kernel Complete, Kernel id 0, Work Group id 9
00:00:28.897949 00:00:00.000004 dsp_0, OpenCL NDR Kernel Start, Kernel id 0, Work Group id 17
00:00:28.917609 00:00:00.019660 dsp_3, OpenCL NDR Kernel Complete, Kernel id 0, Work Group id 10
00:00:28.917614 00:00:00.000005 dsp_3, OpenCL NDR Kernel Start, Kernel id 0, Work Group id 18
00:00:28.918683 00:00:00.001069 dsp_2, OpenCL NDR Kernel Complete, Kernel id 0, Work Group id 13
00:00:28.918698 00:00:00.000015 dsp_2, OpenCL NDR Kernel Start, Kernel id 0, Work Group id 19
00:00:28.918803 00:00:00.000105 dsp_6, OpenCL NDR Kernel Complete, Kernel id 0, Work Group id 11
00:00:28.918803 00:00:00.000000 dsp_1, OpenCL NDR Kernel Complete, Kernel id 0, Work Group id 12
00:00:28.918818 00:00:00.000015 dsp_6, OpenCL NDR Kernel Start, Kernel id 0, Work Group id 20
00:00:28.918819 00:00:00.000001 dsp_1, OpenCL NDR Kernel Start, Kernel id 0, Work Group id 21
00:00:28.918849 00:00:00.000030 dsp_5, OpenCL NDR Kernel Complete, Kernel id 0, Work Group id 15
00:00:28.918863 00:00:00.000014 dsp_5, OpenCL NDR Kernel Start, Kernel id 0, Work Group id 22
00:00:28.918911 00:00:00.000048 dsp_7, OpenCL NDR Kernel Complete, Kernel id 0, Work Group id 14
00:00:28.918925 00:00:00.000014 dsp_7, OpenCL NDR Kernel Start, Kernel id 0, Work Group id 23
00:00:28.918964 00:00:00.000039 dsp_4, OpenCL NDR Kernel Complete, Kernel id 0, Work Group id 16
00:00:28.918975 00:00:00.000011 dsp_4, OpenCL NDR Kernel Start, Kernel id 0, Work Group id 24
00:00:28.935097 00:00:00.016122 dsp_0, OpenCL NDR Kernel Complete, Kernel id 0, Work Group id 17
00:00:28.935115 00:00:00.000018 dsp_0, OpenCL NDR Kernel Start, Kernel id 0, Work Group id 25
00:00:29.014545 00:00:00.079430 dsp_3, OpenCL NDR Kernel Complete, Kernel id 0, Work Group id 18
00:00:29.014549 00:00:00.000004 dsp_3, OpenCL NDR Kernel Start, Kernel id 0, Work Group id 26
00:00:29.023052 00:00:00.008503 arm_2, Device Temperature 72 C
00:00:29.034406 00:00:00.011354 dsp_2, OpenCL NDR Kernel Complete, Kernel id 0, Work Group id 19
00:00:29.034409 00:00:00.000003 dsp_2, OpenCL NDR Kernel Start, Kernel id 0, Work Group id 27
00:00:29.041290 00:00:00.006881 dsp_1, OpenCL NDR Kernel Complete, Kernel id 0, Work Group id 21
00:00:29.041303 00:00:00.000013 dsp_1, OpenCL NDR Kernel Start, Kernel id 0, Work Group id 28
00:00:29.041375 00:00:00.000072 dsp_0, OpenCL NDR Kernel Complete, Kernel id 0, Work Group id 25
00:00:29.041388 00:00:00.000013 dsp_0, OpenCL NDR Kernel Start, Kernel id 0, Work Group id 29
00:00:29.042310 00:00:00.000922 dsp_5, OpenCL NDR Kernel Complete, Kernel id 0, Work Group id 22
00:00:29.042323 00:00:00.000013 dsp_5, OpenCL NDR Kernel Start, Kernel id 0, Work Group id 30
00:00:29.042386 00:00:00.000063 dsp_6, OpenCL NDR Kernel Complete, Kernel id 0, Work Group id 20
00:00:29.042400 00:00:00.000014 dsp_6, OpenCL NDR Kernel Start, Kernel id 0, Work Group id 31
00:00:29.042480 00:00:00.000080 dsp_7, OpenCL NDR Kernel Complete, Kernel id 0, Work Group id 23
00:00:29.042492 00:00:00.000012 dsp_7, OpenCL NDR Kernel Start, Kernel id 0, Work Group id 32
00:00:29.042499 00:00:00.000007 dsp_4, OpenCL NDR Kernel Complete, Kernel id 0, Work Group id 24
00:00:29.042514 00:00:00.000015 dsp_4, OpenCL NDR Kernel Start, Kernel id 0, Work Group id 33
00:00:29.048412 00:00:00.005898 dsp_3, OpenCL NDR Kernel Complete, Kernel id 0, Work Group id 26
00:00:29.048438 00:00:00.000026 dsp_3, OpenCL NDR Kernel Start, Kernel id 0, Work Group id 34
00:00:29.124722 00:00:00.076284 dsp_2, OpenCL NDR Kernel Complete, Kernel id 0, Work Group id 27
00:00:29.124725 00:00:00.000003 dsp_2, OpenCL NDR Kernel Start, Kernel id 0, Work Group id 35
00:00:29.145959 00:00:00.021234 dsp_1, OpenCL NDR Kernel Complete, Kernel id 0, Work Group id 28
00:00:29.145962 00:00:00.000003 dsp_1, OpenCL NDR Kernel Start, Kernel id 0, Work Group id 36
00:00:29.146356 00:00:00.000394 dsp_0, OpenCL NDR Kernel Complete, Kernel id 0, Work Group id 29
00:00:29.146366 00:00:00.000010 dsp_0, OpenCL NDR Kernel Start, Kernel id 0, Work Group id 37
00:00:29.151576 00:00:00.005210 dsp_2, OpenCL NDR Kernel Complete, Kernel id 0, Work Group id 35
00:00:29.151589 00:00:00.000013 dsp_2, OpenCL NDR Kernel Start, Kernel id 0, Work Group id 38
00:00:29.155816 00:00:00.004227 dsp_5, OpenCL NDR Kernel Complete, Kernel id 0, Work Group id 30
00:00:29.155829 00:00:00.000013 dsp_5, OpenCL NDR Kernel Start, Kernel id 0, Work Group id 39
00:00:29.156140 00:00:00.000311 dsp_6, OpenCL NDR Kernel Complete, Kernel id 0, Work Group id 31
00:00:29.156154 00:00:00.000014 dsp_6, OpenCL NDR Kernel Start, Kernel id 0, Work Group id 40
00:00:29.156210 00:00:00.000056 dsp_7, OpenCL NDR Kernel Complete, Kernel id 0, Work Group id 32
00:00:29.156221 00:00:00.000011 dsp_4, OpenCL NDR Kernel Complete, Kernel id 0, Work Group id 33
00:00:29.156222 00:00:00.000001 dsp_7, OpenCL NDR Kernel Start, Kernel id 0, Work Group id 41
00:00:29.156233 00:00:00.000011 dsp_4, OpenCL NDR Kernel Start, Kernel id 0, Work Group id 42
00:00:29.156346 00:00:00.000113 dsp_3, OpenCL NDR Kernel Complete, Kernel id 0, Work Group id 34
00:00:29.156359 00:00:00.000013 dsp_3, OpenCL NDR Kernel Start, Kernel id 0, Work Group id 43
00:00:29.234216 00:00:00.077857 dsp_1, OpenCL NDR Kernel Complete, Kernel id 0, Work Group id 36
00:00:29.234219 00:00:00.000003 dsp_1, OpenCL NDR Kernel Start, Kernel id 0, Work Group id 44
00:00:29.236468 00:00:00.002249 dsp_0, OpenCL NDR Kernel Complete, Kernel id 0, Work Group id 37
00:00:29.236480 00:00:00.000012 dsp_0, OpenCL NDR Kernel Start, Kernel id 0, Work Group id 45
00:00:29.243017 00:00:00.006537 dsp_2, OpenCL NDR Kernel Complete, Kernel id 0, Work Group id 38
00:00:29.243029 00:00:00.000012 dsp_2, OpenCL NDR Kernel Start, Kernel id 0, Work Group id 46
00:00:29.264459 00:00:00.021430 dsp_5, OpenCL NDR Kernel Complete, Kernel id 0, Work Group id 39
00:00:29.264463 00:00:00.000004 dsp_5, OpenCL NDR Kernel Start, Kernel id 0, Work Group id 47
00:00:29.266048 00:00:00.001585 dsp_6, OpenCL NDR Kernel Complete, Kernel id 0, Work Group id 40
00:00:29.266064 00:00:00.000016 dsp_6, OpenCL NDR Kernel Start, Kernel id 0, Work Group id 48
00:00:29.266208 00:00:00.000144 dsp_7, OpenCL NDR Kernel Complete, Kernel id 0, Work Group id 41
00:00:29.266222 00:00:00.000014 dsp_7, OpenCL NDR Kernel Start, Kernel id 0, Work Group id 49
00:00:29.266251 00:00:00.000029 dsp_4, OpenCL NDR Kernel Complete, Kernel id 0, Work Group id 42
00:00:29.266265 00:00:00.000014 dsp_4, OpenCL NDR Kernel Start, Kernel id 0, Work Group id 50
00:00:29.266269 00:00:00.000004 dsp_3, OpenCL NDR Kernel Complete, Kernel id 0, Work Group id 43
00:00:29.266282 00:00:00.000013 dsp_3, OpenCL NDR Kernel Start, Kernel id 0, Work Group id 51
00:00:29.282993 00:00:00.016711 dsp_1, OpenCL NDR Kernel Complete, Kernel id 0, Work Group id 44
00:00:29.283013 00:00:00.000020 dsp_1, OpenCL NDR Kernel Start, Kernel id 0, Work Group id 52
00:00:29.335704 00:00:00.052691 dsp_0, OpenCL NDR Kernel Complete, Kernel id 0, Work Group id 45
00:00:29.335707 00:00:00.000003 dsp_0, OpenCL NDR Kernel Start, Kernel id 0, Work Group id 53
00:00:29.342441 00:00:00.006734 dsp_2, OpenCL NDR Kernel Complete, Kernel id 0, Work Group id 46
00:00:29.342458 00:00:00.000017 dsp_2, OpenCL NDR Kernel Start, Kernel id 0, Work Group id 54
00:00:29.365068 00:00:00.022610 dsp_5, OpenCL NDR Kernel Complete, Kernel id 0, Work Group id 47
00:00:29.365071 00:00:00.000003 dsp_5, OpenCL NDR Kernel Start, Kernel id 0, Work Group id 55
00:00:29.370134 00:00:00.005063 dsp_0, OpenCL NDR Kernel Complete, Kernel id 0, Work Group id 53
00:00:29.370146 00:00:00.000012 dsp_0, OpenCL NDR Kernel Start, Kernel id 0, Work Group id 56
00:00:29.380468 00:00:00.010322 dsp_6, OpenCL NDR Kernel Complete, Kernel id 0, Work Group id 48
00:00:29.380481 00:00:00.000013 dsp_6, OpenCL NDR Kernel Start, Kernel id 0, Work Group id 57
00:00:29.381746 00:00:00.001265 dsp_7, OpenCL NDR Kernel Complete, Kernel id 0, Work Group id 49
00:00:29.381764 00:00:00.000018 dsp_7, OpenCL NDR Kernel Start, Kernel id 0, Work Group id 58
00:00:29.381820 00:00:00.000056 dsp_4, OpenCL NDR Kernel Complete, Kernel id 0, Work Group id 50
00:00:29.381835 00:00:00.000015 dsp_4, OpenCL NDR Kernel Start, Kernel id 0, Work Group id 59
00:00:29.381844 00:00:00.000009 dsp_3, OpenCL NDR Kernel Complete, Kernel id 0, Work Group id 51
00:00:29.381857 00:00:00.000013 dsp_3, OpenCL NDR Kernel Start, Kernel id 0, Work Group id 60
00:00:29.382766 00:00:00.000909 dsp_1, OpenCL NDR Kernel Complete, Kernel id 0, Work Group id 52
00:00:29.382786 00:00:00.000020 dsp_1, OpenCL NDR Kernel Start, Kernel id 0, Work Group id 61
00:00:29.440195 00:00:00.057409 dsp_2, OpenCL NDR Kernel Complete, Kernel id 0, Work Group id 54
00:00:29.440199 00:00:00.000004 dsp_2, OpenCL NDR Kernel Start, Kernel id 0, Work Group id 62
00:00:29.462416 00:00:00.022217 dsp_5, OpenCL NDR Kernel Complete, Kernel id 0, Work Group id 55
00:00:29.462420 00:00:00.000004 dsp_5, OpenCL NDR Kernel Start, Kernel id 0, Work Group id 63
00:00:29.466500 00:00:00.004080 dsp_2, OpenCL NDR Kernel Complete, Kernel id 0, Work Group id 62
00:00:29.466514 00:00:00.000014 dsp_2, OpenCL NDR Kernel Start, Kernel id 0, Work Group id 64
00:00:29.473346 00:00:00.006832 dsp_0, OpenCL NDR Kernel Complete, Kernel id 0, Work Group id 56
00:00:29.473357 00:00:00.000011 dsp_0, OpenCL NDR Kernel Start, Kernel id 0, Work Group id 65
00:00:29.495770 00:00:00.022413 dsp_6, OpenCL NDR Kernel Complete, Kernel id 0, Work Group id 57
00:00:29.495773 00:00:00.000003 dsp_6, OpenCL NDR Kernel Start, Kernel id 0, Work Group id 66
00:00:29.503736 00:00:00.007963 dsp_4, OpenCL NDR Kernel Complete, Kernel id 0, Work Group id 59
00:00:29.503751 00:00:00.000015 dsp_4, OpenCL NDR Kernel Start, Kernel id 0, Work Group id 67
00:00:29.503824 00:00:00.000073 dsp_7, OpenCL NDR Kernel Complete, Kernel id 0, Work Group id 58
00:00:29.503840 00:00:00.000016 dsp_7, OpenCL NDR Kernel Start, Kernel id 0, Work Group id 68
00:00:29.503879 00:00:00.000039 dsp_1, OpenCL NDR Kernel Complete, Kernel id 0, Work Group id 61
00:00:29.503892 00:00:00.000013 dsp_1, OpenCL NDR Kernel Start, Kernel id 0, Work Group id 69
00:00:29.503925 00:00:00.000033 dsp_3, OpenCL NDR Kernel Complete, Kernel id 0, Work Group id 60
00:00:29.503941 00:00:00.000016 dsp_3, OpenCL NDR Kernel Start, Kernel id 0, Work Group id 70
00:00:29.524389 00:00:00.020448 arm_2, Device Temperature 72 C
00:00:29.566660 00:00:00.042271 dsp_5, OpenCL NDR Kernel Complete, Kernel id 0, Work Group id 63
00:00:29.566664 00:00:00.000004 dsp_5, OpenCL NDR Kernel Start, Kernel id 0, Work Group id 71
00:00:29.568458 00:00:00.001794 dsp_2, OpenCL NDR Kernel Complete, Kernel id 0, Work Group id 64
00:00:29.568474 00:00:00.000016 dsp_2, OpenCL NDR Kernel Start, Kernel id 0, Work Group id 72
00:00:29.569156 00:00:00.000682 dsp_0, OpenCL NDR Kernel Complete, Kernel id 0, Work Group id 65
00:00:29.569168 00:00:00.000012 dsp_0, OpenCL NDR Kernel Start, Kernel id 0, Work Group id 73
00:00:29.591778 00:00:00.022610 dsp_6, OpenCL NDR Kernel Complete, Kernel id 0, Work Group id 66
00:00:29.591792 00:00:00.000014 dsp_6, OpenCL NDR Kernel Start, Kernel id 0, Work Group id 74
00:00:29.612239 00:00:00.020447 dsp_5, OpenCL NDR Kernel Complete, Kernel id 0, Work Group id 71
00:00:29.612243 00:00:00.000004 dsp_5, OpenCL NDR Kernel Start, Kernel id 0, Work Group id 75
00:00:29.620943 00:00:00.008700 dsp_4, OpenCL NDR Kernel Complete, Kernel id 0, Work Group id 67
00:00:29.620958 00:00:00.000015 dsp_4, OpenCL NDR Kernel Start, Kernel id 0, Work Group id 76
00:00:29.622604 00:00:00.001646 dsp_1, OpenCL NDR Kernel Complete, Kernel id 0, Work Group id 69
00:00:29.622616 00:00:00.000012 dsp_1, OpenCL NDR Kernel Start, Kernel id 0, Work Group id 77
00:00:29.622660 00:00:00.000044 dsp_3, OpenCL NDR Kernel Complete, Kernel id 0, Work Group id 70
00:00:29.622673 00:00:00.000013 dsp_3, OpenCL NDR Kernel Start, Kernel id 0, Work Group id 78
00:00:29.622680 00:00:00.000007 dsp_7, OpenCL NDR Kernel Complete, Kernel id 0, Work Group id 68
00:00:29.622693 00:00:00.000013 dsp_7, OpenCL NDR Kernel Start, Kernel id 0, Work Group id 79
00:00:29.624438 00:00:00.001745 dsp_2, OpenCL NDR Kernel Complete, Kernel id 0, Work Group id 72
00:00:29.624456 00:00:00.000018 dsp_2, OpenCL NDR Kernel Start, Kernel id 0, Work Group id 80
00:00:29.624527 00:00:00.000071 dsp_0, OpenCL NDR Kernel Complete, Kernel id 0, Work Group id 73
00:00:29.637061 00:00:00.012534 dsp_6, OpenCL NDR Kernel Complete, Kernel id 0, Work Group id 74
00:00:29.666159 00:00:00.029098 dsp_2, OpenCL NDR Kernel Complete, Kernel id 0, Work Group id 80
00:00:29.667572 00:00:00.001413 dsp_5, OpenCL NDR Kernel Complete, Kernel id 0, Work Group id 75
00:00:29.672340 00:00:00.004768 dsp_4, OpenCL NDR Kernel Complete, Kernel id 0, Work Group id 76
00:00:29.672982 00:00:00.000642 dsp_1, OpenCL NDR Kernel Complete, Kernel id 0, Work Group id 77
00:00:29.672982 00:00:00.000000 dsp_3, OpenCL NDR Kernel Complete, Kernel id 0, Work Group id 78
00:00:29.673001 00:00:00.000019 dsp_7, OpenCL NDR Kernel Complete, Kernel id 0, Work Group id 79
00:00:29.673017 00:00:00.000016 dsp_6, OpenCL NDR Cache Coherence Complete, Kernel id 0, Work Group id 0
00:00:29.673017 00:00:00.000000 dsp_1, OpenCL NDR Cache Coherence Complete, Kernel id 0, Work Group id 0
00:00:29.673017 00:00:00.000000 dsp_5, OpenCL NDR Cache Coherence Complete, Kernel id 0, Work Group id 0
00:00:29.673017 00:00:00.000000 dsp_3, OpenCL NDR Cache Coherence Complete, Kernel id 0, Work Group id 0
00:00:29.673017 00:00:00.000000 dsp_2, OpenCL NDR Cache Coherence Complete, Kernel id 0, Work Group id 0
00:00:29.673017 00:00:00.000000 dsp_4, OpenCL NDR Cache Coherence Complete, Kernel id 0, Work Group id 0
00:00:29.673018 00:00:00.000001 dsp_0, OpenCL NDR Cache Coherence Complete, Kernel id 0, Work Group id 0
00:00:29.673018 00:00:00.000000 dsp_7, OpenCL NDR Cache Coherence Complete, Kernel id 0, Work Group id 0
00:00:29.673021 00:00:00.000003 arm_1, External Code/Data Total 376832 KB, 96.7% Free, 3.3% Used
00:00:29.673023 00:00:00.000002 arm_1, Internal Data Total 4608 KB, 100.0% Free, 0.0% Used
00:00:29.673025 00:00:00.000002 arm_1, External Code/Data Total 376832 KB, 97.8% Free, 2.2% Used
00:00:29.679219 00:00:00.006194 arm_1, External Code/Data Total 376832 KB, 98.9% Free, 1.1% Used
00:00:30.025249 00:00:00.346030 arm_2, Device Temperature 72 C
00:00:30.525419 00:00:00.500170 arm_2, Device Temperature 72 C
00:00:31.025590 00:00:00.500171 arm_2, Device Temperature 72 C
00:00:31.525761 00:00:00.500171 arm_2, Device Temperature 72 C
