32
0 6
6 9
15 4
19 4
23 4
27 7
34 12
46 6
52 8
60 6
66 2
68 6
74 7
81 4
85 3
88 7
95 2
97 10
107 9
116 6
122 9
131 5
136 10
146 5
151 6
157 6
163 6
169 7
176 7
183 4
187 6
193 7

1

200
17 9
20 9
19 6
22 10
18 2
19 9
8 4
8 1
9 9
13 4
20 6
23 4
26 4
29 6
29 2
19 8
18 8
16 5
17 5
6 6
12 4
12 3
26 9
27 7
27 8
11 5
21 7
6 2
18 8
15 1
6 6
14 10
16 2
17 5
3 6
5 2
5 6
19 3
23 2
6 10
6 10
20 4
8 3
15 7
30 9
31 2
18 2
7 2
7 2
30 2
11 10
28 2
1 4
1 1
6 3
18 10
17 3
12 6
18 3
19 3
1 9
22 1
17 8
25 2
27 3
30 6
25 8
27 6
4 5
31 6
26 9
7 10
23 2
23 9
3 4
17 6
8 6
13 1
3 3
22 4
31 9
1 4
12 1
28 9
30 7
5 10
20 6
30 6
5 1
22 2
6 7
24 8
17 3
18 9
19 8
5 2
2 5
0 9
8 3
9 8
12 6
15 3
22 5
5 5
2 5
28 1
23 3
2 8
5 8
7 2
8 10
0 2
8 3
15 9
25 10
24 5
0 6
2 8
6 3
8 3
15 8
0 9
0 9
6 4
14 6
25 8
31 1
26 9
1 6
24 1
31 10
21 10
21 10
4 7
27 6
29 4
0 10
9 1
15 2
17 5
12 4
26 9
31 2
27 1
28 10
31 2
6 2
11 2
17 3
11 9
1 4
15 8
18 5
20 1
26 5
30 1
25 9
10 8
18 10
20 8
24 9
9 2
28 8
11 9
20 9
22 9
24 5
3 9
1 4
4 7
4 8
10 6
9 3
22 1
21 6
28 8
13 9
17 1
22 10
25 8
7 2
27 8
29 1
28 1
1 6
1 2
21 4
7 2
13 7
24 1
9 6
14 6
6 9
11 6
20 1
22 2
6 2
12 9
20 10
22 2
