0) cost:0
1) cost:4
2) cost:4
3) cost:4
4) cost:4
5) cost:4
6) cost:3
7) cost:2
8) cost:3
9) cost:4
10) cost:3
11) cost:3
12) cost:3
13) cost:1
14) cost:4
15) cost:4
16) cost:4
17) cost:5
18) cost:3
19) cost:4
20) cost:3
21) cost:4
22) cost:3
23) cost:3
24) cost:3
25) cost:2
26) cost:3
27) cost:4
28) cost:3
29) cost:3
30) cost:4
31) cost:4
32) cost:3
33) cost:3
34) cost:4
35) cost:4
36) cost:4
37) cost:5
38) cost:3
39) cost:3
40) cost:2
41) cost:4
42) cost:4
43) cost:4
44) cost:4
45) cost:4
46) cost:4
47) cost:4
48) cost:4
49) cost:2
50) cost:3
51) cost:1
52) cost:3
53) cost:3
54) cost:2
55) cost:2
56) cost:3
57) cost:4
58) cost:3
59) cost:4
60) cost:4
61) cost:4
62) cost:2
63) cost:3
64) cost:2
65) cost:4
66) cost:4
67) cost:4
68) cost:3
69) cost:3
70) cost:4
71) cost:3
72) cost:4
73) cost:4
74) cost:4
75) cost:3
76) cost:3
77) cost:3
78) cost:3
79) cost:3
80) cost:4
81) cost:3
82) cost:3
83) cost:4
84) cost:4
85) cost:4
86) cost:3
87) cost:2
88) cost:4
89) cost:4
90) cost:4
91) cost:3
92) cost:4
93) cost:4
94) cost:4
95) cost:4
96) cost:3
97) cost:4
98) cost:4
99) cost:4
100) cost:3
101) cost:4
102) cost:4
103) cost:4
104) cost:3
105) cost:4
106) cost:4
107) cost:4
108) cost:4
109) cost:3
110) cost:4
111) cost:3
112) cost:3
113) cost:4
114) cost:4
115) cost:4
116) cost:4
117) cost:3
118) cost:4
119) cost:5
120) cost:3
121) cost:3
122) cost:3
123) cost:4
124) cost:4
125) cost:3
126) cost:3
127) cost:3
128) cost:4
129) cost:4
130) cost:4
131) cost:4
132) cost:3
133) cost:4
134) cost:4
135) cost:2
136) cost:4
137) cost:3
138) cost:4
139) cost:4
140) cost:1
141) cost:3
142) cost:3
143) cost:4
144) cost:5
145) cost:3
146) cost:3
147) cost:4
148) cost:4
149) cost:3
150) cost:3
151) cost:3
152) cost:2
153) cost:3
154) cost:3
155) cost:4
156) cost:4
157) cost:3
158) cost:4
159) cost:4
160) cost:4
161) cost:4
162) cost:2
163) cost:2
164) cost:3
165) cost:2
166) cost:4
167) cost:3
168) cost:2
169) cost:3
170) cost:3
171) cost:4
172) cost:3
173) cost:4
174) cost:4
175) cost:3
176) cost:3
177) cost:1
178) cost:3
179) cost:3
180) cost:4
181) cost:3
182) cost:4
183) cost:2
184) cost:3
185) cost:4
186) cost:4
187) cost:2
188) cost:1
189) cost:3
190) cost:4
191) cost:3
192) cost:4
193) cost:3
194) cost:5
195) cost:3
196) cost:4
197) cost:4
198) cost:3
199) cost:3
200) cost:4
201) cost:4
202) cost:2
203) cost:4
204) cost:3
205) cost:3
206) cost:4
207) cost:2
208) cost:2
209) cost:2
210) cost:2
211) cost:3
212) cost:4
213) cost:3
214) cost:4
215) cost:4
216) cost:3
217) cost:4
218) cost:3
219) cost:3
220) cost:3
221) cost:4
222) cost:2
223) cost:4
224) cost:3
225) cost:3
226) cost:4
227) cost:4
228) cost:4
229) cost:3
230) cost:3
231) cost:4
232) cost:4
233) cost:4
234) cost:4
235) cost:4
236) cost:3
237) cost:4
238) cost:4
239) cost:3
240) cost:3
241) cost:3
242) cost:4
243) cost:2
244) cost:4
245) cost:3
246) cost:3
247) cost:3
248) cost:3
249) cost:4
250) cost:4
251) cost:4
252) cost:2
253) cost:3
254) cost:4
255) cost:3
