0 53 13 43 122 212 212 252 155 141 2 237 177 7 186 73 55 73 55 181 200 172 0 92 202 30 254 59 117 161 245 215 214 2 3 
1 80 214 215 76 113 100 78 95 21 86 25 95 141 98 150 67 43 67 67 135 13 97 134 72 214 39 61 173 253 63 176 77 21 135 
2 154 135 236 232 230 1 62 255 96 204 98 247 15 141 58 82 20 71 179 154 143 137 193 204 54 190 11 231 12 32 110 166 167 90 
3 142 141 92 205 141 188 153 239 179 168 124 237 250 144 52 173 43 195 54 236 143 108 171 154 83 183 187 194 93 98 28 235 240 120 
4 184 125 53 81 108 232 249 232 214 243 120 10 160 163 206 214 144 93 67 59 248 150 242 179 88 79 21 117 58 5 237 243 130 34 
5 68 238 11 62 214 225 49 79 235 210 242 185 168 130 23 235 189 15 130 175 194 218 254 215 79 57 221 61 44 95 95 112 78 106 
6 174 36 75 224 115 55 178 102 240 90 232 7 70 166 22 200 85 216 162 84 176 242 141 141 47 185 236 142 41 58 249 216 95 68 
7 184 210 123 106 56 108 196 33 115 10 199 138 210 28 98 117 112 18 103 253 159 150 182 140 36 224 198 29 184 37 98 112 248 221 
8 218 48 73 158 81 189 169 24 71 123 53 169 240 165 188 87 163 91 237 89 231 18 57 174 47 241 211 145 97 203 111 59 252 184 
9 218 77 117 131 102 188 254 155 102 239 64 34 70 227 125 52 61 101 70 118 19 117 104 230 7 201 178 118 5 174 46 223 251 164 
10 98 97 96 96 252 198 79 61 232 150 32 102 202 93 203 16 212 222 133 60 196 140 5 118 2 10 36 49 233 32 213 75 129 53 
11 172 126 252 251 187 228 145 219 74 91 57 21 107 13 243 241 73 184 125 78 46 128 89 83 177 66 115 134 142 244 187 58 114 183 
12 53 45 156 199 9 230 34 66 252 142 79 239 127 152 167 252 230 214 124 63 41 45 130 156 179 16 144 111 74 3 38 127 48 194 
13 70 57 169 105 123 165 247 202 148 118 98 60 114 73 18 239 136 59 28 10 215 208 26 103 63 100 106 101 228 155 40 42 212 209 
14 147 80 118 138 26 10 0 125 70 115 198 88 98 78 147 126 89 106 78 115 210 141 216 60 243 188 215 27 230 172 236 122 252 98 
15 4 22 108 5 147 179 120 89 11 218 168 159 88 1 9 167 116 219 52 76 24 39 8 239 66 239 155 46 105 151 144 109 174 253 
16 114 65 176 234 155 187 196 67 90 29 68 100 196 184 63 248 5 87 32 13 71 98 252 226 145 101 122 33 211 40 30 69 105 206 
17 48 4 138 244 71 228 17 139 72 213 68 136 206 73 223 238 86 38 80 83 9 225 184 131 3 139 171 33 209 20 240 1 25 122 
18 245 96 94 7 236 167 220 48 47 170 121 14 152 207 53 233 34 62 202 219 193 205 102 108 239 55 128 223 56 153 89 46 250 183 
19 53 230 94 17 22 141 188 143 156 84 94 209 61 129 15 8 92 208 213 194 60 196 250 188 163 50 86 252 96 80 180 149 54 18 
20 167 76 160 99 219 60 183 57 13 245 186 28 253 22 236 210 217 40 151 211 228 58 5 58 55 102 138 235 251 192 253 162 12 157 
21 5 231 217 189 33 230 178 219 2 175 242 238 129 203 22 24 158 251 83 163 53 138 9 192 117 5 128 114 167 141 16 173 116 233 
22 106 149 208 28 113 210 203 99 193 76 46 215 101 204 210 184 111 8 66 121 200 183 126 72 41 37 213 57 210 74 35 60 223 243 
23 88 80 197 35 179 134 112 225 94 213 173 48 141 29 56 207 150 0 134 20 73 175 57 30 233 12 104 12 72 72 255 161 152 196 
24 196 76 75 52 45 169 9 219 217 150 248 18 101 142 18 235 162 91 155 219 122 132 231 226 144 48 42 143 209 195 83 149 15 158 
25 202 60 71 211 23 33 106 15 51 207 157 69 187 63 161 86 27 27 218 2 253 106 50 40 249 3 235 76 153 250 235 99 54 50 
26 54 78 83 160 93 134 112 251 204 43 58 109 129 85 136 91 88 133 197 138 173 190 142 152 10 39 146 245 138 201 40 192 23 123 
27 97 116 2 209 111 206 252 170 59 125 255 195 216 87 72 157 226 246 91 112 142 101 151 33 91 33 234 131 225 1 254 66 117 0 
28 19 229 206 15 143 9 140 142 204 100 230 21 1 200 11 92 56 153 194 207 186 29 240 164 160 209 165 158 20 27 159 39 0 109 
29 55 143 119 195 29 67 40 3 88 41 203 99 134 3 253 72 210 183 101 194 92 5 148 1 163 168 28 66 207 28 176 6 171 39 
30 202 201 106 242 204 195 27 152 38 161 155 35 233 110 219 78 48 55 83 196 56 247 108 85 57 60 113 233 66 29 16 12 230 123 
31 254 178 62 26 74 100 187 230 136 165 84 99 243 132 154 71 73 210 62 181 39 119 241 153 97 52 182 113 64 156 236 63 78 42 
32 89 153 143 20 127 23 185 211 122 173 87 20 244 160 230 50 86 14 169 71 167 10 123 93 124 188 249 104 251 71 147 84 224 34 
33 104 95 57 34 50 179 207 138 199 195 42 173 245 128 187 158 200 98 169 67 191 37 255 184 141 250 0 32 78 224 66 183 64 123 
34 217 114 46 168 252 245 107 39 163 96 167 94 254 111 193 167 179 128 204 178 57 90 173 57 122 251 25 189 178 89 56 139 204 103 
35 51 200 92 158 239 255 254 151 94 253 6 31 164 185 159 113 108 216 203 25 17 69 20 43 2 199 132 59 82 80 162 134 25 254 
36 36 8 254 35 159 92 32 166 123 196 95 26 53 203 243 0 228 4 70 249 47 72 192 180 131 18 4 37 152 29 36 189 38 34 
37 224 197 126 0 107 249 196 203 19 250 150 6 250 123 11 64 116 58 137 52 238 12 70 243 50 223 16 86 156 54 120 124 252 246 
38 124 103 239 64 50 2 58 201 9 53 68 20 117 184 78 254 236 61 11 50 48 61 17 64 147 173 119 11 41 115 1 165 218 240 
39 230 13 242 32 214 251 85 26 15 203 210 94 201 190 155 212 240 203 17 2 11 164 175 130 175 217 245 176 126 208 160 100 221 147 
40 133 179 142 218 205 158 165 159 252 111 93 151 67 77 98 85 79 109 249 255 240 169 216 229 89 86 181 250 187 146 141 64 69 27 
41 26 18 185 192 177 181 47 14 76 114 92 174 199 171 28 193 170 12 106 130 241 195 217 167 189 148 57 74 212 127 102 238 145 31 
42 174 67 213 221 81 33 80 173 208 23 89 236 216 3 248 66 134 233 6 95 144 195 243 202 14 199 73 116 181 218 147 100 29 104 
43 65 111 138 145 28 90 169 117 70 129 121 62 196 255 39 202 94 184 141 81 130 155 24 203 15 205 165 163 49 195 11 115 50 149 
44 4 78 239 173 196 53 47 61 115 243 60 155 189 154 83 74 235 213 230 3 160 245 208 69 152 2 8 164 117 58 57 121 137 41 
45 39 77 94 86 138 210 73 198 109 6 96 192 80 75 149 54 78 53 44 30 122 196 32 131 104 149 189 162 15 70 203 54 147 41 
46 140 29 251 213 227 104 219 67 40 43 142 189 98 220 242 142 251 109 82 27 240 187 177 173 93 192 244 40 246 135 81 130 165 77 
47 87 136 181 50 204 222 93 90 155 191 55 142 77 50 251 160 77 235 91 254 152 184 190 140 224 180 20 49 54 185 126 141 65 52 
48 191 13 18 29 104 173 220 159 59 42 209 54 202 30 33 37 29 186 221 219 70 189 144 90 238 198 19 109 84 85 161 19 98 179 
49 48 202 96 13 105 156 55 58 210 1 89 244 38 118 174 3 81 244 192 225 79 174 168 98 27 252 183 188 15 26 111 64 228 208 
50 77 78 108 132 136 62 133 225 50 171 87 224 174 169 213 110 138 36 28 50 134 56 46 62 244 62 88 100 126 60 52 203 138 160 
51 79 19 222 212 244 17 127 76 241 45 245 198 155 127 234 183 178 113 239 224 175 228 30 7 72 156 67 124 103 206 28 182 225 250 
52 138 213 11 9 33 253 54 22 195 209 150 174 137 72 31 120 40 206 92 71 213 164 227 24 32 75 230 60 1 199 55 140 157 66 
53 149 190 63 204 213 3 157 107 177 38 179 208 159 219 158 251 34 115 160 6 139 192 81 114 253 82 57 52 222 214 118 116 149 182 
54 64 106 185 221 213 106 4 136 58 163 99 216 158 134 75 62 140 214 255 221 72 252 47 130 48 14 88 166 130 237 92 194 87 21 
55 159 44 127 163 180 185 70 24 145 229 158 220 35 42 179 34 7 251 30 54 125 78 68 214 245 198 195 81 136 27 103 40 71 230 
56 203 252 160 18 20 49 247 178 14 26 220 193 61 227 188 91 25 58 170 94 16 159 36 211 240 173 238 87 213 54 62 160 50 222 
57 178 70 15 169 248 29 196 212 222 1 183 155 92 208 213 6 46 229 165 83 184 150 0 167 237 213 221 43 117 15 9 40 85 25 
58 209 77 54 149 33 21 150 216 176 243 168 133 249 215 106 159 42 34 53 42 201 34 255 166 78 116 181 87 156 10 112 110 87 167 
59 3 120 188 154 80 108 141 249 241 134 208 91 37 250 125 90 36 71 125 35 237 203 151 163 34 52 173 147 162 5 58 165 125 246 
60 63 206 98 204 199 83 83 151 174 120 145 43 211 181 114 80 216 96 27 111 3 61 163 176 208 69 181 10 235 51 0 42 1 98 
61 247 200 181 74 95 99 194 240 143 149 165 1 229 125 97 0 236 100 62 144 21 14 213 202 25 192 253 25 235 254 124 226 198 49 
62 44 37 149 238 21 36 132 186 37 105 55 135 106 36 235 168 180 0 182 137 203 207 74 200 233 53 199 101 23 141 150 67 179 43 
63 49 200 79 181 131 117 31 186 252 137 222 231 49 146 232 231 28 179 183 102 123 160 155 66 5 178 208 155 245 131 199 38 75 22 
64 220 206 139 251 137 135 132 103 111 181 250 87 156 22 10 83 124 133 243 23 200 248 201 152 148 190 27 91 228 102 113 192 53 253 
65 187 190 132 63 37 243 244 31 74 145 53 84 228 177 218 216 200 162 208 145 58 100 79 85 191 52 187 49 244 240 46 176 174 178 
66 239 212 166 228 243 240 117 41 69 89 218 31 49 163 193 2 52 251 102 132 80 38 184 11 87 172 252 133 92 170 55 76 126 221 
67 48 114 206 165 155 19 254 117 50 48 24 243 50 77 238 152 209 62 190 137 73 21 53 69 154 146 240 210 222 110 175 14 224 125 
68 179 123 144 177 241 194 225 9 181 19 86 163 172 39 225 106 176 43 128 230 112 26 120 96 236 86 207 156 100 175 25 23 43 170 
69 200 28 108 170 37 34 189 124 197 105 163 167 212 84 210 84 58 66 110 178 163 91 8 114 247 108 33 16 131 76 186 75 104 39 
70 245 142 73 179 10 14 28 173 181 240 1 135 68 59 202 179 237 109 14 245 223 5 97 0 21 228 77 208 48 181 247 37 67 64 
71 216 77 78 245 251 4 229 252 139 42 56 85 221 37 194 235 27 161 240 124 162 5 97 239 213 145 164 204 182 232 12 143 53 91 
72 132 48 95 105 45 234 147 101 64 112 138 2 91 165 164 75 34 70 81 131 53 38 20 217 243 202 193 255 89 247 90 221 39 185 
73 71 84 164 218 185 228 75 68 230 166 233 138 242 11 208 67 142 5 105 162 223 92 109 160 92 198 151 182 164 191 112 235 19 20 
74 197 205 248 16 17 222 183 250 105 169 6 57 236 148 63 85 55 30 178 164 190 14 106 86 196 14 21 52 249 40 72 191 245 64 
75 207 6 31 134 1 136 47 7 193 27 155 0 113 210 30 35 118 221 49 225 51 245 239 72 42 233 112 114 168 102 179 119 108 210 
76 254 109 90 45 116 27 73 16 28 186 226 58 221 89 23 14 58 74 3 41 146 45 18 3 160 186 105 83 50 213 37 48 67 127 
77 93 183 154 166 199 182 96 170 241 61 3 8 75 61 83 79 102 229 124 121 232 28 51 81 111 101 39 148 149 106 19 243 33 174 
78 153 233 100 250 147 85 55 150 94 131 211 177 210 57 150 78 178 127 107 230 208 218 75 247 111 225 97 130 212 131 48 109 108 149 
79 103 255 234 159 149 72 34 104 249 244 161 144 66 84 15 173 58 223 136 133 215 247 102 56 121 58 187 170 168 39 63 15 38 41 
80 174 187 114 208 35 107 196 197 251 7 25 10 180 83 234 60 216 193 51 63 249 173 121 181 87 33 220 150 49 3 191 223 190 49 
81 176 226 157 116 167 152 123 192 163 48 19 141 108 235 78 160 42 71 77 164 252 164 197 217 58 246 220 249 214 154 43 134 124 200 
82 250 35 96 118 227 3 166 246 144 18 226 222 178 12 38 255 176 34 163 118 251 221 108 215 215 66 114 2 200 238 202 195 18 42 
83 57 245 46 223 236 190 241 206 157 164 218 195 163 139 229 71 1 225 36 109 184 251 176 42 253 120 25 199 59 43 242 116 32 32 
84 83 12 222 69 218 123 233 181 62 140 64 36 211 65 5 248 174 189 243 94 232 241 215 1 184 18 44 170 135 76 202 218 89 169 
85 31 51 36 8 232 99 149 40 135 104 105 140 96 24 73 84 118 49 69 77 50 253 96 94 168 231 171 114 193 4 27 225 55 64 
86 233 32 163 126 72 42 231 178 182 71 202 255 155 64 49 224 142 99 222 238 194 134 213 109 248 150 113 20 119 168 84 97 200 247 
87 223 17 33 198 195 215 14 141 214 169 205 7 138 91 107 104 73 45 238 30 154 230 181 11 250 44 179 78 141 124 69 109 141 102 
88 51 80 61 65 221 20 235 170 27 117 6 134 221 79 179 203 110 77 177 35 88 172 79 12 250 221 136 64 74 21 166 125 101 228 
89 191 66 248 170 236 19 31 242 154 252 66 77 199 176 155 120 211 243 36 34 255 31 255 135 95 73 156 5 199 1 233 134 67 225 
90 48 48 245 79 34 143 75 100 220 18 20 119 138 231 107 175 10 106 206 9 242 45 83 142 50 26 144 28 160 211 253 208 3 242 
91 31 38 129 106 138 94 124 159 213 6 134 64 181 144 171 131 154 157 176 237 43 227 7 187 255 167 143 252 119 146 239 150 184 112 
92 0 67 206 124 226 164 130 104 228 56 249 143 187 147 44 108 128 88 79 135 19 78 46 162 74 165 53 57 59 237 170 59 48 120 
93 183 18 28 57 123 1 113 116 144 45 7 189 153 135 21 232 14 40 54 60 203 128 225 0 186 28 237 100 87 30 220 14 48 249 
94 71 171 250 185 31 138 230 38 71 127 173 92 103 187 133 157 247 80 29 216 80 215 244 61 59 75 91 24 89 140 17 161 55 11 
95 90 87 149 64 125 221 191 43 57 38 230 190 195 222 14 224 182 94 184 171 156 243 246 247 11 80 131 28 241 187 39 75 18 189 
96 139 143 154 74 186 211 112 161 146 51 127 160 19 53 255 203 224 155 191 215 146 202 39 22 231 24 209 14 99 227 203 238 114 101 
97 56 45 57 168 206 203 219 77 107 238 130 106 186 99 5 121 58 152 67 97 174 42 121 127 57 220 98 4 202 212 106 2 1 163 
98 170 207 110 133 28 217 115 159 68 45 2 73 166 60 225 234 157 143 20 22 14 77 242 112 82 188 69 188 190 70 95 104 22 205 
99 237 50 166 96 209 234 142 211 52 52 15 21 30 172 165 51 194 179 128 180 36 210 112 105 142 46 175 237 150 197 186 131 248 97 
100 228 201 75 114 157 127 166 172 149 197 89 58 248 27 237 120 208 17 75 64 122 217 111 42 199 5 239 129 137 231 226 109 177 46 
101 223 78 173 133 250 66 74 83 124 66 111 106 187 63 123 6 127 246 223 238 32 166 244 15 40 125 247 10 234 168 56 201 246 230 
102 78 240 40 153 68 165 219 179 15 150 242 138 156 113 128 124 96 160 34 84 176 74 209 167 85 187 79 141 132 69 115 210 53 156 
103 107 121 65 71 44 80 221 30 218 122 144 91 246 240 251 24 68 171 99 21 82 184 208 161 69 84 230 185 38 28 85 146 149 150 
104 217 194 230 182 224 192 48 112 27 38 96 23 63 164 194 162 185 21 90 137 182 159 221 157 88 4 185 173 150 78 67 111 16 41 
105 37 241 234 86 97 5 124 194 28 187 102 223 93 32 244 183 169 170 87 135 71 175 139 0 93 33 79 160 144 95 202 181 80 180 
106 11 178 185 136 116 214 67 218 181 161 250 169 88 164 83 175 43 155 95 182 155 188 215 234 92 103 74 38 28 154 218 40 76 148 
107 176 192 106 243 155 31 148 149 200 237 57 27 156 100 182 251 26 82 183 241 60 20 88 134 58 117 33 21 157 109 169 77 46 19 
108 64 201 50 213 94 250 194 152 21 94 252 204 90 23 30 17 8 90 37 97 225 96 214 2 117 115 111 30 192 157 49 0 102 99 
109 213 197 93 151 93 114 246 89 62 80 112 92 97 121 183 135 218 152 231 176 154 92 35 9 122 227 167 171 227 13 14 185 210 107 
110 80 47 221 70 137 28 150 249 120 248 114 47 127 76 199 102 252 97 194 31 107 60 2 18 231 230 31 245 159 242 96 239 33 61 
111 54 170 89 204 164 210 196 22 1 67 99 201 169 95 42 107 127 149 167 129 167 142 103 199 131 6 185 227 246 218 33 44 133 122 
112 248 41 76 189 63 78 0 162 23 170 2 65 21 129 215 189 2 126 75 106 69 207 112 254 178 102 217 211 146 94 78 139 135 154 
113 72 198 232 72 105 255 242 107 65 8 236 24 197 238 150 16 88 220 223 201 218 146 47 179 101 194 17 179 77 152 78 149 95 54 
114 221 200 54 208 51 119 216 31 143 157 13 37 173 102 1 141 47 220 31 94 143 132 32 161 56 109 57 134 2 152 188 224 96 242 
115 176 147 105 136 178 248 37 192 30 210 38 31 95 85 251 126 179 139 3 212 44 59 65 101 193 68 254 125 36 94 112 212 242 217 
116 92 164 210 129 100 240 83 138 15 179 223 11 49 147 150 52 103 194 111 168 39 48 236 37 174 16 132 30 228 118 247 64 26 201 
117 193 127 185 21 9 201 200 233 212 249 124 106 46 227 44 157 139 83 206 120 121 124 136 253 154 109 115 145 173 141 91 111 12 20 
118 132 22 221 76 255 177 69 123 27 115 94 71 17 233 155 223 97 20 91 234 17 245 87 132 134 4 17 225 115 30 246 247 52 211 
119 67 51 133 137 174 160 252 12 232 13 245 131 236 87 151 71 65 168 60 152 44 195 156 61 164 16 91 154 7 143 110 75 194 243 
120 212 112 147 208 124 123 222 114 254 202 201 149 18 10 61 78 162 105 17 62 167 182 78 2 80 86 146 190 161 84 177 117 197 69 
121 69 65 192 35 179 191 238 124 84 0 134 146 78 40 251 96 103 162 22 181 165 102 11 55 37 172 139 214 33 80 27 103 146 220 
122 138 69 155 120 194 239 120 72 129 199 113 125 39 216 31 61 141 196 163 153 251 200 69 135 159 103 215 186 206 105 150 88 175 49 
123 209 113 33 73 185 162 16 42 31 55 2 63 116 144 3 24 41 255 224 110 134 127 213 93 58 163 199 208 252 118 2 205 231 35 
124 22 160 197 39 203 229 94 205 36 211 93 39 235 134 38 203 245 172 75 202 10 133 110 209 85 106 71 87 55 46 122 77 206 64 
125 116 153 37 211 103 73 166 196 112 145 75 151 92 64 67 167 10 77 44 120 30 130 226 101 217 25 147 84 103 98 148 219 251 185 
126 174 98 2 84 39 114 229 114 9 66 178 77 233 188 154 22 53 185 152 23 30 113 49 178 197 152 20 89 115 15 18 34 114 20 
127 118 153 135 92 11 144 158 189 221 135 121 120 157 174 49 53 198 79 167 247 1 108 143 21 198 2 37 216 36 151 237 155 48 116 
128 247 59 4 149 248 226 28 113 90 186 32 139 239 230 218 150 221 220 3 108 241 201 110 22 161 147 173 142 46 221 2 37 24 7 
129 186 16 233 214 130 67 144 162 206 128 136 168 22 101 132 25 209 118 226 63 140 132 210 58 18 0 23 21 37 48 28 223 64 5 
130 182 194 72 70 100 22 198 236 190 221 81 67 246 34 185 217 98 69 93 52 127 111 53 151 132 90 199 160 58 7 165 240 202 237 
131 54 46 3 253 27 194 218 108 5 208 143 190 169 241 3 6 37 131 118 90 26 250 181 225 155 239 232 64 223 178 46 21 225 49 
132 18 252 243 236 104 248 189 247 182 102 232 186 109 14 61 227 104 87 221 29 56 120 12 32 185 235 211 231 1 180 24 19 176 12 
133 0 24 4 189 16 187 35 248 117 144 6 178 115 111 9 81 140 65 201 153 97 130 132 52 105 133 232 130 153 152 142 153 177 146 
134 86 193 77 121 185 194 10 192 116 125 47 125 206 187 190 152 84 32 26 217 84 132 94 61 6 247 213 148 144 134 38 230 71 116 
135 96 1 54 106 193 171 231 240 40 182 171 231 78 0 7 104 217 91 236 55 152 242 47 110 134 191 244 173 166 60 33 6 61 87 
136 112 254 2 87 238 43 13 153 18 91 153 25 196 114 116 176 170 13 163 217 123 41 152 111 214 62 171 247 68 232 79 180 230 81 
137 12 212 124 25 110 142 117 7 167 57 122 28 233 36 41 140 253 164 182 149 19 140 212 191 132 24 167 211 205 142 36 217 98 161 
138 242 208 47 103 216 215 160 82 243 138 118 28 22 115 192 204 8 211 89 220 146 221 245 58 176 194 200 212 155 42 117 141 251 165 
139 245 211 124 149 37 111 31 155 139 54 14 75 2 22 30 91 243 177 56 232 235 232 170 179 189 69 221 50 210 216 215 199 171 83 
140 93 208 194 124 107 77 178 121 152 181 144 183 16 131 104 73 107 83 49 21 6 238 90 227 33 44 188 248 244 103 76 81 56 14 
141 205 163 92 128 29 244 53 173 171 69 48 19 142 155 102 192 176 108 174 10 80 207 54 12 200 42 115 20 123 171 34 73 79 126 
142 201 108 115 254 25 30 67 73 50 210 228 152 146 148 5 64 158 85 16 212 97 216 255 212 236 122 128 14 195 207 141 140 59 0 
143 138 84 30 206 157 80 160 129 233 50 21 238 114 179 67 130 135 164 90 134 120 70 1 248 85 196 199 226 81 2 226 219 86 0 
144 169 243 81 73 116 58 123 137 40 238 60 107 112 196 15 203 74 135 17 75 128 102 16 71 72 97 74 42 60 160 43 230 148 124 
145 47 8 182 171 146 222 153 206 73 9 146 88 212 221 223 230 40 95 76 56 167 149 153 241 191 214 145 234 188 37 102 235 46 28 
146 150 192 250 47 142 67 57 33 155 13 254 123 243 38 218 64 95 129 213 248 114 148 206 4 127 138 41 229 118 87 2 12 23 252 
147 60 166 64 117 199 219 130 197 86 118 235 49 182 74 178 139 67 37 31 17 41 158 156 82 132 18 170 134 30 193 130 90 103 194 
148 207 46 158 82 243 244 200 223 37 126 41 216 9 108 253 40 126 38 199 26 120 75 44 34 209 74 228 83 165 75 22 116 122 180 
149 198 109 168 142 76 206 12 118 166 21 226 163 62 96 201 5 122 65 80 166 100 33 241 72 116 150 147 138 10 13 62 209 123 231 
150 95 199 181 108 61 91 129 32 254 191 128 199 196 251 8 20 161 108 53 146 180 170 40 72 52 51 85 115 4 208 90 99 152 15 
151 207 213 106 81 245 104 16 118 47 213 113 55 233 18 164 31 165 88 201 205 160 253 0 246 112 4 198 202 104 94 217 55 52 67 
152 136 41 171 153 159 218 110 16 18 87 35 182 118 200 14 63 149 175 61 150 165 173 154 107 120 2 202 81 58 254 149 194 39 64 
153 91 199 27 201 215 45 33 250 227 151 194 241 215 88 160 20 238 69 193 136 177 57 139 123 139 197 121 32 135 160 96 227 103 123 
154 172 63 168 205 57 139 101 252 125 60 84 29 80 66 99 17 202 20 75 85 143 214 26 8 246 162 168 86 133 16 210 49 79 122 
155 255 136 6 100 132 131 160 216 160 240 26 3 1 229 23 76 58 166 34 85 174 24 247 87 111 124 103 65 173 182 187 172 62 193 
156 16 195 68 176 155 229 160 182 232 162 155 0 238 213 166 17 42 85 41 33 172 152 157 19 217 75 201 149 247 7 86 8 202 155 
157 184 102 128 89 28 104 251 183 104 233 140 15 250 183 100 36 216 16 188 118 35 150 193 236 43 184 243 129 192 190 28 121 36 156 
158 210 64 5 205 247 109 182 131 124 177 58 224 213 19 240 145 137 19 39 74 255 82 2 243 212 195 177 240 60 213 141 14 21 146 
159 219 12 255 145 143 124 66 202 92 23 221 77 169 102 96 208 176 96 35 178 83 247 117 4 231 177 217 116 191 238 6 154 250 6 
160 44 137 130 110 83 222 134 48 43 47 150 140 255 70 236 34 249 63 25 110 67 1 32 28 117 223 10 124 122 4 130 166 141 4 
161 20 225 226 154 17 14 201 168 154 201 238 134 235 231 197 5 86 8 6 118 36 123 85 46 247 207 50 121 117 191 125 138 160 96 
162 36 178 110 238 90 8 183 72 142 162 48 83 167 134 91 173 252 127 41 81 173 32 33 223 154 150 158 23 32 63 119 69 241 229 
163 51 75 237 234 147 123 140 195 206 52 73 41 225 69 168 10 151 85 43 184 52 197 78 211 220 111 18 84 180 3 57 231 78 39 
164 209 225 162 93 165 113 145 238 154 115 52 67 125 203 152 168 131 205 109 209 160 74 64 178 158 244 181 215 219 3 254 172 228 161 
165 10 137 18 155 120 172 14 172 239 140 119 136 52 250 85 162 203 245 236 12 167 138 0 92 97 220 95 96 136 67 1 146 205 19 
166 46 69 191 60 241 175 200 104 55 253 98 140 159 45 129 139 57 40 21 58 132 118 22 227 214 158 38 215 49 243 234 95 56 170 
167 155 41 89 100 145 144 97 243 28 0 33 157 139 90 197 160 148 73 22 170 44 237 73 82 196 122 70 175 217 126 89 116 168 178 
168 216 57 66 57 45 94 57 78 251 196 168 192 100 61 9 123 231 53 104 48 135 44 170 205 219 131 76 52 248 244 230 208 45 40 
169 10 90 134 67 168 129 8 81 65 108 142 74 231 117 127 79 166 7 124 80 212 87 212 32 140 204 20 114 156 66 155 166 156 33 
170 234 69 163 242 150 228 94 36 47 70 153 174 149 63 181 17 144 138 105 100 170 245 48 191 103 204 1 2 115 157 36 93 226 199 
171 79 120 171 173 156 218 243 54 137 137 117 62 154 5 200 3 105 115 248 153 50 96 102 51 98 217 208 134 54 179 77 133 43 249 
172 50 200 211 38 254 92 175 115 155 73 121 99 77 226 214 69 124 8 165 226 59 8 187 12 142 241 191 220 118 234 213 168 178 168 
173 206 176 5 125 36 160 199 157 3 20 127 218 89 251 226 255 221 30 7 152 42 149 137 233 113 255 211 70 168 134 239 118 54 244 
174 244 90 148 187 247 151 207 119 113 40 114 84 39 80 114 46 232 156 196 114 133 53 113 88 124 25 222 107 144 21 95 132 111 243 
175 63 103 138 14 222 252 54 80 80 94 160 194 140 137 94 80 251 227 134 108 59 2 134 26 109 22 47 204 154 158 191 217 5 73 
176 231 227 69 29 52 149 123 212 87 8 93 181 88 88 152 222 197 212 224 75 238 77 97 29 25 251 187 216 212 193 34 187 164 103 
177 216 216 253 84 173 84 92 10 10 180 99 162 147 40 118 115 115 100 193 212 129 218 207 61 179 163 254 213 94 162 60 54 123 57 
178 138 40 142 230 50 152 155 149 58 46 189 177 161 48 21 98 4 151 61 211 212 240 118 210 197 212 116 1 11 239 59 149 23 201 
179 124 74 97 23 223 155 69 157 76 230 205 98 73 210 249 134 165 205 118 28 159 59 240 19 60 251 3 119 145 26 64 13 100 161 
180 36 68 61 105 225 137 79 174 235 152 128 228 30 38 177 148 66 80 207 50 100 12 46 103 131 191 129 196 204 230 101 240 42 162 
181 89 11 44 168 185 23 65 58 252 95 96 173 244 162 254 195 212 98 207 2 201 83 193 74 23 141 48 124 125 90 31 214 101 75 
182 127 31 98 192 89 94 31 185 12 19 91 10 215 47 108 166 50 53 249 243 127 16 129 176 141 254 10 172 213 112 247 84 143 89 
183 20 232 184 51 161 196 71 252 206 30 43 58 196 93 111 190 81 238 206 210 158 91 208 169 7 165 25 254 249 168 88 13 144 16 
184 65 49 212 136 45 162 166 88 220 106 182 75 40 7 57 247 217 216 82 169 129 90 79 154 88 72 66 176 86 210 192 151 3 148 
185 31 48 54 197 136 18 47 62 93 88 69 151 79 30 111 161 200 240 251 23 138 84 95 204 4 181 158 197 76 161 89 107 209 144 
186 48 89 162 96 152 0 184 221 151 7 252 6 168 196 246 164 219 128 248 58 76 252 240 234 193 60 139 27 168 92 171 216 181 77 
187 56 77 77 240 43 228 247 39 234 160 235 224 68 198 96 60 0 172 56 240 150 250 45 33 21 213 125 192 173 51 13 230 128 91 
188 214 171 63 206 210 42 110 189 10 178 131 107 238 132 23 38 116 174 32 161 207 53 118 77 245 36 128 3 10 0 94 224 172 157 
189 174 126 199 28 60 210 206 191 61 188 67 84 227 184 2 3 89 210 57 208 31 46 244 159 49 254 159 143 222 75 45 141 202 244 
190 169 6 198 120 197 3 52 9 88 23 193 90 27 26 44 84 234 75 130 222 234 180 220 138 67 187 213 112 72 159 101 241 165 43 
191 105 107 47 158 116 135 181 53 225 208 79 14 36 58 89 167 24 68 91 245 206 158 176 163 15 248 67 116 233 232 159 83 83 206 
192 241 199 85 166 252 55 119 76 69 155 134 158 66 158 226 157 147 176 60 67 84 75 59 151 191 37 127 94 120 211 45 105 154 130 
193 15 151 185 134 227 254 34 105 157 100 7 127 2 155 48 62 222 132 137 26 27 72 63 154 166 183 109 211 32 8 86 47 159 15 
194 182 130 14 216 235 171 60 242 42 62 141 90 124 108 222 5 134 249 77 197 148 244 124 1 199 156 9 29 203 168 45 129 42 59 
195 89 21 230 150 8 16 212 149 107 81 1 73 86 135 67 164 76 215 152 200 216 95 100 226 125 48 138 170 177 181 229 11 202 203 
196 161 210 219 117 104 70 198 105 144 29 241 211 193 61 170 89 6 130 184 106 100 53 154 239 223 76 164 196 87 110 143 248 65 107 
197 109 169 177 52 18 65 81 3 20 18 65 190 107 71 65 35 177 165 89 76 148 56 152 56 253 239 167 140 231 232 247 84 145 169 
198 136 163 234 217 167 255 235 232 189 86 47 254 122 224 164 211 44 56 11 196 113 8 179 24 149 154 0 140 239 145 53 119 52 32 
199 81 219 31 60 195 220 147 242 219 13 211 127 224 255 183 235 196 40 244 119 64 137 18 64 21 1 209 75 120 6 107 201 225 138 
200 6 165 102 153 151 65 166 106 192 134 106 120 113 46 160 101 165 225 238 183 33 4 184 243 79 49 249 186 250 218 68 0 127 170 
201 153 23 236 63 129 172 197 235 36 55 25 197 156 191 166 139 118 199 143 47 186 222 96 179 152 90 142 220 91 13 134 244 36 114 
202 52 166 31 249 145 67 48 171 8 205 106 174 88 224 118 231 15 48 197 111 228 93 202 114 57 37 127 191 25 164 50 77 74 81 
203 71 219 148 119 134 157 68 240 75 156 209 193 131 224 242 72 80 214 165 26 72 222 63 199 158 88 107 208 166 181 33 237 145 181 
204 100 23 82 169 8 158 69 217 95 201 185 81 17 9 39 183 35 111 149 98 55 51 187 162 3 97 88 36 78 233 218 178 0 44 
205 91 8 202 161 225 42 106 155 123 123 164 163 50 200 18 200 42 73 251 229 236 255 70 68 35 148 45 253 71 45 42 162 54 244 
206 67 23 30 173 178 154 41 87 61 91 31 79 35 73 153 31 47 133 30 117 201 65 10 246 63 81 35 105 243 89 93 55 113 124 
207 228 35 22 13 122 83 105 153 162 140 227 59 171 18 192 201 135 137 11 145 127 74 226 163 179 214 252 16 13 109 140 241 145 162 
208 255 11 245 104 165 152 244 136 211 160 154 148 105 33 29 116 179 157 190 149 64 113 107 60 130 120 170 14 106 59 177 105 70 166 
209 209 235 62 197 115 18 101 13 166 207 47 195 67 226 96 2 119 160 115 227 221 245 91 135 4 197 194 181 46 8 91 255 244 154 
210 197 103 172 42 117 82 249 164 21 61 134 118 63 253 22 178 224 243 168 60 122 172 1 60 97 48 69 188 47 57 86 244 160 2 
211 31 21 84 24 185 106 85 63 224 148 61 246 71 29 234 239 89 100 155 91 161 252 139 230 184 186 31 15 175 191 17 206 213 102 
212 230 142 208 60 206 176 208 11 166 23 40 144 6 130 245 161 221 150 157 104 124 86 34 155 101 209 90 118 159 47 220 134 190 172 
213 194 140 92 146 151 3 170 191 147 176 65 136 82 30 30 239 134 154 69 169 53 170 122 144 33 26 191 253 160 125 170 98 9 6 
214 244 160 9 158 96 157 79 161 37 161 192 68 144 70 222 214 239 20 128 106 164 161 132 99 159 36 225 73 134 234 79 122 139 89 
215 25 235 246 104 140 27 9 76 95 153 147 62 111 130 82 240 236 246 145 112 89 48 148 58 121 26 37 201 149 176 34 174 155 24 
216 22 39 51 31 116 147 184 7 209 40 137 35 24 118 25 169 230 114 218 123 173 83 149 210 28 42 130 62 216 29 86 238 68 138 
217 13 184 29 198 191 238 238 73 17 6 191 42 175 165 156 137 32 73 221 182 27 249 224 157 56 185 186 142 167 255 24 181 183 53 
218 123 119 35 105 192 52 111 127 94 30 36 251 168 69 68 133 251 96 126 219 253 182 148 184 69 60 183 93 241 110 147 108 229 182 
219 213 165 235 68 36 73 98 73 68 10 142 137 143 137 233 14 100 230 196 249 158 9 53 85 103 38 196 250 146 169 176 103 79 155 
220 171 115 229 13 188 41 24 74 178 167 211 155 181 56 130 122 49 32 131 102 118 234 140 58 228 30 227 149 133 50 48 48 166 21 
221 61 98 63 85 173 241 253 128 141 178 184 15 44 233 47 176 79 165 154 219 223 127 249 195 20 126 245 68 174 155 90 236 254 153 
222 65 171 138 62 43 23 241 228 38 29 205 86 205 29 251 104 248 219 231 242 158 251 112 147 63 31 47 153 11 45 50 76 216 189 
223 139 3 212 124 231 251 153 181 81 103 210 76 207 202 39 182 188 197 177 45 89 240 76 136 138 87 181 188 163 141 121 46 144 78 
224 170 120 73 68 45 154 171 255 230 122 201 14 48 134 211 225 179 44 209 255 180 91 86 105 24 249 246 145 40 135 223 210 255 40 
225 22 44 194 193 43 169 59 244 183 107 122 138 76 45 183 30 44 107 121 130 213 145 124 203 35 164 82 2 118 81 43 141 125 237 
226 78 168 150 138 157 77 245 23 216 66 69 143 96 113 250 217 244 207 107 112 155 142 20 237 144 138 63 187 23 188 169 102 101 63 
227 240 2 141 229 25 101 39 94 244 135 208 238 97 196 190 204 52 89 90 72 70 234 210 133 166 234 66 79 80 167 142 64 169 27 
228 37 194 128 77 33 116 212 241 99 53 181 33 1 233 122 91 49 192 70 3 70 236 237 136 59 61 47 201 125 216 229 163 154 101 
229 240 187 218 196 172 61 250 97 94 251 74 216 87 123 152 157 127 222 137 108 102 196 170 149 141 39 109 114 202 8 216 186 195 178 
230 127 112 239 121 209 77 116 28 37 203 151 189 104 22 156 241 131 2 181 45 152 67 84 5 181 31 13 141 217 209 63 88 65 46 
231 209 18 123 70 46 160 17 198 94 122 220 250 107 95 252 33 140 148 100 225 154 25 0 167 167 217 120 230 50 185 21 3 204 144 
232 73 250 49 91 192 143 213 157 137 64 252 133 97 137 26 197 106 180 223 106 91 134 67 212 108 117 141 129 121 89 18 194 84 67 
233 29 20 210 242 177 91 51 174 224 148 55 250 90 161 174 57 11 10 191 78 222 43 196 107 173 61 197 191 255 25 2 29 45 212 
234 15 223 47 66 141 15 215 196 10 49 101 184 106 112 194 41 190 160 84 130 12 1 191 209 192 191 234 194 220 23 150 235 246 197 
235 46 131 213 5 71 223 54 172 151 160 28 90 201 219 250 29 93 6 31 29 215 223 220 193 162 184 217 56 163 207 254 209 83 211 
236 214 154 178 12 71 73 172 99 163 117 62 158 147 156 164 178 185 124 145 149 61 51 77 22 108 240 230 106 194 57 61 152 211 239 
237 165 26 56 81 126 220 199 188 122 90 88 30 12 17 154 157 166 216 209 243 238 61 228 212 167 166 13 228 62 225 211 227 251 11 
238 53 121 231 252 54 97 86 142 128 98 160 26 255 70 242 208 58 225 13 30 181 180 196 195 152 2 164 107 230 159 119 27 25 94 
239 23 79 192 109 221 64 207 125 90 206 196 77 159 254 46 172 28 227 97 224 166 249 226 74 101 200 234 220 227 3 58 250 82 250 
240 103 47 58 54 173 149 5 113 226 164 111 16 80 139 243 177 107 154 171 77 228 16 22 206 236 249 209 38 244 35 33 91 83 91 
241 146 0 240 151 113 210 59 224 226 139 107 214 61 214 112 232 35 84 248 57 35 228 51 244 10 39 24 43 130 107 135 20 107 119 
242 171 220 74 230 188 44 114 39 2 175 253 114 151 32 199 143 90 234 115 141 222 125 180 246 169 54 97 48 75 204 167 246 168 241 
243 221 100 30 79 139 32 254 136 147 149 169 90 36 3 68 151 144 34 20 68 25 189 122 122 237 197 71 149 188 239 134 153 84 164 
244 232 223 197 230 104 88 123 17 178 159 20 246 54 164 24 74 232 49 8 98 172 245 40 243 138 228 226 17 125 54 181 101 22 122 
245 75 126 210 198 143 132 101 163 122 155 71 147 229 47 196 237 145 112 227 185 99 109 157 70 126 26 124 52 127 146 174 202 16 129 
246 144 159 5 245 66 128 144 137 19 118 184 215 99 74 72 70 3 171 180 161 241 50 187 110 102 59 0 21 5 17 150 150 176 155 
247 139 243 27 28 124 46 146 53 6 245 127 78 60 130 249 240 35 235 34 223 89 137 26 89 158 31 106 52 181 27 207 65 14 235 
248 93 138 25 239 191 31 228 62 109 32 193 103 16 228 82 51 195 171 188 221 4 90 253 111 142 178 138 93 243 152 72 80 34 98 
249 63 226 129 36 32 239 68 225 86 85 198 168 136 137 83 68 103 87 158 100 198 44 22 80 137 10 232 210 90 11 52 154 237 181 
250 190 13 164 2 239 250 87 181 162 223 62 245 35 165 77 193 9 19 237 32 100 119 42 76 73 132 87 125 30 68 50 220 82 215 
251 223 65 209 54 246 116 22 52 105 57 218 182 251 227 202 232 3 46 95 45 122 168 178 210 37 208 22 88 173 104 47 140 169 0 
252 194 159 116 216 212 222 18 174 148 13 145 94 245 149 140 85 194 7 253 116 217 35 69 239 123 242 88 170 126 1 170 64 161 31 
253 25 117 253 43 35 145 56 180 240 45 73 124 130 12 131 128 128 92 163 197 76 30 183 164 200 53 165 114 118 70 145 143 187 142 
254 186 222 32 242 147 16 31 220 140 162 232 16 34 105 108 197 46 184 227 230 92 171 27 2 29 145 72 175 32 4 61 218 226 93 
255 204 117 109 236 82 250 142 58 10 176 163 118 117 210 47 88 184 139 3 211 141 32 101 214 207 133 218 13 96 188 106 44 50 216 
256 24 132 210 166 190 220 86 98 82 203 52 129 35 236 13 38 191 154 71 36 112 22 170 74 35 10 7 142 54 57 102 79 189 56 
257 245 123 20 76 221 102 23 17 232 59 253 245 97 189 143 168 225 0 191 139 74 226 149 81 112 204 138 214 27 71 14 16 195 34 
258 92 160 137 116 178 113 175 175 102 16 108 245 185 78 245 120 217 64 90 111 145 203 59 28 161 86 99 176 102 38 210 195 199 91 
259 55 121 204 230 40 50 246 149 40 175 227 29 39 188 93 130 43 239 77 102 11 238 188 110 158 35 149 113 230 92 204 29 213 153 
260 3 253 203 249 146 243 169 117 17 208 50 110 82 93 93 159 196 104 142 128 215 44 163 108 157 137 200 106 166 157 3 169 154 206 
261 163 45 194 76 162 211 28 212 65 111 50 159 14 246 7 156 118 222 201 26 74 102 163 18 208 74 175 211 243 74 162 150 119 100 
262 226 25 55 255 238 120 110 32 23 124 22 31 25 140 253 226 166 72 72 74 90 25 148 10 236 135 84 142 30 203 242 0 228 41 
263 255 210 162 109 242 185 234 8 216 3 149 214 229 59 30 45 133 120 70 25 130 51 161 214 193 191 161 180 191 134 221 191 88 127 
264 44 75 57 22 83 17 25 232 231 254 36 5 44 169 126 114 195 0 165 100 215 103 35 120 27 226 254 248 161 87 120 206 162 177 
265 228 245 194 254 222 170 252 2 175 40 171 45 155 110 46 64 210 5 167 245 125 194 216 124 187 121 211 51 71 117 228 44 106 166 
266 42 72 80 38 74 0 79 246 45 234 100 91 42 55 96 210 44 222 148 4 90 79 126 45 130 197 162 102 241 12 13 27 85 93 
267 66 159 93 145 149 139 123 250 230 165 49 71 119 93 37 12 98 127 91 224 172 222 165 78 68 151 90 81 178 175 175 244 79 12 
268 133 228 151 0 222 126 166 15 197 29 109 234 41 207 105 133 175 21 99 84 99 167 235 189 249 158 109 168 146 188 180 24 160 76 
269 24 127 202 190 142 143 220 251 121 5 202 226 138 121 247 237 206 90 149 185 23 142 87 132 54 234 64 234 2 225 54 26 96 0 
270 217 238 143 181 234 8 186 180 234 69 46 225 50 252 59 199 181 83 85 13 215 139 247 24 118 249 249 172 19 89 173 236 71 60 
271 161 49 69 92 230 47 161 20 17 211 16 76 155 197 159 240 210 119 124 201 143 242 194 136 158 214 225 75 194 40 136 100 90 205 
272 192 64 252 97 84 13 52 100 90 207 41 249 192 252 112 60 197 255 46 136 135 204 94 104 24 32 145 160 132 235 109 68 43 105 
273 165 127 119 218 227 209 169 12 202 105 8 59 165 206 58 211 86 194 160 180 42 184 212 187 88 89 166 197 157 209 46 67 80 165 
274 29 51 118 198 64 65 48 72 124 213 22 182 169 108 120 73 32 163 1 245 94 89 78 5 30 235 214 76 46 39 242 75 90 104 
275 18 154 169 66 227 37 23 249 220 192 102 84 9 134 247 10 123 86 99 201 91 129 181 49 206 227 88 192 47 179 40 65 77 210 
276 131 48 247 154 42 211 91 144 40 100 22 31 111 146 117 210 91 208 84 16 2 34 244 90 226 35 13 10 100 91 220 231 139 212 
277 129 181 167 220 69 207 65 92 239 176 238 100 130 73 53 214 90 55 248 78 145 218 113 159 229 213 250 193 188 133 149 61 59 61 
278 26 128 12 91 220 251 11 202 96 141 20 149 100 110 204 92 188 93 55 45 252 28 2 246 221 190 124 115 251 183 176 21 55 188 
279 112 20 184 123 222 24 9 242 173 109 96 121 201 28 214 0 73 211 28 75 201 250 9 69 109 5 252 29 26 52 217 139 72 145 
280 6 38 169 15 25 86 124 121 207 70 150 166 70 223 121 99 43 66 93 52 136 202 57 132 231 84 184 192 223 0 82 229 39 251 
281 245 64 82 113 185 33 183 79 199 254 47 64 97 90 131 190 142 11 136 200 143 111 28 72 47 251 72 129 224 111 125 213 175 207 
282 71 105 240 254 184 184 252 231 248 93 65 123 27 208 134 163 152 22 18 180 94 66 175 166 195 143 22 64 101 197 15 172 46 0 
283 170 231 184 167 206 176 4 16 44 32 224 178 195 120 200 214 44 38 24 219 205 219 106 227 28 207 168 43 123 215 43 38 190 227 
284 205 140 148 209 156 192 241 124 114 181 244 59 139 32 97 163 251 46 126 102 17 154 53 186 198 177 145 241 215 79 213 164 219 105 
285 117 120 41 103 244 155 28 233 214 167 9 56 74 5 102 200 107 120 99 160 50 41 81 195 26 40 18 239 204 237 88 66 101 129 
286 169 90 29 197 67 243 108 76 43 182 81 146 126 188 10 225 93 60 10 174 255 37 215 17 20 163 254 109 229 100 238 142 190 11 
287 83 1 255 191 77 42 117 159 188 244 91 198 213 184 2 224 103 1 5 62 18 25 225 17 134 199 117 117 85 51 128 169 52 127 
288 104 129 170 222 32 102 210 124 45 167 52 47 135 155 49 140 217 67 166 187 84 44 130 201 161 215 252 34 128 48 161 233 178 75 
289 199 210 178 153 78 223 64 131 14 200 30 63 84 248 131 250 179 215 39 53 161 200 12 157 234 141 206 140 118 128 215 61 82 137 
290 214 161 104 22 36 119 222 66 182 51 58 57 45 237 17 84 34 178 29 47 79 7 188 29 147 50 157 107 111 240 244 69 145 93 
291 91 181 212 58 247 138 109 50 196 154 31 213 239 66 135 12 113 214 19 45 244 167 95 145 18 206 129 6 19 18 99 110 199 55 
292 168 191 194 21 241 134 176 16 91 159 82 226 171 195 184 190 240 172 101 79 62 119 29 191 126 48 210 225 159 153 25 71 88 219 
293 93 73 97 13 90 188 172 172 158 87 112 86 21 96 3 123 176 65 242 205 0 112 254 210 82 157 108 107 228 196 70 65 14 167 
294 78 104 99 250 20 1 81 132 87 103 229 90 226 149 155 212 98 156 69 96 110 151 253 218 2 226 159 72 35 173 239 114 21 82 
295 108 41 83 190 174 170 37 147 5 7 40 160 219 138 60 32 235 171 183 232 133 185 202 36 1 238 209 240 96 230 66 204 16 149 
296 138 190 64 175 81 69 182 121 229 146 3 34 178 238 205 106 215 82 35 161 119 37 143 72 21 239 47 88 188 63 237 70 253 45 
297 246 78 114 172 199 88 62 202 122 241 185 71 91 144 153 126 49 16 163 193 89 185 176 136 17 108 199 254 179 196 44 169 18 158 
298 85 217 246 148 163 112 133 92 183 224 236 81 94 30 97 2 223 186 187 143 66 204 252 9 202 175 205 246 88 223 149 173 184 139 
299 65 92 252 198 184 179 166 165 4 5 195 102 7 162 32 194 49 99 142 45 108 88 220 58 79 52 25 228 226 210 111 35 46 107 
300 234 230 31 144 139 35 149 78 137 156 240 170 94 34 13 236 79 121 69 44 179 148 96 205 120 66 159 231 102 205 83 80 179 114 
301 224 63 149 118 141 31 18 126 201 113 160 214 93 239 79 162 27 3 54 124 208 174 190 111 150 36 60 233 116 239 91 85 46 240 
302 203 188 15 221 58 216 78 218 174 172 201 254 78 229 1 133 97 209 51 31 64 201 68 124 178 184 107 13 13 154 254 216 86 13 
303 182 144 230 4 106 148 176 51 146 255 24 147 132 121 100 183 153 164 129 221 32 51 149 140 65 163 38 63 123 124 76 49 12 50 
304 54 118 199 230 169 89 229 194 237 105 59 81 33 212 246 162 177 22 213 71 162 22 234 200 85 101 68 162 151 80 212 205 198 155 
305 179 112 245 153 50 226 2 109 51 35 66 41 197 243 64 155 58 226 177 36 171 7 138 239 169 33 64 125 238 6 25 161 118 14 
306 58 168 240 61 22 35 96 88 77 38 75 141 193 134 111 114 170 26 121 52 10 34 85 74 160 67 80 185 229 199 199 31 111 183 
307 92 133 218 189 221 39 227 41 180 164 175 36 22 89 62 144 142 72 178 227 146 82 39 227 11 12 170 210 43 25 137 136 159 100 
308 69 124 139 40 165 64 204 84 100 226 174 162 114 60 235 37 31 125 119 70 96 131 82 10 85 126 36 223 6 195 67 75 63 206 
309 115 229 14 63 57 114 33 231 21 148 35 0 185 67 125 48 137 222 179 220 232 9 90 12 232 96 207 43 171 15 249 30 244 8 
310 93 45 122 126 21 143 18 56 143 203 123 13 252 5 235 175 225 211 184 59 224 160 155 175 203 70 190 197 100 178 205 193 224 71 
311 63 245 215 82 45 102 29 169 115 25 174 94 201 143 50 129 202 18 34 101 193 237 171 128 178 15 50 127 208 18 199 15 7 158 
312 97 53 4 127 222 120 152 140 214 97 27 8 227 229 26 5 74 220 242 245 92 165 4 142 36 212 161 235 227 168 137 69 221 142 
313 196 187 6 92 71 220 190 98 229 161 71 255 166 145 219 152 134 55 61 138 198 98 94 103 77 66 15 215 135 237 101 75 168 107 
314 167 240 71 101 82 44 6 154 44 172 43 7 69 178 63 130 60 5 228 155 108 50 221 123 9 100 104 110 175 17 217 86 1 32 
315 188 83 77 194 237 121 111 25 128 180 203 191 54 7 196 27 162 48 77 127 172 86 227 20 196 146 37 157 233 38 189 165 122 10 
316 103 103 131 214 128 4 138 75 195 193 83 136 220 245 184 41 117 100 127 88 121 67 235 158 224 212 197 157 121 63 168 224 166 43 
317 183 39 47 65 114 243 2 197 123 222 187 51 7 48 152 134 136 17 201 115 175 169 71 116 71 192 179 239 161 90 26 88 129 74 
318 153 243 61 156 185 184 122 116 235 130 164 131 8 44 148 210 160 68 123 231 184 194 168 108 177 73 198 204 161 71 22 58 58 83 
319 214 243 11 81 103 246 211 11 122 219 56 14 173 216 82 41 191 11 235 103 119 157 176 61 105 81 132 127 140 190 210 98 178 221 
320 179 25 211 134 37 77 98 93 92 15 53 174 56 244 185 36 92 48 193 12 109 42 94 241 169 234 176 123 76 98 88 0 123 43 
321 134 160 121 232 253 213 248 50 131 48 39 61 84 131 109 21 143 219 63 237 204 232 215 124 99 36 222 187 36 90 231 170 250 96 
322 147 248 53 139 42 184 187 81 245 16 212 99 37 100 62 101 81 10 77 41 135 177 77 101 108 113 191 83 27 186 179 174 178 232 
323 57 220 161 245 46 150 5 2 249 42 102 55 143 184 66 221 225 201 142 46 46 250 159 238 78 186 168 1 105 90 234 162 54 139 
324 151 100 33 156 103 27 199 205 82 86 133 148 51 102 93 193 148 140 188 51 122 10 238 34 11 87 124 245 249 178 128 145 23 162 
325 45 126 189 244 75 15 75 209 164 126 55 1 64 204 141 252 255 7 6 237 41 17 68 165 7 62 88 135 207 111 41 252 237 230 
326 241 56 246 60 9 154 186 65 155 250 13 41 246 12 48 252 250 90 14 62 255 21 124 87 156 75 198 198 72 179 172 57 236 162 
327 117 245 60 47 54 216 42 67 1 32 80 49 29 74 139 43 136 139 64 5 226 220 80 169 162 152 92 79 209 72 241 70 62 46 
328 118 116 6 160 184 7 192 8 56 221 82 196 8 218 79 72 223 49 37 48 218 199 200 55 22 154 127 8 224 189 54 86 50 60 
329 246 234 67 183 242 123 148 68 63 157 30 142 229 254 192 10 46 154 210 246 209 232 144 81 240 113 14 38 199 64 98 190 42 165 
330 117 28 33 9 96 96 166 127 239 140 125 175 150 171 73 104 161 27 81 50 108 65 163 122 104 106 187 202 40 229 112 157 2 145 
331 167 98 241 77 225 224 217 94 143 112 9 217 216 171 244 41 221 96 107 128 218 211 234 149 157 19 123 13 176 125 158 87 223 144 
332 165 193 112 126 31 0 238 41 217 199 212 205 240 177 45 91 49 7 46 27 157 204 46 24 217 223 149 120 54 116 8 219 53 120 
333 90 85 120 72 126 81 15 82 30 0 3 75 91 52 83 138 79 240 86 126 8 47 93 157 167 147 17 175 111 71 40 201 156 160 
334 17 26 242 33 108 16 33 111 92 124 163 175 6 242 159 92 112 167 140 205 68 51 97 85 227 208 156 11 153 56 171 170 82 157 
335 203 190 174 236 45 10 105 208 185 111 195 88 204 51 255 88 1 67 139 98 152 110 50 53 121 203 109 37 117 192 194 65 126 112 
336 45 172 122 150 124 51 6 63 139 210 115 138 42 116 205 181 214 102 36 8 155 157 211 8 194 72 200 133 137 71 245 183 243 112 
337 77 111 163 83 175 47 37 34 185 79 150 135 5 108 237 41 116 136 198 71 144 137 143 89 14 25 160 3 208 147 115 29 2 23 
338 113 177 70 150 211 255 230 105 134 235 213 115 20 73 251 218 144 140 99 32 229 113 57 133 117 9 24 232 38 26 255 151 204 69 
339 46 159 69 20 9 203 255 222 63 19 40 58 237 184 198 81 216 171 194 17 48 55 26 72 32 65 99 31 216 47 101 6 206 170 
340 26 215 117 25 182 180 44 222 239 26 150 181 107 111 97 45 128 145 101 155 218 133 220 61 164 180 108 9 187 58 179 213 18 41 
341 239 200 221 27 166 204 53 60 130 160 171 227 206 44 116 51 199 78 184 163 139 92 87 247 102 18 50 25 232 68 66 215 12 32 
342 242 178 236 40 238 110 200 154 81 150 198 198 201 141 20 129 48 160 222 135 151 68 154 201 93 130 13 160 89 25 192 75 203 172 
343 115 186 27 60 84 108 210 26 50 156 167 71 29 215 231 251 94 126 63 248 72 157 122 85 61 211 111 253 31 58 169 146 244 196 
344 206 72 49 161 98 99 61 9 170 90 224 145 86 63 16 149 55 88 50 178 173 111 133 28 108 164 87 22 55 75 218 5 148 11 
345 166 246 111 227 0 25 62 224 171 148 31 187 41 87 19 92 9 192 203 142 221 56 51 52 78 106 127 40 111 19 52 22 10 163 
346 249 10 188 55 234 103 203 10 34 245 97 53 81 106 246 28 248 211 84 43 7 162 149 134 203 5 154 255 27 164 162 20 174 94 
347 76 152 198 23 162 232 12 3 30 93 109 20 122 102 231 206 145 238 113 39 116 60 44 14 59 71 178 221 91 96 59 167 249 1 
348 191 155 234 203 159 8 41 12 28 163 114 3 113 4 241 226 43 101 30 87 116 89 158 38 54 249 135 114 161 128 115 96 27 93 
349 43 186 101 84 199 129 247 57 132 105 61 117 75 104 219 106 191 79 195 93 117 250 87 252 108 248 124 223 88 152 61 131 82 162 
350 216 25 36 207 83 168 56 144 30 132 249 249 238 184 72 177 22 189 171 109 186 23 101 54 247 189 206 52 64 33 214 24 58 250 
351 232 141 163 32 30 193 164 23 186 146 207 2 68 229 191 239 82 121 7 183 176 254 116 126 50 181 159 8 205 218 3 181 103 166 
352 214 133 103 122 156 33 13 108 35 81 81 226 64 164 92 71 91 12 69 208 138 119 133 42 128 82 4 131 8 107 41 222 241 144 
353 88 141 177 101 249 212 182 75 182 247 239 18 62 74 30 132 26 169 251 159 211 123 242 215 254 250 66 39 216 51 183 48 193 104 
354 150 186 60 76 5 243 67 244 5 130 63 36 6 89 205 1 249 160 125 235 119 123 229 185 163 189 237 90 237 174 195 131 104 255 
355 208 110 242 19 98 248 149 161 28 155 251 233 157 244 137 26 223 0 149 196 185 56 129 166 147 110 84 86 242 189 85 194 43 72 
356 213 141 64 107 47 92 6 42 69 163 30 206 189 253 206 83 193 135 139 66 46 30 176 130 116 162 63 202 100 106 18 58 248 82 
357 165 39 174 171 81 243 79 111 193 12 108 143 95 45 22 235 111 68 9 31 199 126 194 6 72 38 113 90 96 105 172 5 144 90 
358 177 225 77 0 80 14 12 188 157 108 233 179 87 88 248 96 119 191 222 57 197 38 96 54 128 192 159 44 198 47 134 119 16 211 
359 119 96 225 131 28 126 239 5 50 70 93 42 167 213 233 133 14 174 172 110 229 44 47 132 89 245 180 223 108 196 179 227 37 148 
360 102 65 19 86 71 69 156 164 111 67 121 88 201 136 6 117 246 235 161 37 112 250 26 36 218 134 232 141 105 13 33 208 79 52 
361 38 150 121 194 58 232 6 180 64 207 60 71 68 50 50 229 88 162 224 114 198 186 249 175 71 98 188 104 50 11 157 88 161 22 
362 27 220 255 33 144 63 240 204 134 52 254 185 25 86 91 249 201 34 179 194 209 250 36 141 99 87 153 0 175 58 22 202 22 21 
363 235 166 85 219 114 219 15 113 148 41 199 240 34 144 18 214 82 227 208 119 112 51 206 9 51 125 68 74 72 90 95 51 1 180 
364 15 115 144 30 228 36 71 172 20 106 60 38 64 143 9 16 6 122 68 212 131 119 81 199 193 153 34 33 205 35 213 220 150 101 
365 250 123 138 66 39 158 172 99 197 236 242 206 252 248 72 64 204 204 184 30 147 121 183 181 154 132 216 112 96 111 213 91 234 95 
366 157 17 254 73 116 195 53 103 145 49 95 218 114 44 166 42 74 57 163 1 239 62 134 199 174 230 54 131 65 32 227 222 49 225 
367 39 166 164 92 13 53 142 108 15 0 152 181 42 226 239 205 228 222 11 106 165 185 80 220 61 146 252 32 112 46 1 152 212 165 
368 244 225 218 130 77 234 130 230 159 172 200 142 122 172 108 133 22 18 63 103 238 124 249 234 156 105 24 157 1 236 66 246 205 28 
369 120 27 6 251 1 166 167 201 52 33 118 161 167 140 179 230 243 161 98 236 139 254 86 164 155 87 144 221 77 94 249 198 121 0 
370 193 122 166 104 67 218 138 185 123 49 70 46 23 57 207 121 38 91 119 124 255 18 211 143 239 33 237 232 231 102 232 168 224 142 
371 16 36 105 154 221 228 203 35 19 226 93 226 91 131 61 210 255 60 228 210 204 211 243 185 188 218 32 164 130 0 51 147 36 156 
372 45 2 128 249 37 147 219 130 118 55 5 179 9 4 240 238 215 188 193 202 117 125 165 149 34 39 150 85 186 186 241 232 188 113 
373 225 226 5 188 100 123 243 106 46 253 110 30 235 69 218 172 16 80 42 181 229 76 220 123 161 151 54 146 127 242 3 96 212 8 
374 28 57 131 16 163 178 13 17 208 248 87 171 164 103 251 206 28 224 26 248 92 187 143 146 77 14 132 81 110 89 89 139 146 221 
375 155 53 143 168 70 95 160 157 10 68 4 5 19 32 230 45 25 66 233 168 212 54 183 88 135 37 177 225 176 67 190 75 120 77 
376 243 191 172 147 92 183 216 97 188 235 129 162 24 154 228 1 67 184 56 250 17 191 31 194 160 208 6 94 27 126 171 15 61 88 
377 162 154 15 122 251 203 101 124 110 126 23 82 127 90 11 183 84 28 119 115 222 23 67 228 118 95 99 33 110 160 121 16 58 136 
378 139 53 84 240 178 194 110 201 20 238 35 31 165 119 59 28 234 26 52 46 254 170 141 97 203 251 2 69 11 60 205 150 114 33 
379 135 36 227 245 237 248 227 16 23 137 135 83 165 113 109 217 159 107 131 44 205 79 39 207 148 51 11 97 201 125 131 80 161 102 
380 70 142 94 41 158 118 178 37 201 88 151 54 49 54 161 181 99 110 4 138 61 152 189 73 249 135 198 124 215 104 227 29 246 65 
381 71 149 183 249 186 128 81 81 182 131 136 88 56 235 198 60 117 4 212 51 77 205 186 19 74 145 123 45 175 114 110 246 7 38 
382 239 193 166 65 19 93 196 155 181 252 134 123 56 251 127 12 46 204 217 232 224 35 122 91 80 41 205 191 31 212 229 14 150 139 
383 79 169 232 19 68 157 15 202 25 71 197 152 83 244 101 45 220 69 80 86 160 161 127 110 96 158 66 69 173 216 208 252 129 185 
384 16 197 86 31 143 111 103 85 8 186 73 109 231 37 178 56 124 82 217 251 192 57 154 3 126 71 219 78 67 93 7 83 34 94 
385 115 178 205 218 7 213 148 80 66 124 117 244 180 241 71 141 237 7 198 135 10 68 206 230 146 17 67 154 101 101 248 216 23 197 
386 178 30 155 70 110 221 194 228 210 118 213 25 3 194 32 201 73 43 13 23 17 160 41 84 58 142 185 50 102 209 247 24 239 146 
387 94 94 112 33 66 66 151 23 91 155 218 123 100 35 166 114 59 183 18 100 11 76 242 197 126 88 150 117 112 133 8 206 227 120 
388 239 37 186 135 61 21 34 23 144 134 58 55 248 117 238 10 217 250 86 203 191 212 35 85 74 147 218 82 98 190 202 81 227 132 
389 216 32 153 250 55 41 129 114 96 121 231 79 132 193 73 218 140 8 175 176 93 249 67 55 75 165 245 21 247 217 153 207 249 50 
390 202 49 91 75 163 188 196 138 11 72 75 84 35 216 92 210 136 185 203 203 240 22 113 230 43 104 191 196 55 184 246 1 233 81 
391 76 140 13 17 23 24 89 98 108 124 58 200 78 194 129 25 142 114 47 255 88 90 103 23 30 158 207 20 160 185 102 236 69 115 
392 253 92 140 87 191 248 211 249 193 34 188 66 59 74 180 107 73 12 197 176 35 228 78 243 248 238 172 94 219 241 210 216 78 94 
393 47 13 86 3 6 23 37 194 90 96 12 14 203 85 27 145 5 62 117 84 49 109 66 221 204 29 207 158 246 29 252 37 42 82 
394 40 48 106 77 243 196 174 255 210 121 85 237 10 90 44 127 174 93 237 241 59 185 14 10 87 4 39 83 42 81 165 82 129 15 
395 160 116 211 78 116 166 199 201 147 210 35 191 81 210 29 62 195 88 247 209 98 78 214 137 161 0 218 71 82 91 86 242 208 42 
396 64 68 208 8 13 99 218 48 35 43 2 64 106 197 152 97 151 250 176 109 131 81 109 93 152 191 184 239 178 136 25 242 204 233 
397 250 217 76 212 10 111 0 12 175 106 210 71 203 105 65 123 214 196 205 67 33 101 2 218 84 180 98 109 167 47 86 161 8 163 
398 118 18 18 118 31 194 224 241 9 171 90 75 39 48 15 244 115 49 89 117 11 174 42 109 27 209 156 114 114 165 21 232 183 39 
399 94 214 233 62 199 243 234 33 62 17 81 77 5 196 126 94 58 137 12 100 247 40 53 147 154 167 56 175 144 240 214 238 198 192 
400 45 142 179 23 175 241 40 1 62 45 197 189 139 255 70 152 99 61 192 152 209 90 64 9 9 208 249 223 190 192 159 235 78 82 
401 2 253 67 42 254 130 87 196 63 227 195 133 123 39 195 59 191 148 149 255 157 158 207 151 125 142 87 29 121 165 111 124 162 179 
402 166 161 53 254 101 116 225 40 249 92 79 188 151 15 80 44 14 238 202 222 133 71 108 220 100 229 129 212 97 35 135 8 196 188 
403 6 41 48 231 82 41 67 161 230 218 176 54 6 191 36 208 157 169 23 9 133 124 238 6 80 80 42 215 88 238 147 94 24 195 
404 69 106 236 136 11 210 98 188 9 104 123 45 56 24 215 79 33 92 203 15 99 27 95 141 242 183 123 133 21 147 72 90 253 53 
405 226 9 7 68 197 16 172 64 62 228 88 21 52 121 113 255 136 212 27 232 97 13 159 221 147 181 112 219 15 110 16 242 119 24 
406 54 60 40 227 124 102 199 212 123 251 77 237 251 213 193 22 189 35 35 93 0 182 18 112 146 33 222 162 19 85 186 74 145 227 
407 45 13 73 244 225 197 240 46 178 235 4 115 1 193 150 36 30 150 219 48 7 109 82 229 15 101 59 202 175 204 173 220 218 246 
408 209 187 187 193 234 109 172 238 225 173 175 119 209 206 14 172 254 21 25 80 250 41 182 53 243 101 2 160 66 220 150 19 151 82 
409 212 129 191 128 111 160 45 31 24 254 237 38 171 235 59 196 60 53 237 242 107 224 87 109 128 153 73 23 172 224 105 128 98 40 
410 0 209 201 45 240 225 44 221 7 215 201 66 155 5 119 137 247 226 105 78 79 234 232 152 1 148 121 106 21 219 146 21 172 91 
411 67 157 60 111 122 67 70 67 133 225 72 253 106 63 223 212 142 47 190 118 199 191 10 64 41 31 27 187 53 200 23 120 101 83 
412 231 223 151 45 35 28 14 107 25 121 171 249 77 57 40 11 175 239 202 185 48 243 217 75 174 14 19 197 134 120 25 109 88 176 
413 154 123 204 168 230 230 33 145 223 110 202 7 121 121 246 67 51 38 54 12 114 229 26 133 170 160 254 195 13 86 115 167 209 64 
414 79 183 38 113 73 5 223 19 12 89 141 2 156 192 41 211 204 155 184 230 32 98 134 30 38 147 116 153 58 69 217 137 253 255 
415 250 70 4 218 89 16 51 230 19 207 166 60 162 114 215 90 88 247 189 222 22 227 113 138 124 171 208 86 53 205 85 47 19 90 
416 9 108 106 60 83 125 12 249 185 174 108 144 9 196 136 198 163 158 169 20 40 37 192 248 123 245 197 209 36 216 43 46 69 149 
417 106 152 19 118 145 204 37 253 93 46 194 229 244 101 131 157 121 171 194 57 164 62 46 105 15 83 66 58 129 135 207 235 31 226 
418 98 176 175 135 174 12 181 112 241 169 213 116 70 78 31 8 136 195 70 182 45 85 9 111 143 138 246 95 118 21 65 216 197 240 
419 95 115 252 20 227 237 189 184 97 3 7 129 11 143 68 82 69 113 167 79 224 55 217 214 150 79 235 215 39 177 200 134 36 196 
420 154 8 178 87 192 19 90 199 148 102 86 217 184 156 74 95 235 43 150 196 1 44 20 237 4 59 158 204 194 194 144 92 202 66 
421 180 139 86 14 82 234 116 169 195 44 69 14 140 48 57 34 244 58 79 8 39 83 68 197 31 6 136 175 98 82 242 22 221 72 
422 37 48 50 153 217 246 198 30 4 82 78 61 116 66 119 195 75 159 22 143 100 53 149 236 229 247 63 215 14 28 31 51 76 81 
423 204 37 71 146 67 75 228 145 136 89 212 0 28 31 159 51 174 3 104 67 240 77 58 47 36 72 75 67 123 152 149 72 189 220 
424 218 1 40 191 146 176 24 102 176 52 133 79 103 51 83 208 118 67 29 177 114 66 249 189 133 117 85 26 189 19 247 151 20 31 
425 86 166 207 110 13 128 163 146 207 10 198 34 218 60 101 248 237 215 58 231 149 191 92 234 218 25 253 209 176 17 240 7 184 191 
426 117 197 63 24 87 15 35 29 49 253 90 151 245 71 110 47 46 3 239 138 238 201 163 235 154 84 253 138 91 181 73 208 122 137 
427 233 209 152 12 239 201 9 73 96 255 144 207 46 191 210 29 73 192 230 237 172 128 65 169 10 156 94 84 108 216 221 85 169 117 
428 97 152 62 107 225 159 106 114 110 152 49 64 182 122 1 156 103 173 29 168 86 39 68 180 123 177 140 88 6 53 205 104 206 12 
429 211 175 171 61 33 25 213 82 89 139 205 90 40 52 7 69 221 93 108 33 17 232 210 157 64 217 211 14 65 161 26 20 80 197 
430 81 114 222 38 196 55 178 145 146 218 198 153 31 163 247 139 196 8 115 151 166 180 112 121 194 177 26 220 197 106 161 22 220 127 
431 60 161 182 238 50 72 200 248 226 231 155 217 115 96 225 230 247 135 154 103 0 92 24 26 56 221 133 217 243 97 88 47 2 15 
432 30 53 87 230 45 57 206 201 18 65 41 244 39 32 123 194 135 124 30 159 150 87 124 27 48 111 125 137 158 127 152 188 180 239 
433 163 226 41 113 171 59 178 212 47 217 244 171 155 123 39 186 26 189 17 150 217 65 5 86 202 163 213 98 96 138 82 3 108 123 
434 116 23 182 38 235 230 255 223 145 155 90 184 85 116 117 102 10 78 167 15 164 114 178 122 212 18 4 38 21 112 161 137 135 88 
435 175 114 62 175 81 207 74 171 135 159 31 252 5 41 75 172 56 239 30 234 105 243 253 109 25 18 221 187 156 100 19 75 214 81 
436 250 39 32 68 210 167 227 241 163 232 26 238 149 82 222 179 61 71 166 58 181 192 76 146 123 232 247 142 52 205 223 46 245 255 
437 115 199 166 86 185 73 63 211 56 212 38 22 135 99 93 46 157 18 238 233 165 105 210 156 247 6 105 214 52 94 213 167 38 123 
438 254 223 196 61 178 252 17 216 18 152 59 112 198 216 130 180 194 39 29 148 195 20 154 45 234 206 139 191 118 177 58 116 144 255 
439 177 67 251 194 27 14 90 87 126 33 47 0 213 241 40 243 133 235 7 31 24 242 238 164 177 100 85 236 216 230 235 137 41 230 
440 75 68 244 165 155 114 198 203 115 156 188 155 143 66 134 150 97 159 136 79 67 58 179 152 38 139 126 17 20 167 247 95 236 236 
441 5 135 94 203 82 209 103 15 108 246 81 243 141 178 146 21 2 213 79 181 109 117 65 236 134 85 147 126 181 127 106 186 7 200 
442 133 89 154 237 104 6 227 185 249 112 108 139 134 110 96 213 35 206 75 100 186 209 186 77 79 111 205 185 41 212 130 174 45 28 
443 155 150 34 127 79 28 239 187 167 117 41 8 75 77 214 150 177 144 103 107 221 183 218 170 112 3 126 242 178 172 14 77 66 49 
444 204 145 77 188 77 244 49 118 252 124 195 210 18 117 98 122 224 64 49 187 234 161 190 105 148 112 21 162 190 87 211 138 232 32 
445 70 53 21 120 172 17 244 111 228 7 228 70 129 197 134 178 128 113 83 62 218 231 175 239 138 109 70 93 247 46 126 62 100 147 
446 182 16 164 170 127 136 177 100 207 50 41 85 228 169 198 56 231 160 31 150 143 169 3 213 7 251 4 133 57 104 24 239 120 188 
447 153 247 69 75 91 20 125 132 105 98 45 48 154 21 208 185 171 96 99 175 53 106 170 57 239 227 161 7 210 25 195 107 17 8 
448 182 108 28 52 241 134 150 30 182 48 51 134 233 223 230 76 142 28 182 56 85 165 27 247 172 237 16 112 88 33 120 15 142 149 
449 67 127 27 217 157 209 9 209 87 242 176 62 63 62 90 245 118 175 155 145 166 71 126 183 183 214 216 48 229 102 197 40 229 224 
450 1 131 177 10 84 8 253 4 70 60 66 160 49 184 80 204 73 246 20 199 173 203 157 134 251 131 236 192 171 210 160 173 85 81 
451 183 169 90 180 173 160 240 239 65 34 167 145 238 240 135 2 183 53 206 84 187 201 215 167 138 131 121 42 48 206 124 231 119 214 
452 156 36 118 140 19 183 174 186 72 157 170 208 159 97 5 109 182 192 55 141 103 193 16 225 235 64 175 103 40 39 61 196 75 180 
453 80 95 107 255 25 180 156 196 132 59 37 137 169 219 73 224 105 176 161 121 145 140 186 65 244 226 104 49 166 179 229 246 18 81 
454 245 44 5 145 240 137 205 21 18 118 241 91 86 90 11 247 211 157 131 141 222 119 111 70 169 21 249 142 12 12 223 1 56 228 
455 147 40 109 96 61 127 214 46 218 44 136 230 35 92 131 166 233 97 30 89 167 199 110 160 85 122 172 53 124 228 25 15 12 135 
456 111 74 6 69 120 225 113 1 199 148 93 74 58 70 171 88 159 82 31 14 242 117 136 159 170 4 131 195 19 144 74 130 218 81 
457 199 82 50 56 83 249 204 176 67 7 247 238 95 150 64 127 164 50 244 45 209 158 49 85 97 69 229 172 199 191 253 143 17 47 
458 199 101 40 148 21 107 155 12 89 250 163 153 121 71 203 109 116 157 11 166 242 109 235 215 25 178 150 22 65 167 69 9 12 109 
459 157 34 216 56 46 49 50 209 202 172 25 149 25 141 50 37 51 36 146 30 251 171 209 145 193 18 57 6 27 69 115 184 103 75 
460 240 150 124 35 103 70 207 128 219 232 14 14 13 65 50 159 96 46 74 49 191 11 67 248 17 95 62 132 23 165 207 8 59 75 
461 43 163 145 250 35 109 226 49 123 240 115 173 143 211 219 218 4 155 229 71 147 247 166 209 123 190 119 75 198 178 150 241 85 40 
462 235 121 149 205 170 16 189 29 189 77 240 153 39 244 52 12 60 199 3 226 153 127 160 16 202 102 194 96 87 24 136 66 145 29 
463 16 59 45 205 89 235 26 73 132 65 62 184 78 122 127 81 92 24 208 253 40 154 99 235 251 187 3 131 253 148 161 13 207 206 
464 219 40 185 245 114 61 55 176 245 133 42 117 214 134 141 167 131 182 65 231 161 60 162 164 192 159 56 97 173 7 47 136 48 233 
465 125 162 38 180 82 28 57 124 145 16 2 30 183 134 212 248 109 117 53 15 25 245 174 81 86 91 89 133 227 137 110 97 43 149 
466 21 125 177 79 249 66 95 251 96 22 129 53 14 238 170 67 253 196 56 172 21 142 7 110 20 235 247 130 76 34 23 97 159 200 
467 176 152 10 15 148 107 37 21 160 52 4 74 119 1 14 176 173 36 62 181 146 82 160 138 213 236 172 236 77 76 181 254 228 191 
468 13 120 42 51 142 202 103 146 21 222 147 35 142 65 71 205 246 218 31 150 100 244 130 16 225 207 92 150 205 65 85 219 185 128 
469 14 71 74 117 217 95 83 109 131 226 174 202 175 164 164 206 58 8 195 188 25 164 139 117 58 89 182 143 52 112 15 66 183 90 
470 183 145 185 10 254 60 236 172 7 155 80 171 106 138 180 45 70 205 209 209 66 11 42 249 154 94 105 170 160 32 4 87 177 189 
471 98 175 250 78 91 1 234 171 172 84 53 96 129 123 45 82 77 112 93 119 105 247 214 210 161 118 242 165 206 164 99 48 83 93 
472 126 175 94 104 90 10 188 144 107 61 11 152 143 88 8 236 208 113 228 166 67 133 28 54 43 234 218 142 26 45 235 153 220 73 
473 1 55 83 190 199 190 251 210 87 139 43 95 119 251 209 91 161 20 225 189 74 12 168 36 154 194 82 133 91 46 206 93 101 33 
474 27 44 224 22 255 55 161 42 150 25 37 103 116 198 124 85 131 198 97 43 235 251 238 61 128 73 107 78 166 209 112 193 253 80 
475 216 252 135 121 38 29 146 75 133 7 17 1 92 149 199 190 192 178 185 174 239 58 248 91 136 158 44 248 96 41 72 56 38 207 
476 177 76 237 68 152 114 75 169 115 167 62 58 101 255 237 31 173 220 89 165 55 225 68 99 218 164 141 34 220 179 242 141 255 223 
477 209 151 81 28 65 196 196 127 254 41 126 235 72 44 200 161 209 255 131 21 99 93 185 240 127 149 163 113 35 162 80 244 58 161 
478 17 123 101 213 250 100 254 121 79 71 165 23 232 118 23 107 140 122 200 69 106 72 219 13 185 254 175 10 242 233 171 3 100 17 
479 216 95 117 215 216 196 30 125 220 6 243 243 114 127 109 58 197 215 130 160 228 60 158 147 70 144 125 241 148 225 2 108 64 119 
480 67 24 60 97 149 24 104 137 11 218 8 120 20 205 79 151 109 51 211 11 198 25 156 67 10 48 37 13 156 101 132 224 126 192 
481 65 19 216 169 156 227 131 165 91 152 114 170 47 224 221 2 235 164 27 135 231 37 183 12 50 84 114 183 52 240 119 117 3 80 
482 31 160 51 162 69 143 58 183 57 105 151 23 107 131 187 134 10 162 172 194 175 222 22 33 149 74 17 13 191 20 93 222 180 144 
483 129 249 31 187 177 89 37 72 112 144 203 43 23 214 205 195 152 124 161 174 157 55 248 174 68 183 195 161 150 119 49 23 113 81 
484 210 34 170 247 106 26 136 54 69 159 12 18 98 164 143 3 82 44 58 74 219 126 1 158 31 151 21 81 174 134 162 129 168 76 
485 120 19 102 0 73 171 159 85 189 1 249 76 5 75 121 63 149 84 190 150 242 221 46 7 46 220 142 208 93 54 28 214 73 130 
486 214 146 45 118 231 235 119 224 55 124 43 176 188 192 4 122 87 246 87 133 254 134 97 140 86 191 194 115 149 12 245 107 158 35 
487 225 134 14 89 102 69 213 146 246 145 82 250 11 169 241 99 46 239 233 144 123 63 79 61 178 228 73 168 79 232 203 49 110 217 
488 138 212 30 95 102 20 241 185 15 252 98 0 95 145 239 72 33 106 136 112 167 58 84 241 226 163 217 173 212 71 134 94 27 165 
489 190 130 185 175 59 200 171 157 200 11 46 183 83 79 33 219 191 201 22 19 186 248 183 147 166 139 218 44 234 245 209 168 119 139 
490 87 178 83 2 80 28 13 126 211 97 206 245 60 141 190 82 161 120 75 88 11 241 227 229 29 205 218 239 117 82 122 204 4 205 
491 207 84 233 220 211 189 61 161 178 122 46 112 204 207 232 23 39 243 8 11 216 38 216 178 21 78 4 143 26 9 92 233 93 70 
492 198 48 3 3 209 181 125 0 37 74 207 13 97 247 0 106 2 216 144 218 138 165 40 143 52 67 152 144 44 245 214 242 38 217 
493 246 247 142 115 247 179 189 199 192 31 190 192 137 192 152 25 154 35 190 195 178 242 6 74 130 50 63 89 37 101 50 27 93 193 
494 142 84 116 76 27 53 107 217 245 244 153 142 13 52 177 203 247 99 189 253 173 63 47 236 152 84 82 203 111 175 140 254 3 0 
495 74 31 53 181 248 43 169 146 185 182 198 106 129 189 205 62 186 122 125 233 102 22 62 184 225 173 103 109 171 107 109 245 138 163 
496 170 130 206 83 20 135 9 218 241 138 151 190 200 81 56 70 59 158 92 121 87 61 38 190 170 210 41 23 199 179 186 114 54 136 
497 197 74 15 207 37 0 89 188 190 34 14 246 104 73 149 196 194 236 1 232 170 171 186 212 194 130 135 125 244 189 5 185 8 21 
498 136 45 21 226 233 212 4 247 202 108 64 95 48 2 75 49 235 246 220 165 202 158 39 81 27 27 15 33 213 23 54 93 68 75 
499 63 45 31 67 37 234 175 101 73 223 104 149 16 83 139 236 248 85 139 32 166 166 59 181 199 16 204 253 110 16 73 173 62 104 
500 241 99 82 160 200 156 128 48 49 144 131 188 125 124 17 8 156 183 174 215 109 118 232 57 115 86 74 188 3 136 37 244 235 119 
501 149 179 19 21 228 68 165 103 0 34 227 17 42 127 201 217 87 54 79 63 111 194 149 185 127 152 65 164 141 44 27 34 224 47 
502 55 196 115 220 43 116 255 15 133 41 142 78 2 229 132 81 36 244 20 185 173 147 82 239 55 223 27 82 1 251 129 56 191 245 
503 20 235 105 19 250 238 61 136 61 63 110 193 145 146 181 165 76 99 56 158 82 111 125 109 193 126 105 67 182 40 56 202 19 161 
504 222 13 143 27 150 204 90 4 142 235 150 67 144 226 166 200 128 248 55 253 102 249 123 207 60 49 247 116 252 11 21 218 24 164 
505 245 174 113 79 178 255 59 73 66 203 43 233 148 172 225 203 169 71 196 37 22 0 86 14 116 82 25 137 44 49 46 33 224 159 
506 113 146 158 172 219 224 119 7 201 11 179 171 215 92 242 155 129 9 156 216 23 16 42 48 154 87 97 200 120 65 103 233 212 5 
507 149 175 229 13 182 175 24 105 90 239 198 76 139 71 85 39 31 108 55 74 156 209 161 254 153 25 63 0 3 19 5 152 195 235 
508 165 121 154 190 227 244 173 169 64 56 240 150 95 16 2 151 90 159 104 251 157 2 20 220 2 23 240 8 176 179 243 85 44 141 
509 19 15 129 193 184 193 249 169 87 89 185 90 240 19 249 88 14 150 90 34 114 93 58 98 101 234 21 88 63 66 229 83 81 102 
510 20 10 39 13 179 127 102 108 217 86 127 210 175 141 104 9 175 218 102 233 61 203 211 82 35 19 148 8 102 230 110 122 240 150 
511 135 163 21 238 15 238 68 142 192 243 27 40 253 202 2 99 180 63 47 135 146 82 154 38 91 0 12 201 122 252 95 2 159 116 
