~~~~~~~~~~~~~~~~~~~~~~~~~~~~~~~~~~~~~~~~~~~~~~~~~~~~~
Input: 819200.txt
~~~~~~~~~~~~~~~~~~~~~~~~~~~~~~~~~~~~~~~~~~~~~~~~~~~~~

ABCD : WGSIZE : 2048
ABCD : INPUT : 819200.txt
ABCD : NUM_I : 3
ABCD : ITERATION : 1
WG size of kernel_swap = 2048, WG size of kernel_kmeans = 2048 

I/O completed

Number of objects: 819200
Number of features: 34
ravi allocate called 
n_points= 819200 
ABCD : KMEANS : KS : 359 microseconds
ravi kmeansOCL called 
n_points= 819200 
ABCD : KMEANS : KC : 2389923 microseconds
ravi kmeansOCL called 
n_points= 819200 
ABCD : KMEANS : KC : 2389855 microseconds
ravi kmeansOCL called 
n_points= 819200 
ABCD : KMEANS : KC : 2389574 microseconds
ravi kmeansOCL called 
n_points= 819200 
ABCD : KMEANS : KC : 2389678 microseconds
ravi kmeansOCL called 
n_points= 819200 
ABCD : KMEANS : KC : 2389709 microseconds
ravi kmeansOCL called 
n_points= 819200 
ABCD : KMEANS : KC : 2389455 microseconds
ravi kmeansOCL called 
n_points= 819200 
ABCD : KMEANS : KC : 2389356 microseconds
ravi kmeansOCL called 
n_points= 819200 
ABCD : KMEANS : KC : 2389656 microseconds
ravi kmeansOCL called 
n_points= 819200 
ABCD : KMEANS : KC : 2389595 microseconds
ravi kmeansOCL called 
n_points= 819200 
ABCD : KMEANS : KC : 2389437 microseconds
ravi kmeansOCL called 
n_points= 819200 
ABCD : KMEANS : KC : 2389318 microseconds
ravi kmeansOCL called 
n_points= 819200 
ABCD : KMEANS : KC : 2389632 microseconds
ravi kmeansOCL called 
n_points= 819200 
ABCD : KMEANS : KC : 2389631 microseconds
ravi kmeansOCL called 
n_points= 819200 
ABCD : KMEANS : KC : 2389565 microseconds
ravi kmeansOCL called 
n_points= 819200 
ABCD : KMEANS : KC : 2389470 microseconds
ravi kmeansOCL called 
n_points= 819200 
ABCD : KMEANS : KC : 2389548 microseconds
ravi kmeansOCL called 
n_points= 819200 
ABCD : KMEANS : KC : 2389547 microseconds
ravi kmeansOCL called 
n_points= 819200 
ABCD : KMEANS : KC : 2389765 microseconds
ravi kmeansOCL called 
n_points= 819200 
ABCD : KMEANS : KC : 2389466 microseconds
ravi kmeansOCL called 
n_points= 819200 
ABCD : KMEANS : KC : 2389515 microseconds
iterated 20 times

================= Centroid Coordinates =================
0: 175.36 2209991.00 0.00 0.00 0.00 0.00 0.00 0.00 0.00 0.00 0.00 0.00 0.00 0.00 0.00 1.71 1.64 0.00 0.00 0.07 0.07 0.98 0.05 0.00 115.36 54.50 0.34 0.05 0.34 0.03 0.07 0.00 0.02 0.00

1: 5051.68 5134229.50 0.00 0.00 0.00 2.71 0.00 0.00 0.00 0.00 0.00 0.00 0.00 0.00 0.00 1.02 1.46 0.02 0.02 0.00 0.00 0.99 0.02 0.06 31.59 35.05 0.89 0.02 0.93 0.10 0.01 0.02 0.00 0.00

2: 56.28 715.76 230.61 0.01 0.00 0.03 0.00 0.00 0.00 0.00 0.01 0.00 0.00 0.00 0.00 376.83 337.55 0.16 0.16 0.06 0.06 0.80 0.02 0.02 244.34 192.23 0.76 0.03 0.69 0.00 0.16 0.16 0.06 0.06

3: 1985.80 701.20 3525758.75 0.00 0.00 0.00 0.60 3.60 0.20 0.40 1.80 0.00 0.00 0.00 0.00 1.00 1.00 0.00 0.00 0.00 0.00 1.00 0.00 0.00 164.20 69.40 0.31 0.04 0.01 0.10 0.15 0.17 0.15 0.00

4: 931.24 655.00 767574.38 0.00 0.00 0.00 0.00 13.38 0.00 0.05 13.24 0.05 0.00 0.00 0.00 1.43 2.05 0.02 0.00 0.00 0.00 1.00 0.00 0.01 159.29 55.38 0.26 0.03 0.01 0.01 0.02 0.02 0.01 0.03

Number of Iteration: 1
ABCD : END


ABCD : WGSIZE : 2048
ABCD : INPUT : 819200.txt
ABCD : NUM_I : 3
ABCD : ITERATION : 2
WG size of kernel_swap = 2048, WG size of kernel_kmeans = 2048 

I/O completed

Number of objects: 819200
Number of features: 34
ravi allocate called 
n_points= 819200 
ABCD : KMEANS : KS : 360 microseconds
ravi kmeansOCL called 
n_points= 819200 
ABCD : KMEANS : KC : 2389604 microseconds
ravi kmeansOCL called 
n_points= 819200 
ABCD : KMEANS : KC : 2389867 microseconds
ravi kmeansOCL called 
n_points= 819200 
ABCD : KMEANS : KC : 2389604 microseconds
ravi kmeansOCL called 
n_points= 819200 
ABCD : KMEANS : KC : 2389738 microseconds
ravi kmeansOCL called 
n_points= 819200 
ABCD : KMEANS : KC : 2389936 microseconds
ravi kmeansOCL called 
n_points= 819200 
ABCD : KMEANS : KC : 2389733 microseconds
ravi kmeansOCL called 
n_points= 819200 
ABCD : KMEANS : KC : 2389624 microseconds
ravi kmeansOCL called 
n_points= 819200 
ABCD : KMEANS : KC : 2389710 microseconds
ravi kmeansOCL called 
n_points= 819200 
ABCD : KMEANS : KC : 2389920 microseconds
ravi kmeansOCL called 
n_points= 819200 
ABCD : KMEANS : KC : 2390128 microseconds
ravi kmeansOCL called 
n_points= 819200 
ABCD : KMEANS : KC : 2389999 microseconds
ravi kmeansOCL called 
n_points= 819200 
ABCD : KMEANS : KC : 2389814 microseconds
ravi kmeansOCL called 
n_points= 819200 
ABCD : KMEANS : KC : 2389787 microseconds
ravi kmeansOCL called 
n_points= 819200 
ABCD : KMEANS : KC : 2389739 microseconds
ravi kmeansOCL called 
n_points= 819200 
ABCD : KMEANS : KC : 2389716 microseconds
ravi kmeansOCL called 
n_points= 819200 
ABCD : KMEANS : KC : 2389841 microseconds
ravi kmeansOCL called 
n_points= 819200 
ABCD : KMEANS : KC : 2389791 microseconds
ravi kmeansOCL called 
n_points= 819200 
ABCD : KMEANS : KC : 2389781 microseconds
ravi kmeansOCL called 
n_points= 819200 
ABCD : KMEANS : KC : 2389561 microseconds
ravi kmeansOCL called 
n_points= 819200 
ABCD : KMEANS : KC : 2389558 microseconds
iterated 20 times

================= Centroid Coordinates =================
0: 175.36 2209991.00 0.00 0.00 0.00 0.00 0.00 0.00 0.00 0.00 0.00 0.00 0.00 0.00 0.00 1.71 1.64 0.00 0.00 0.07 0.07 0.98 0.05 0.00 115.36 54.50 0.34 0.05 0.34 0.03 0.07 0.00 0.02 0.00

1: 5051.68 5134229.50 0.00 0.00 0.00 2.71 0.00 0.00 0.00 0.00 0.00 0.00 0.00 0.00 0.00 1.02 1.46 0.02 0.02 0.00 0.00 0.99 0.02 0.06 31.59 35.05 0.89 0.02 0.93 0.10 0.01 0.02 0.00 0.00

2: 56.28 715.76 230.61 0.01 0.00 0.03 0.00 0.00 0.00 0.00 0.01 0.00 0.00 0.00 0.00 376.83 337.55 0.16 0.16 0.06 0.06 0.80 0.02 0.02 244.34 192.23 0.76 0.03 0.69 0.00 0.16 0.16 0.06 0.06

3: 1985.80 701.20 3525758.75 0.00 0.00 0.00 0.60 3.60 0.20 0.40 1.80 0.00 0.00 0.00 0.00 1.00 1.00 0.00 0.00 0.00 0.00 1.00 0.00 0.00 164.20 69.40 0.31 0.04 0.01 0.10 0.15 0.17 0.15 0.00

4: 931.24 655.00 767574.38 0.00 0.00 0.00 0.00 13.38 0.00 0.05 13.24 0.05 0.00 0.00 0.00 1.43 2.05 0.02 0.00 0.00 0.00 1.00 0.00 0.01 159.29 55.38 0.26 0.03 0.01 0.01 0.02 0.02 0.01 0.03

Number of Iteration: 1
ABCD : END


ABCD : WGSIZE : 2048
ABCD : INPUT : 819200.txt
ABCD : NUM_I : 3
ABCD : ITERATION : 3
WG size of kernel_swap = 2048, WG size of kernel_kmeans = 2048 

I/O completed

Number of objects: 819200
Number of features: 34
ravi allocate called 
n_points= 819200 
ABCD : KMEANS : KS : 359 microseconds
ravi kmeansOCL called 
n_points= 819200 
ABCD : KMEANS : KC : 2389580 microseconds
ravi kmeansOCL called 
n_points= 819200 
ABCD : KMEANS : KC : 2389753 microseconds
ravi kmeansOCL called 
n_points= 819200 
ABCD : KMEANS : KC : 2389636 microseconds
ravi kmeansOCL called 
n_points= 819200 
ABCD : KMEANS : KC : 2389757 microseconds
ravi kmeansOCL called 
n_points= 819200 
ABCD : KMEANS : KC : 2389681 microseconds
ravi kmeansOCL called 
n_points= 819200 
ABCD : KMEANS : KC : 2389781 microseconds
ravi kmeansOCL called 
n_points= 819200 
ABCD : KMEANS : KC : 2389666 microseconds
ravi kmeansOCL called 
n_points= 819200 
ABCD : KMEANS : KC : 2389713 microseconds
ravi kmeansOCL called 
n_points= 819200 
ABCD : KMEANS : KC : 2389620 microseconds
ravi kmeansOCL called 
n_points= 819200 
ABCD : KMEANS : KC : 2389724 microseconds
ravi kmeansOCL called 
n_points= 819200 
ABCD : KMEANS : KC : 2389795 microseconds
ravi kmeansOCL called 
n_points= 819200 
ABCD : KMEANS : KC : 2389745 microseconds
ravi kmeansOCL called 
n_points= 819200 
ABCD : KMEANS : KC : 2390065 microseconds
ravi kmeansOCL called 
n_points= 819200 
ABCD : KMEANS : KC : 2389514 microseconds
ravi kmeansOCL called 
n_points= 819200 
ABCD : KMEANS : KC : 2389684 microseconds
ravi kmeansOCL called 
n_points= 819200 
ABCD : KMEANS : KC : 2389834 microseconds
ravi kmeansOCL called 
n_points= 819200 
ABCD : KMEANS : KC : 2389602 microseconds
ravi kmeansOCL called 
n_points= 819200 
ABCD : KMEANS : KC : 2389595 microseconds
ravi kmeansOCL called 
n_points= 819200 
ABCD : KMEANS : KC : 2389538 microseconds
ravi kmeansOCL called 
n_points= 819200 
ABCD : KMEANS : KC : 2389663 microseconds
iterated 20 times

================= Centroid Coordinates =================
0: 175.36 2209991.00 0.00 0.00 0.00 0.00 0.00 0.00 0.00 0.00 0.00 0.00 0.00 0.00 0.00 1.71 1.64 0.00 0.00 0.07 0.07 0.98 0.05 0.00 115.36 54.50 0.34 0.05 0.34 0.03 0.07 0.00 0.02 0.00

1: 5051.68 5134229.50 0.00 0.00 0.00 2.71 0.00 0.00 0.00 0.00 0.00 0.00 0.00 0.00 0.00 1.02 1.46 0.02 0.02 0.00 0.00 0.99 0.02 0.06 31.59 35.05 0.89 0.02 0.93 0.10 0.01 0.02 0.00 0.00

2: 56.28 715.76 230.61 0.01 0.00 0.03 0.00 0.00 0.00 0.00 0.01 0.00 0.00 0.00 0.00 376.83 337.55 0.16 0.16 0.06 0.06 0.80 0.02 0.02 244.34 192.23 0.76 0.03 0.69 0.00 0.16 0.16 0.06 0.06

3: 1985.80 701.20 3525758.75 0.00 0.00 0.00 0.60 3.60 0.20 0.40 1.80 0.00 0.00 0.00 0.00 1.00 1.00 0.00 0.00 0.00 0.00 1.00 0.00 0.00 164.20 69.40 0.31 0.04 0.01 0.10 0.15 0.17 0.15 0.00

4: 931.24 655.00 767574.38 0.00 0.00 0.00 0.00 13.38 0.00 0.05 13.24 0.05 0.00 0.00 0.00 1.43 2.05 0.02 0.00 0.00 0.00 1.00 0.00 0.01 159.29 55.38 0.26 0.03 0.01 0.01 0.02 0.02 0.01 0.03

Number of Iteration: 1
ABCD : END


~~~~~~~~~~~~~~~~~~~~~~~~~~~~~~~~~~~~~~~~~~~~~~~~~~~~~
Input: 819200.txt
~~~~~~~~~~~~~~~~~~~~~~~~~~~~~~~~~~~~~~~~~~~~~~~~~~~~~

ABCD : WGSIZE : 4096
ABCD : INPUT : 819200.txt
ABCD : NUM_I : 3
ABCD : ITERATION : 1
WG size of kernel_swap = 4096, WG size of kernel_kmeans = 4096 

I/O completed

Number of objects: 819200
Number of features: 34
ravi allocate called 
n_points= 819200 
ABCD : KMEANS : KS : 363 microseconds
ravi kmeansOCL called 
n_points= 819200 
ABCD : KMEANS : KC : 2492989 microseconds
ravi kmeansOCL called 
n_points= 819200 
ABCD : KMEANS : KC : 2494933 microseconds
ravi kmeansOCL called 
n_points= 819200 
ABCD : KMEANS : KC : 2494175 microseconds
ravi kmeansOCL called 
n_points= 819200 
ABCD : KMEANS : KC : 2493163 microseconds
ravi kmeansOCL called 
n_points= 819200 
ABCD : KMEANS : KC : 2493089 microseconds
ravi kmeansOCL called 
n_points= 819200 
ABCD : KMEANS : KC : 2491862 microseconds
ravi kmeansOCL called 
n_points= 819200 
ABCD : KMEANS : KC : 2492205 microseconds
ravi kmeansOCL called 
n_points= 819200 
ABCD : KMEANS : KC : 2493690 microseconds
ravi kmeansOCL called 
n_points= 819200 
ABCD : KMEANS : KC : 2493825 microseconds
ravi kmeansOCL called 
n_points= 819200 
ABCD : KMEANS : KC : 2494236 microseconds
ravi kmeansOCL called 
n_points= 819200 
ABCD : KMEANS : KC : 2495053 microseconds
ravi kmeansOCL called 
n_points= 819200 
ABCD : KMEANS : KC : 2494088 microseconds
ravi kmeansOCL called 
n_points= 819200 
ABCD : KMEANS : KC : 2492720 microseconds
ravi kmeansOCL called 
n_points= 819200 
ABCD : KMEANS : KC : 2492907 microseconds
ravi kmeansOCL called 
n_points= 819200 
ABCD : KMEANS : KC : 2492693 microseconds
ravi kmeansOCL called 
n_points= 819200 
ABCD : KMEANS : KC : 2493160 microseconds
ravi kmeansOCL called 
n_points= 819200 
ABCD : KMEANS : KC : 2494373 microseconds
ravi kmeansOCL called 
n_points= 819200 
ABCD : KMEANS : KC : 2493314 microseconds
ravi kmeansOCL called 
n_points= 819200 
ABCD : KMEANS : KC : 2493846 microseconds
ravi kmeansOCL called 
n_points= 819200 
ABCD : KMEANS : KC : 2494799 microseconds
iterated 20 times

================= Centroid Coordinates =================
0: 175.36 2209991.00 0.00 0.00 0.00 0.00 0.00 0.00 0.00 0.00 0.00 0.00 0.00 0.00 0.00 1.71 1.64 0.00 0.00 0.07 0.07 0.98 0.05 0.00 115.36 54.50 0.34 0.05 0.34 0.03 0.07 0.00 0.02 0.00

1: 5051.68 5134229.50 0.00 0.00 0.00 2.71 0.00 0.00 0.00 0.00 0.00 0.00 0.00 0.00 0.00 1.02 1.46 0.02 0.02 0.00 0.00 0.99 0.02 0.06 31.59 35.05 0.89 0.02 0.93 0.10 0.01 0.02 0.00 0.00

2: 56.28 715.76 230.61 0.01 0.00 0.03 0.00 0.00 0.00 0.00 0.01 0.00 0.00 0.00 0.00 376.83 337.55 0.16 0.16 0.06 0.06 0.80 0.02 0.02 244.34 192.23 0.76 0.03 0.69 0.00 0.16 0.16 0.06 0.06

3: 1985.80 701.20 3525758.75 0.00 0.00 0.00 0.60 3.60 0.20 0.40 1.80 0.00 0.00 0.00 0.00 1.00 1.00 0.00 0.00 0.00 0.00 1.00 0.00 0.00 164.20 69.40 0.31 0.04 0.01 0.10 0.15 0.17 0.15 0.00

4: 931.24 655.00 767574.38 0.00 0.00 0.00 0.00 13.38 0.00 0.05 13.24 0.05 0.00 0.00 0.00 1.43 2.05 0.02 0.00 0.00 0.00 1.00 0.00 0.01 159.29 55.38 0.26 0.03 0.01 0.01 0.02 0.02 0.01 0.03

Number of Iteration: 1
ABCD : END


ABCD : WGSIZE : 4096
ABCD : INPUT : 819200.txt
ABCD : NUM_I : 3
ABCD : ITERATION : 2
WG size of kernel_swap = 4096, WG size of kernel_kmeans = 4096 

I/O completed

Number of objects: 819200
Number of features: 34
ravi allocate called 
n_points= 819200 
ABCD : KMEANS : KS : 364 microseconds
ravi kmeansOCL called 
n_points= 819200 
ABCD : KMEANS : KC : 2494184 microseconds
ravi kmeansOCL called 
n_points= 819200 
ABCD : KMEANS : KC : 2493974 microseconds
ravi kmeansOCL called 
n_points= 819200 
ABCD : KMEANS : KC : 2494820 microseconds
ravi kmeansOCL called 
n_points= 819200 
ABCD : KMEANS : KC : 2493678 microseconds
ravi kmeansOCL called 
n_points= 819200 
ABCD : KMEANS : KC : 2492349 microseconds
ravi kmeansOCL called 
n_points= 819200 
ABCD : KMEANS : KC : 2492966 microseconds
ravi kmeansOCL called 
n_points= 819200 
ABCD : KMEANS : KC : 2494429 microseconds
ravi kmeansOCL called 
n_points= 819200 
ABCD : KMEANS : KC : 2494128 microseconds
ravi kmeansOCL called 
n_points= 819200 
ABCD : KMEANS : KC : 2492268 microseconds
ravi kmeansOCL called 
n_points= 819200 
ABCD : KMEANS : KC : 2493555 microseconds
ravi kmeansOCL called 
n_points= 819200 
ABCD : KMEANS : KC : 2494440 microseconds
ravi kmeansOCL called 
n_points= 819200 
ABCD : KMEANS : KC : 2494974 microseconds
ravi kmeansOCL called 
n_points= 819200 
ABCD : KMEANS : KC : 2493655 microseconds
ravi kmeansOCL called 
n_points= 819200 
ABCD : KMEANS : KC : 2493311 microseconds
ravi kmeansOCL called 
n_points= 819200 
ABCD : KMEANS : KC : 2493483 microseconds
ravi kmeansOCL called 
n_points= 819200 
ABCD : KMEANS : KC : 2492030 microseconds
ravi kmeansOCL called 
n_points= 819200 
ABCD : KMEANS : KC : 2494871 microseconds
ravi kmeansOCL called 
n_points= 819200 
ABCD : KMEANS : KC : 2493989 microseconds
ravi kmeansOCL called 
n_points= 819200 
ABCD : KMEANS : KC : 2493588 microseconds
ravi kmeansOCL called 
n_points= 819200 
ABCD : KMEANS : KC : 2493230 microseconds
iterated 20 times

================= Centroid Coordinates =================
0: 175.36 2209991.00 0.00 0.00 0.00 0.00 0.00 0.00 0.00 0.00 0.00 0.00 0.00 0.00 0.00 1.71 1.64 0.00 0.00 0.07 0.07 0.98 0.05 0.00 115.36 54.50 0.34 0.05 0.34 0.03 0.07 0.00 0.02 0.00

1: 5051.68 5134229.50 0.00 0.00 0.00 2.71 0.00 0.00 0.00 0.00 0.00 0.00 0.00 0.00 0.00 1.02 1.46 0.02 0.02 0.00 0.00 0.99 0.02 0.06 31.59 35.05 0.89 0.02 0.93 0.10 0.01 0.02 0.00 0.00

2: 56.28 715.76 230.61 0.01 0.00 0.03 0.00 0.00 0.00 0.00 0.01 0.00 0.00 0.00 0.00 376.83 337.55 0.16 0.16 0.06 0.06 0.80 0.02 0.02 244.34 192.23 0.76 0.03 0.69 0.00 0.16 0.16 0.06 0.06

3: 1985.80 701.20 3525758.75 0.00 0.00 0.00 0.60 3.60 0.20 0.40 1.80 0.00 0.00 0.00 0.00 1.00 1.00 0.00 0.00 0.00 0.00 1.00 0.00 0.00 164.20 69.40 0.31 0.04 0.01 0.10 0.15 0.17 0.15 0.00

4: 931.24 655.00 767574.38 0.00 0.00 0.00 0.00 13.38 0.00 0.05 13.24 0.05 0.00 0.00 0.00 1.43 2.05 0.02 0.00 0.00 0.00 1.00 0.00 0.01 159.29 55.38 0.26 0.03 0.01 0.01 0.02 0.02 0.01 0.03

Number of Iteration: 1
ABCD : END


ABCD : WGSIZE : 4096
ABCD : INPUT : 819200.txt
ABCD : NUM_I : 3
ABCD : ITERATION : 3
WG size of kernel_swap = 4096, WG size of kernel_kmeans = 4096 

I/O completed

Number of objects: 819200
Number of features: 34
ravi allocate called 
n_points= 819200 
ABCD : KMEANS : KS : 359 microseconds
ravi kmeansOCL called 
n_points= 819200 
ABCD : KMEANS : KC : 2494887 microseconds
ravi kmeansOCL called 
n_points= 819200 
ABCD : KMEANS : KC : 2493833 microseconds
ravi kmeansOCL called 
n_points= 819200 
ABCD : KMEANS : KC : 2493081 microseconds
ravi kmeansOCL called 
n_points= 819200 
ABCD : KMEANS : KC : 2492622 microseconds
ravi kmeansOCL called 
n_points= 819200 
ABCD : KMEANS : KC : 2494245 microseconds
ravi kmeansOCL called 
n_points= 819200 
ABCD : KMEANS : KC : 2494245 microseconds
ravi kmeansOCL called 
n_points= 819200 
ABCD : KMEANS : KC : 2494381 microseconds
ravi kmeansOCL called 
n_points= 819200 
ABCD : KMEANS : KC : 2493459 microseconds
ravi kmeansOCL called 
n_points= 819200 
ABCD : KMEANS : KC : 2493703 microseconds
ravi kmeansOCL called 
n_points= 819200 
ABCD : KMEANS : KC : 2494472 microseconds
ravi kmeansOCL called 
n_points= 819200 
ABCD : KMEANS : KC : 2493816 microseconds
ravi kmeansOCL called 
n_points= 819200 
ABCD : KMEANS : KC : 2494434 microseconds
ravi kmeansOCL called 
n_points= 819200 
ABCD : KMEANS : KC : 2492891 microseconds
ravi kmeansOCL called 
n_points= 819200 
ABCD : KMEANS : KC : 2493076 microseconds
ravi kmeansOCL called 
n_points= 819200 
ABCD : KMEANS : KC : 2494022 microseconds
ravi kmeansOCL called 
n_points= 819200 
ABCD : KMEANS : KC : 2493129 microseconds
ravi kmeansOCL called 
n_points= 819200 
ABCD : KMEANS : KC : 2492617 microseconds
ravi kmeansOCL called 
n_points= 819200 
ABCD : KMEANS : KC : 2492895 microseconds
ravi kmeansOCL called 
n_points= 819200 
ABCD : KMEANS : KC : 2493734 microseconds
ravi kmeansOCL called 
n_points= 819200 
ABCD : KMEANS : KC : 2493151 microseconds
iterated 20 times

================= Centroid Coordinates =================
0: 175.36 2209991.00 0.00 0.00 0.00 0.00 0.00 0.00 0.00 0.00 0.00 0.00 0.00 0.00 0.00 1.71 1.64 0.00 0.00 0.07 0.07 0.98 0.05 0.00 115.36 54.50 0.34 0.05 0.34 0.03 0.07 0.00 0.02 0.00

1: 5051.68 5134229.50 0.00 0.00 0.00 2.71 0.00 0.00 0.00 0.00 0.00 0.00 0.00 0.00 0.00 1.02 1.46 0.02 0.02 0.00 0.00 0.99 0.02 0.06 31.59 35.05 0.89 0.02 0.93 0.10 0.01 0.02 0.00 0.00

2: 56.28 715.76 230.61 0.01 0.00 0.03 0.00 0.00 0.00 0.00 0.01 0.00 0.00 0.00 0.00 376.83 337.55 0.16 0.16 0.06 0.06 0.80 0.02 0.02 244.34 192.23 0.76 0.03 0.69 0.00 0.16 0.16 0.06 0.06

3: 1985.80 701.20 3525758.75 0.00 0.00 0.00 0.60 3.60 0.20 0.40 1.80 0.00 0.00 0.00 0.00 1.00 1.00 0.00 0.00 0.00 0.00 1.00 0.00 0.00 164.20 69.40 0.31 0.04 0.01 0.10 0.15 0.17 0.15 0.00

4: 931.24 655.00 767574.38 0.00 0.00 0.00 0.00 13.38 0.00 0.05 13.24 0.05 0.00 0.00 0.00 1.43 2.05 0.02 0.00 0.00 0.00 1.00 0.00 0.01 159.29 55.38 0.26 0.03 0.01 0.01 0.02 0.02 0.01 0.03

Number of Iteration: 1
ABCD : END


~~~~~~~~~~~~~~~~~~~~~~~~~~~~~~~~~~~~~~~~~~~~~~~~~~~~~
Input: 819200.txt
~~~~~~~~~~~~~~~~~~~~~~~~~~~~~~~~~~~~~~~~~~~~~~~~~~~~~

ABCD : WGSIZE : 8192
ABCD : INPUT : 819200.txt
ABCD : NUM_I : 3
ABCD : ITERATION : 1
WG size of kernel_swap = 8192, WG size of kernel_kmeans = 8192 

I/O completed

Number of objects: 819200
Number of features: 34
ravi allocate called 
n_points= 819200 
ABCD : KMEANS : KS : 364 microseconds
ravi kmeansOCL called 
n_points= 819200 
ABCD : KMEANS : KC : 2660614 microseconds
ravi kmeansOCL called 
n_points= 819200 
ABCD : KMEANS : KC : 2660669 microseconds
ravi kmeansOCL called 
n_points= 819200 
ABCD : KMEANS : KC : 2660451 microseconds
ravi kmeansOCL called 
n_points= 819200 
ABCD : KMEANS : KC : 2659575 microseconds
ravi kmeansOCL called 
n_points= 819200 
ABCD : KMEANS : KC : 2661312 microseconds
ravi kmeansOCL called 
n_points= 819200 
ABCD : KMEANS : KC : 2659980 microseconds
ravi kmeansOCL called 
n_points= 819200 
ABCD : KMEANS : KC : 2661007 microseconds
ravi kmeansOCL called 
n_points= 819200 
ABCD : KMEANS : KC : 2660632 microseconds
ravi kmeansOCL called 
n_points= 819200 
ABCD : KMEANS : KC : 2660918 microseconds
ravi kmeansOCL called 
n_points= 819200 
ABCD : KMEANS : KC : 2660948 microseconds
ravi kmeansOCL called 
n_points= 819200 
ABCD : KMEANS : KC : 2660130 microseconds
ravi kmeansOCL called 
n_points= 819200 
ABCD : KMEANS : KC : 2660007 microseconds
ravi kmeansOCL called 
n_points= 819200 
ABCD : KMEANS : KC : 2661471 microseconds
ravi kmeansOCL called 
n_points= 819200 
ABCD : KMEANS : KC : 2660518 microseconds
ravi kmeansOCL called 
n_points= 819200 
ABCD : KMEANS : KC : 2660879 microseconds
ravi kmeansOCL called 
n_points= 819200 
ABCD : KMEANS : KC : 2660498 microseconds
ravi kmeansOCL called 
n_points= 819200 
ABCD : KMEANS : KC : 2659954 microseconds
ravi kmeansOCL called 
n_points= 819200 
ABCD : KMEANS : KC : 2660638 microseconds
ravi kmeansOCL called 
n_points= 819200 
ABCD : KMEANS : KC : 2660795 microseconds
ravi kmeansOCL called 
n_points= 819200 
ABCD : KMEANS : KC : 2661215 microseconds
iterated 20 times

================= Centroid Coordinates =================
0: 175.36 2209991.00 0.00 0.00 0.00 0.00 0.00 0.00 0.00 0.00 0.00 0.00 0.00 0.00 0.00 1.71 1.64 0.00 0.00 0.07 0.07 0.98 0.05 0.00 115.36 54.50 0.34 0.05 0.34 0.03 0.07 0.00 0.02 0.00

1: 5051.68 5134229.50 0.00 0.00 0.00 2.71 0.00 0.00 0.00 0.00 0.00 0.00 0.00 0.00 0.00 1.02 1.46 0.02 0.02 0.00 0.00 0.99 0.02 0.06 31.59 35.05 0.89 0.02 0.93 0.10 0.01 0.02 0.00 0.00

2: 56.28 715.76 230.61 0.01 0.00 0.03 0.00 0.00 0.00 0.00 0.01 0.00 0.00 0.00 0.00 376.83 337.55 0.16 0.16 0.06 0.06 0.80 0.02 0.02 244.34 192.23 0.76 0.03 0.69 0.00 0.16 0.16 0.06 0.06

3: 1985.80 701.20 3525758.75 0.00 0.00 0.00 0.60 3.60 0.20 0.40 1.80 0.00 0.00 0.00 0.00 1.00 1.00 0.00 0.00 0.00 0.00 1.00 0.00 0.00 164.20 69.40 0.31 0.04 0.01 0.10 0.15 0.17 0.15 0.00

4: 931.24 655.00 767574.38 0.00 0.00 0.00 0.00 13.38 0.00 0.05 13.24 0.05 0.00 0.00 0.00 1.43 2.05 0.02 0.00 0.00 0.00 1.00 0.00 0.01 159.29 55.38 0.26 0.03 0.01 0.01 0.02 0.02 0.01 0.03

Number of Iteration: 1
ABCD : END


ABCD : WGSIZE : 8192
ABCD : INPUT : 819200.txt
ABCD : NUM_I : 3
ABCD : ITERATION : 2
WG size of kernel_swap = 8192, WG size of kernel_kmeans = 8192 

I/O completed

Number of objects: 819200
Number of features: 34
ravi allocate called 
n_points= 819200 
ABCD : KMEANS : KS : 366 microseconds
ravi kmeansOCL called 
n_points= 819200 
ABCD : KMEANS : KC : 2661083 microseconds
ravi kmeansOCL called 
n_points= 819200 
ABCD : KMEANS : KC : 2660507 microseconds
ravi kmeansOCL called 
n_points= 819200 
ABCD : KMEANS : KC : 2660440 microseconds
ravi kmeansOCL called 
n_points= 819200 
ABCD : KMEANS : KC : 2660921 microseconds
ravi kmeansOCL called 
n_points= 819200 
ABCD : KMEANS : KC : 2661117 microseconds
ravi kmeansOCL called 
n_points= 819200 
ABCD : KMEANS : KC : 2660086 microseconds
ravi kmeansOCL called 
n_points= 819200 
ABCD : KMEANS : KC : 2660551 microseconds
ravi kmeansOCL called 
n_points= 819200 
ABCD : KMEANS : KC : 2661075 microseconds
ravi kmeansOCL called 
n_points= 819200 
ABCD : KMEANS : KC : 2660162 microseconds
ravi kmeansOCL called 
n_points= 819200 
ABCD : KMEANS : KC : 2660874 microseconds
ravi kmeansOCL called 
n_points= 819200 
ABCD : KMEANS : KC : 2660942 microseconds
ravi kmeansOCL called 
n_points= 819200 
ABCD : KMEANS : KC : 2661369 microseconds
ravi kmeansOCL called 
n_points= 819200 
ABCD : KMEANS : KC : 2660788 microseconds
ravi kmeansOCL called 
n_points= 819200 
ABCD : KMEANS : KC : 2659648 microseconds
ravi kmeansOCL called 
n_points= 819200 
ABCD : KMEANS : KC : 2660678 microseconds
ravi kmeansOCL called 
n_points= 819200 
ABCD : KMEANS : KC : 2660883 microseconds
ravi kmeansOCL called 
n_points= 819200 
ABCD : KMEANS : KC : 2660168 microseconds
ravi kmeansOCL called 
n_points= 819200 
ABCD : KMEANS : KC : 2660209 microseconds
ravi kmeansOCL called 
n_points= 819200 
ABCD : KMEANS : KC : 2660501 microseconds
ravi kmeansOCL called 
n_points= 819200 
ABCD : KMEANS : KC : 2660155 microseconds
iterated 20 times

================= Centroid Coordinates =================
0: 175.36 2209991.00 0.00 0.00 0.00 0.00 0.00 0.00 0.00 0.00 0.00 0.00 0.00 0.00 0.00 1.71 1.64 0.00 0.00 0.07 0.07 0.98 0.05 0.00 115.36 54.50 0.34 0.05 0.34 0.03 0.07 0.00 0.02 0.00

1: 5051.68 5134229.50 0.00 0.00 0.00 2.71 0.00 0.00 0.00 0.00 0.00 0.00 0.00 0.00 0.00 1.02 1.46 0.02 0.02 0.00 0.00 0.99 0.02 0.06 31.59 35.05 0.89 0.02 0.93 0.10 0.01 0.02 0.00 0.00

2: 56.28 715.76 230.61 0.01 0.00 0.03 0.00 0.00 0.00 0.00 0.01 0.00 0.00 0.00 0.00 376.83 337.55 0.16 0.16 0.06 0.06 0.80 0.02 0.02 244.34 192.23 0.76 0.03 0.69 0.00 0.16 0.16 0.06 0.06

3: 1985.80 701.20 3525758.75 0.00 0.00 0.00 0.60 3.60 0.20 0.40 1.80 0.00 0.00 0.00 0.00 1.00 1.00 0.00 0.00 0.00 0.00 1.00 0.00 0.00 164.20 69.40 0.31 0.04 0.01 0.10 0.15 0.17 0.15 0.00

4: 931.24 655.00 767574.38 0.00 0.00 0.00 0.00 13.38 0.00 0.05 13.24 0.05 0.00 0.00 0.00 1.43 2.05 0.02 0.00 0.00 0.00 1.00 0.00 0.01 159.29 55.38 0.26 0.03 0.01 0.01 0.02 0.02 0.01 0.03

Number of Iteration: 1
ABCD : END


ABCD : WGSIZE : 8192
ABCD : INPUT : 819200.txt
ABCD : NUM_I : 3
ABCD : ITERATION : 3
WG size of kernel_swap = 8192, WG size of kernel_kmeans = 8192 

I/O completed

Number of objects: 819200
Number of features: 34
ravi allocate called 
n_points= 819200 
ABCD : KMEANS : KS : 364 microseconds
ravi kmeansOCL called 
n_points= 819200 
ABCD : KMEANS : KC : 2660002 microseconds
ravi kmeansOCL called 
n_points= 819200 
ABCD : KMEANS : KC : 2660419 microseconds
ravi kmeansOCL called 
n_points= 819200 
ABCD : KMEANS : KC : 2660364 microseconds
ravi kmeansOCL called 
n_points= 819200 
ABCD : KMEANS : KC : 2659718 microseconds
ravi kmeansOCL called 
n_points= 819200 
ABCD : KMEANS : KC : 2660753 microseconds
ravi kmeansOCL called 
n_points= 819200 
ABCD : KMEANS : KC : 2659999 microseconds
ravi kmeansOCL called 
n_points= 819200 
ABCD : KMEANS : KC : 2660529 microseconds
ravi kmeansOCL called 
n_points= 819200 
ABCD : KMEANS : KC : 2660610 microseconds
ravi kmeansOCL called 
n_points= 819200 
ABCD : KMEANS : KC : 2660151 microseconds
ravi kmeansOCL called 
n_points= 819200 
ABCD : KMEANS : KC : 2659869 microseconds
ravi kmeansOCL called 
n_points= 819200 
ABCD : KMEANS : KC : 2660555 microseconds
ravi kmeansOCL called 
n_points= 819200 
ABCD : KMEANS : KC : 2660449 microseconds
ravi kmeansOCL called 
n_points= 819200 
ABCD : KMEANS : KC : 2660169 microseconds
ravi kmeansOCL called 
n_points= 819200 
ABCD : KMEANS : KC : 2660562 microseconds
ravi kmeansOCL called 
n_points= 819200 
ABCD : KMEANS : KC : 2660137 microseconds
ravi kmeansOCL called 
n_points= 819200 
ABCD : KMEANS : KC : 2659722 microseconds
ravi kmeansOCL called 
n_points= 819200 
ABCD : KMEANS : KC : 2660951 microseconds
ravi kmeansOCL called 
n_points= 819200 
ABCD : KMEANS : KC : 2660131 microseconds
ravi kmeansOCL called 
n_points= 819200 
ABCD : KMEANS : KC : 2660358 microseconds
ravi kmeansOCL called 
n_points= 819200 
ABCD : KMEANS : KC : 2660365 microseconds
iterated 20 times

================= Centroid Coordinates =================
0: 175.36 2209991.00 0.00 0.00 0.00 0.00 0.00 0.00 0.00 0.00 0.00 0.00 0.00 0.00 0.00 1.71 1.64 0.00 0.00 0.07 0.07 0.98 0.05 0.00 115.36 54.50 0.34 0.05 0.34 0.03 0.07 0.00 0.02 0.00

1: 5051.68 5134229.50 0.00 0.00 0.00 2.71 0.00 0.00 0.00 0.00 0.00 0.00 0.00 0.00 0.00 1.02 1.46 0.02 0.02 0.00 0.00 0.99 0.02 0.06 31.59 35.05 0.89 0.02 0.93 0.10 0.01 0.02 0.00 0.00

2: 56.28 715.76 230.61 0.01 0.00 0.03 0.00 0.00 0.00 0.00 0.01 0.00 0.00 0.00 0.00 376.83 337.55 0.16 0.16 0.06 0.06 0.80 0.02 0.02 244.34 192.23 0.76 0.03 0.69 0.00 0.16 0.16 0.06 0.06

3: 1985.80 701.20 3525758.75 0.00 0.00 0.00 0.60 3.60 0.20 0.40 1.80 0.00 0.00 0.00 0.00 1.00 1.00 0.00 0.00 0.00 0.00 1.00 0.00 0.00 164.20 69.40 0.31 0.04 0.01 0.10 0.15 0.17 0.15 0.00

4: 931.24 655.00 767574.38 0.00 0.00 0.00 0.00 13.38 0.00 0.05 13.24 0.05 0.00 0.00 0.00 1.43 2.05 0.02 0.00 0.00 0.00 1.00 0.00 0.01 159.29 55.38 0.26 0.03 0.01 0.01 0.02 0.02 0.01 0.03

Number of Iteration: 1
ABCD : END


~~~~~~~~~~~~~~~~~~~~~~~~~~~~~~~~~~~~~~~~~~~~~~~~~~~~~
Input: 819200.txt
~~~~~~~~~~~~~~~~~~~~~~~~~~~~~~~~~~~~~~~~~~~~~~~~~~~~~

ABCD : WGSIZE : 16384
ABCD : INPUT : 819200.txt
ABCD : NUM_I : 3
ABCD : ITERATION : 1
WG size of kernel_swap = 16384, WG size of kernel_kmeans = 16384 

I/O completed

Number of objects: 819200
Number of features: 34
ravi allocate called 
n_points= 819200 
ABCD : KMEANS : KS : 376 microseconds
ravi kmeansOCL called 
n_points= 819200 
ABCD : KMEANS : KC : 3248302 microseconds
ravi kmeansOCL called 
n_points= 819200 
ABCD : KMEANS : KC : 3114634 microseconds
ravi kmeansOCL called 
n_points= 819200 
ABCD : KMEANS : KC : 3156127 microseconds
ravi kmeansOCL called 
n_points= 819200 
ABCD : KMEANS : KC : 3176483 microseconds
ravi kmeansOCL called 
n_points= 819200 
ABCD : KMEANS : KC : 3253975 microseconds
ravi kmeansOCL called 
n_points= 819200 
ABCD : KMEANS : KC : 3188435 microseconds
ravi kmeansOCL called 
n_points= 819200 
ABCD : KMEANS : KC : 3154346 microseconds
ravi kmeansOCL called 
n_points= 819200 
ABCD : KMEANS : KC : 3180195 microseconds
ravi kmeansOCL called 
n_points= 819200 
ABCD : KMEANS : KC : 3254754 microseconds
ravi kmeansOCL called 
n_points= 819200 
ABCD : KMEANS : KC : 3203004 microseconds
ravi kmeansOCL called 
n_points= 819200 
ABCD : KMEANS : KC : 3141217 microseconds
ravi kmeansOCL called 
n_points= 819200 
ABCD : KMEANS : KC : 3211146 microseconds
ravi kmeansOCL called 
n_points= 819200 
ABCD : KMEANS : KC : 3224068 microseconds
ravi kmeansOCL called 
n_points= 819200 
ABCD : KMEANS : KC : 3118920 microseconds
ravi kmeansOCL called 
n_points= 819200 
ABCD : KMEANS : KC : 3213170 microseconds
ravi kmeansOCL called 
n_points= 819200 
ABCD : KMEANS : KC : 3247795 microseconds
ravi kmeansOCL called 
n_points= 819200 
ABCD : KMEANS : KC : 3212094 microseconds
ravi kmeansOCL called 
n_points= 819200 
ABCD : KMEANS : KC : 3207576 microseconds
ravi kmeansOCL called 
n_points= 819200 
ABCD : KMEANS : KC : 3223890 microseconds
ravi kmeansOCL called 
n_points= 819200 
ABCD : KMEANS : KC : 3189871 microseconds
iterated 20 times

================= Centroid Coordinates =================
0: 175.36 2209991.00 0.00 0.00 0.00 0.00 0.00 0.00 0.00 0.00 0.00 0.00 0.00 0.00 0.00 1.71 1.64 0.00 0.00 0.07 0.07 0.98 0.05 0.00 115.36 54.50 0.34 0.05 0.34 0.03 0.07 0.00 0.02 0.00

1: 5051.68 5134229.50 0.00 0.00 0.00 2.71 0.00 0.00 0.00 0.00 0.00 0.00 0.00 0.00 0.00 1.02 1.46 0.02 0.02 0.00 0.00 0.99 0.02 0.06 31.59 35.05 0.89 0.02 0.93 0.10 0.01 0.02 0.00 0.00

2: 56.28 715.76 230.61 0.01 0.00 0.03 0.00 0.00 0.00 0.00 0.01 0.00 0.00 0.00 0.00 376.83 337.55 0.16 0.16 0.06 0.06 0.80 0.02 0.02 244.34 192.23 0.76 0.03 0.69 0.00 0.16 0.16 0.06 0.06

3: 1985.80 701.20 3525758.75 0.00 0.00 0.00 0.60 3.60 0.20 0.40 1.80 0.00 0.00 0.00 0.00 1.00 1.00 0.00 0.00 0.00 0.00 1.00 0.00 0.00 164.20 69.40 0.31 0.04 0.01 0.10 0.15 0.17 0.15 0.00

4: 931.24 655.00 767574.38 0.00 0.00 0.00 0.00 13.38 0.00 0.05 13.24 0.05 0.00 0.00 0.00 1.43 2.05 0.02 0.00 0.00 0.00 1.00 0.00 0.01 159.29 55.38 0.26 0.03 0.01 0.01 0.02 0.02 0.01 0.03

Number of Iteration: 1
ABCD : END


ABCD : WGSIZE : 16384
ABCD : INPUT : 819200.txt
ABCD : NUM_I : 3
ABCD : ITERATION : 2
WG size of kernel_swap = 16384, WG size of kernel_kmeans = 16384 

I/O completed

Number of objects: 819200
Number of features: 34
ravi allocate called 
n_points= 819200 
ABCD : KMEANS : KS : 380 microseconds
ravi kmeansOCL called 
n_points= 819200 
ABCD : KMEANS : KC : 3068556 microseconds
ravi kmeansOCL called 
n_points= 819200 
ABCD : KMEANS : KC : 3183258 microseconds
ravi kmeansOCL called 
n_points= 819200 
ABCD : KMEANS : KC : 3181349 microseconds
ravi kmeansOCL called 
n_points= 819200 
ABCD : KMEANS : KC : 3311328 microseconds
ravi kmeansOCL called 
n_points= 819200 
ABCD : KMEANS : KC : 3083466 microseconds
ravi kmeansOCL called 
n_points= 819200 
ABCD : KMEANS : KC : 3197674 microseconds
ravi kmeansOCL called 
n_points= 819200 
ABCD : KMEANS : KC : 3273592 microseconds
ravi kmeansOCL called 
n_points= 819200 
ABCD : KMEANS : KC : 3182535 microseconds
ravi kmeansOCL called 
n_points= 819200 
ABCD : KMEANS : KC : 3160851 microseconds
ravi kmeansOCL called 
n_points= 819200 
ABCD : KMEANS : KC : 3235868 microseconds
ravi kmeansOCL called 
n_points= 819200 
ABCD : KMEANS : KC : 3183436 microseconds
ravi kmeansOCL called 
n_points= 819200 
ABCD : KMEANS : KC : 3122156 microseconds
ravi kmeansOCL called 
n_points= 819200 
ABCD : KMEANS : KC : 3260843 microseconds
ravi kmeansOCL called 
n_points= 819200 
ABCD : KMEANS : KC : 3197939 microseconds
ravi kmeansOCL called 
n_points= 819200 
ABCD : KMEANS : KC : 3289817 microseconds
ravi kmeansOCL called 
n_points= 819200 
ABCD : KMEANS : KC : 3146234 microseconds
ravi kmeansOCL called 
n_points= 819200 
ABCD : KMEANS : KC : 3231684 microseconds
ravi kmeansOCL called 
n_points= 819200 
ABCD : KMEANS : KC : 3243082 microseconds
ravi kmeansOCL called 
n_points= 819200 
ABCD : KMEANS : KC : 3259901 microseconds
ravi kmeansOCL called 
n_points= 819200 
ABCD : KMEANS : KC : 3094204 microseconds
iterated 20 times

================= Centroid Coordinates =================
0: 175.36 2209991.00 0.00 0.00 0.00 0.00 0.00 0.00 0.00 0.00 0.00 0.00 0.00 0.00 0.00 1.71 1.64 0.00 0.00 0.07 0.07 0.98 0.05 0.00 115.36 54.50 0.34 0.05 0.34 0.03 0.07 0.00 0.02 0.00

1: 5051.68 5134229.50 0.00 0.00 0.00 2.71 0.00 0.00 0.00 0.00 0.00 0.00 0.00 0.00 0.00 1.02 1.46 0.02 0.02 0.00 0.00 0.99 0.02 0.06 31.59 35.05 0.89 0.02 0.93 0.10 0.01 0.02 0.00 0.00

2: 56.28 715.76 230.61 0.01 0.00 0.03 0.00 0.00 0.00 0.00 0.01 0.00 0.00 0.00 0.00 376.83 337.55 0.16 0.16 0.06 0.06 0.80 0.02 0.02 244.34 192.23 0.76 0.03 0.69 0.00 0.16 0.16 0.06 0.06

3: 1985.80 701.20 3525758.75 0.00 0.00 0.00 0.60 3.60 0.20 0.40 1.80 0.00 0.00 0.00 0.00 1.00 1.00 0.00 0.00 0.00 0.00 1.00 0.00 0.00 164.20 69.40 0.31 0.04 0.01 0.10 0.15 0.17 0.15 0.00

4: 931.24 655.00 767574.38 0.00 0.00 0.00 0.00 13.38 0.00 0.05 13.24 0.05 0.00 0.00 0.00 1.43 2.05 0.02 0.00 0.00 0.00 1.00 0.00 0.01 159.29 55.38 0.26 0.03 0.01 0.01 0.02 0.02 0.01 0.03

Number of Iteration: 1
ABCD : END


ABCD : WGSIZE : 16384
ABCD : INPUT : 819200.txt
ABCD : NUM_I : 3
ABCD : ITERATION : 3
WG size of kernel_swap = 16384, WG size of kernel_kmeans = 16384 

I/O completed

Number of objects: 819200
Number of features: 34
ravi allocate called 
n_points= 819200 
ABCD : KMEANS : KS : 362 microseconds
ravi kmeansOCL called 
n_points= 819200 
ABCD : KMEANS : KC : 3250212 microseconds
ravi kmeansOCL called 
n_points= 819200 
ABCD : KMEANS : KC : 3165101 microseconds
ravi kmeansOCL called 
n_points= 819200 
ABCD : KMEANS : KC : 3252416 microseconds
ravi kmeansOCL called 
n_points= 819200 
ABCD : KMEANS : KC : 3133856 microseconds
ravi kmeansOCL called 
n_points= 819200 
ABCD : KMEANS : KC : 3186016 microseconds
ravi kmeansOCL called 
n_points= 819200 
ABCD : KMEANS : KC : 3239762 microseconds
ravi kmeansOCL called 
n_points= 819200 
ABCD : KMEANS : KC : 3273233 microseconds
ravi kmeansOCL called 
n_points= 819200 
ABCD : KMEANS : KC : 3204926 microseconds
ravi kmeansOCL called 
n_points= 819200 
ABCD : KMEANS : KC : 3156759 microseconds
ravi kmeansOCL called 
n_points= 819200 
ABCD : KMEANS : KC : 3110259 microseconds
ravi kmeansOCL called 
n_points= 819200 
ABCD : KMEANS : KC : 3154256 microseconds
ravi kmeansOCL called 
n_points= 819200 
ABCD : KMEANS : KC : 3130902 microseconds
ravi kmeansOCL called 
n_points= 819200 
ABCD : KMEANS : KC : 3196570 microseconds
ravi kmeansOCL called 
n_points= 819200 
ABCD : KMEANS : KC : 3158472 microseconds
ravi kmeansOCL called 
n_points= 819200 
ABCD : KMEANS : KC : 3093163 microseconds
ravi kmeansOCL called 
n_points= 819200 
ABCD : KMEANS : KC : 3148101 microseconds
ravi kmeansOCL called 
n_points= 819200 
ABCD : KMEANS : KC : 3134711 microseconds
ravi kmeansOCL called 
n_points= 819200 
ABCD : KMEANS : KC : 3184020 microseconds
ravi kmeansOCL called 
n_points= 819200 
ABCD : KMEANS : KC : 3225465 microseconds
ravi kmeansOCL called 
n_points= 819200 
ABCD : KMEANS : KC : 3281696 microseconds
iterated 20 times

================= Centroid Coordinates =================
0: 175.36 2209991.00 0.00 0.00 0.00 0.00 0.00 0.00 0.00 0.00 0.00 0.00 0.00 0.00 0.00 1.71 1.64 0.00 0.00 0.07 0.07 0.98 0.05 0.00 115.36 54.50 0.34 0.05 0.34 0.03 0.07 0.00 0.02 0.00

1: 5051.68 5134229.50 0.00 0.00 0.00 2.71 0.00 0.00 0.00 0.00 0.00 0.00 0.00 0.00 0.00 1.02 1.46 0.02 0.02 0.00 0.00 0.99 0.02 0.06 31.59 35.05 0.89 0.02 0.93 0.10 0.01 0.02 0.00 0.00

2: 56.28 715.76 230.61 0.01 0.00 0.03 0.00 0.00 0.00 0.00 0.01 0.00 0.00 0.00 0.00 376.83 337.55 0.16 0.16 0.06 0.06 0.80 0.02 0.02 244.34 192.23 0.76 0.03 0.69 0.00 0.16 0.16 0.06 0.06

3: 1985.80 701.20 3525758.75 0.00 0.00 0.00 0.60 3.60 0.20 0.40 1.80 0.00 0.00 0.00 0.00 1.00 1.00 0.00 0.00 0.00 0.00 1.00 0.00 0.00 164.20 69.40 0.31 0.04 0.01 0.10 0.15 0.17 0.15 0.00

4: 931.24 655.00 767574.38 0.00 0.00 0.00 0.00 13.38 0.00 0.05 13.24 0.05 0.00 0.00 0.00 1.43 2.05 0.02 0.00 0.00 0.00 1.00 0.00 0.01 159.29 55.38 0.26 0.03 0.01 0.01 0.02 0.02 0.01 0.03

Number of Iteration: 1
ABCD : END


~~~~~~~~~~~~~~~~~~~~~~~~~~~~~~~~~~~~~~~~~~~~~~~~~~~~~
Input: 819200.txt
~~~~~~~~~~~~~~~~~~~~~~~~~~~~~~~~~~~~~~~~~~~~~~~~~~~~~

ABCD : WGSIZE : 32768
ABCD : INPUT : 819200.txt
ABCD : NUM_I : 3
ABCD : ITERATION : 1
WG size of kernel_swap = 32768, WG size of kernel_kmeans = 32768 

I/O completed

Number of objects: 819200
Number of features: 34
ravi allocate called 
n_points= 819200 
ABCD : KMEANS : KS : 365 microseconds
ravi kmeansOCL called 
n_points= 819200 
ABCD : KMEANS : KC : 3875464 microseconds
ravi kmeansOCL called 
n_points= 819200 
ABCD : KMEANS : KC : 3771774 microseconds
ravi kmeansOCL called 
n_points= 819200 
ABCD : KMEANS : KC : 3920553 microseconds
ravi kmeansOCL called 
n_points= 819200 
ABCD : KMEANS : KC : 3901682 microseconds
ravi kmeansOCL called 
n_points= 819200 
ABCD : KMEANS : KC : 3731965 microseconds
ravi kmeansOCL called 
n_points= 819200 
ABCD : KMEANS : KC : 3837649 microseconds
ravi kmeansOCL called 
n_points= 819200 
ABCD : KMEANS : KC : 3763976 microseconds
ravi kmeansOCL called 
n_points= 819200 
ABCD : KMEANS : KC : 4065982 microseconds
ravi kmeansOCL called 
n_points= 819200 
ABCD : KMEANS : KC : 3798255 microseconds
ravi kmeansOCL called 
n_points= 819200 
ABCD : KMEANS : KC : 3836643 microseconds
ravi kmeansOCL called 
n_points= 819200 
ABCD : KMEANS : KC : 3840610 microseconds
ravi kmeansOCL called 
n_points= 819200 
ABCD : KMEANS : KC : 3817496 microseconds
ravi kmeansOCL called 
n_points= 819200 
ABCD : KMEANS : KC : 3911168 microseconds
ravi kmeansOCL called 
n_points= 819200 
ABCD : KMEANS : KC : 3833529 microseconds
ravi kmeansOCL called 
n_points= 819200 
ABCD : KMEANS : KC : 3761356 microseconds
ravi kmeansOCL called 
n_points= 819200 
ABCD : KMEANS : KC : 3774237 microseconds
ravi kmeansOCL called 
n_points= 819200 
ABCD : KMEANS : KC : 3780795 microseconds
ravi kmeansOCL called 
n_points= 819200 
ABCD : KMEANS : KC : 3833242 microseconds
ravi kmeansOCL called 
n_points= 819200 
ABCD : KMEANS : KC : 3963232 microseconds
ravi kmeansOCL called 
n_points= 819200 
ABCD : KMEANS : KC : 3844447 microseconds
iterated 20 times

================= Centroid Coordinates =================
0: 175.36 2209991.00 0.00 0.00 0.00 0.00 0.00 0.00 0.00 0.00 0.00 0.00 0.00 0.00 0.00 1.71 1.64 0.00 0.00 0.07 0.07 0.98 0.05 0.00 115.36 54.50 0.34 0.05 0.34 0.03 0.07 0.00 0.02 0.00

1: 5051.68 5134229.50 0.00 0.00 0.00 2.71 0.00 0.00 0.00 0.00 0.00 0.00 0.00 0.00 0.00 1.02 1.46 0.02 0.02 0.00 0.00 0.99 0.02 0.06 31.59 35.05 0.89 0.02 0.93 0.10 0.01 0.02 0.00 0.00

2: 56.28 715.76 230.61 0.01 0.00 0.03 0.00 0.00 0.00 0.00 0.01 0.00 0.00 0.00 0.00 376.83 337.55 0.16 0.16 0.06 0.06 0.80 0.02 0.02 244.34 192.23 0.76 0.03 0.69 0.00 0.16 0.16 0.06 0.06

3: 1985.80 701.20 3525758.75 0.00 0.00 0.00 0.60 3.60 0.20 0.40 1.80 0.00 0.00 0.00 0.00 1.00 1.00 0.00 0.00 0.00 0.00 1.00 0.00 0.00 164.20 69.40 0.31 0.04 0.01 0.10 0.15 0.17 0.15 0.00

4: 931.24 655.00 767574.38 0.00 0.00 0.00 0.00 13.38 0.00 0.05 13.24 0.05 0.00 0.00 0.00 1.43 2.05 0.02 0.00 0.00 0.00 1.00 0.00 0.01 159.29 55.38 0.26 0.03 0.01 0.01 0.02 0.02 0.01 0.03

Number of Iteration: 1
ABCD : END


ABCD : WGSIZE : 32768
ABCD : INPUT : 819200.txt
ABCD : NUM_I : 3
ABCD : ITERATION : 2
WG size of kernel_swap = 32768, WG size of kernel_kmeans = 32768 

I/O completed

Number of objects: 819200
Number of features: 34
ravi allocate called 
n_points= 819200 
ABCD : KMEANS : KS : 366 microseconds
ravi kmeansOCL called 
n_points= 819200 
ABCD : KMEANS : KC : 3861319 microseconds
ravi kmeansOCL called 
n_points= 819200 
ABCD : KMEANS : KC : 3835731 microseconds
ravi kmeansOCL called 
n_points= 819200 
ABCD : KMEANS : KC : 3814377 microseconds
ravi kmeansOCL called 
n_points= 819200 
ABCD : KMEANS : KC : 3781593 microseconds
ravi kmeansOCL called 
n_points= 819200 
ABCD : KMEANS : KC : 3717112 microseconds
ravi kmeansOCL called 
n_points= 819200 
ABCD : KMEANS : KC : 3715167 microseconds
ravi kmeansOCL called 
n_points= 819200 
ABCD : KMEANS : KC : 3918617 microseconds
ravi kmeansOCL called 
n_points= 819200 
ABCD : KMEANS : KC : 3841057 microseconds
ravi kmeansOCL called 
n_points= 819200 
ABCD : KMEANS : KC : 3813388 microseconds
ravi kmeansOCL called 
n_points= 819200 
ABCD : KMEANS : KC : 3858259 microseconds
ravi kmeansOCL called 
n_points= 819200 
ABCD : KMEANS : KC : 3803474 microseconds
ravi kmeansOCL called 
n_points= 819200 
ABCD : KMEANS : KC : 3936903 microseconds
ravi kmeansOCL called 
n_points= 819200 
ABCD : KMEANS : KC : 3903646 microseconds
ravi kmeansOCL called 
n_points= 819200 
ABCD : KMEANS : KC : 3723115 microseconds
ravi kmeansOCL called 
n_points= 819200 
ABCD : KMEANS : KC : 3874118 microseconds
ravi kmeansOCL called 
n_points= 819200 
ABCD : KMEANS : KC : 3754921 microseconds
ravi kmeansOCL called 
n_points= 819200 
ABCD : KMEANS : KC : 3838377 microseconds
ravi kmeansOCL called 
n_points= 819200 
ABCD : KMEANS : KC : 3891485 microseconds
ravi kmeansOCL called 
n_points= 819200 
ABCD : KMEANS : KC : 3714903 microseconds
ravi kmeansOCL called 
n_points= 819200 
ABCD : KMEANS : KC : 3854162 microseconds
iterated 20 times

================= Centroid Coordinates =================
0: 175.36 2209991.00 0.00 0.00 0.00 0.00 0.00 0.00 0.00 0.00 0.00 0.00 0.00 0.00 0.00 1.71 1.64 0.00 0.00 0.07 0.07 0.98 0.05 0.00 115.36 54.50 0.34 0.05 0.34 0.03 0.07 0.00 0.02 0.00

1: 5051.68 5134229.50 0.00 0.00 0.00 2.71 0.00 0.00 0.00 0.00 0.00 0.00 0.00 0.00 0.00 1.02 1.46 0.02 0.02 0.00 0.00 0.99 0.02 0.06 31.59 35.05 0.89 0.02 0.93 0.10 0.01 0.02 0.00 0.00

2: 56.28 715.76 230.61 0.01 0.00 0.03 0.00 0.00 0.00 0.00 0.01 0.00 0.00 0.00 0.00 376.83 337.55 0.16 0.16 0.06 0.06 0.80 0.02 0.02 244.34 192.23 0.76 0.03 0.69 0.00 0.16 0.16 0.06 0.06

3: 1985.80 701.20 3525758.75 0.00 0.00 0.00 0.60 3.60 0.20 0.40 1.80 0.00 0.00 0.00 0.00 1.00 1.00 0.00 0.00 0.00 0.00 1.00 0.00 0.00 164.20 69.40 0.31 0.04 0.01 0.10 0.15 0.17 0.15 0.00

4: 931.24 655.00 767574.38 0.00 0.00 0.00 0.00 13.38 0.00 0.05 13.24 0.05 0.00 0.00 0.00 1.43 2.05 0.02 0.00 0.00 0.00 1.00 0.00 0.01 159.29 55.38 0.26 0.03 0.01 0.01 0.02 0.02 0.01 0.03

Number of Iteration: 1
ABCD : END


ABCD : WGSIZE : 32768
ABCD : INPUT : 819200.txt
ABCD : NUM_I : 3
ABCD : ITERATION : 3
WG size of kernel_swap = 32768, WG size of kernel_kmeans = 32768 

I/O completed

Number of objects: 819200
Number of features: 34
ravi allocate called 
n_points= 819200 
ABCD : KMEANS : KS : 363 microseconds
ravi kmeansOCL called 
n_points= 819200 
ABCD : KMEANS : KC : 3878193 microseconds
ravi kmeansOCL called 
n_points= 819200 
ABCD : KMEANS : KC : 3740170 microseconds
ravi kmeansOCL called 
n_points= 819200 
ABCD : KMEANS : KC : 3881713 microseconds
ravi kmeansOCL called 
n_points= 819200 
ABCD : KMEANS : KC : 3821353 microseconds
ravi kmeansOCL called 
n_points= 819200 
ABCD : KMEANS : KC : 3902014 microseconds
ravi kmeansOCL called 
n_points= 819200 
ABCD : KMEANS : KC : 3799727 microseconds
ravi kmeansOCL called 
n_points= 819200 
ABCD : KMEANS : KC : 3793250 microseconds
ravi kmeansOCL called 
n_points= 819200 
ABCD : KMEANS : KC : 3807559 microseconds
ravi kmeansOCL called 
n_points= 819200 
ABCD : KMEANS : KC : 3782049 microseconds
ravi kmeansOCL called 
n_points= 819200 
ABCD : KMEANS : KC : 3814345 microseconds
ravi kmeansOCL called 
n_points= 819200 
ABCD : KMEANS : KC : 3852791 microseconds
ravi kmeansOCL called 
n_points= 819200 
ABCD : KMEANS : KC : 3881182 microseconds
ravi kmeansOCL called 
n_points= 819200 
ABCD : KMEANS : KC : 3772777 microseconds
ravi kmeansOCL called 
n_points= 819200 
ABCD : KMEANS : KC : 3850197 microseconds
ravi kmeansOCL called 
n_points= 819200 
ABCD : KMEANS : KC : 3897238 microseconds
ravi kmeansOCL called 
n_points= 819200 
ABCD : KMEANS : KC : 3841111 microseconds
ravi kmeansOCL called 
n_points= 819200 
ABCD : KMEANS : KC : 3732077 microseconds
ravi kmeansOCL called 
n_points= 819200 
ABCD : KMEANS : KC : 3785606 microseconds
ravi kmeansOCL called 
n_points= 819200 
ABCD : KMEANS : KC : 3887924 microseconds
ravi kmeansOCL called 
n_points= 819200 
ABCD : KMEANS : KC : 3763600 microseconds
iterated 20 times

================= Centroid Coordinates =================
0: 175.36 2209991.00 0.00 0.00 0.00 0.00 0.00 0.00 0.00 0.00 0.00 0.00 0.00 0.00 0.00 1.71 1.64 0.00 0.00 0.07 0.07 0.98 0.05 0.00 115.36 54.50 0.34 0.05 0.34 0.03 0.07 0.00 0.02 0.00

1: 5051.68 5134229.50 0.00 0.00 0.00 2.71 0.00 0.00 0.00 0.00 0.00 0.00 0.00 0.00 0.00 1.02 1.46 0.02 0.02 0.00 0.00 0.99 0.02 0.06 31.59 35.05 0.89 0.02 0.93 0.10 0.01 0.02 0.00 0.00

2: 56.28 715.76 230.61 0.01 0.00 0.03 0.00 0.00 0.00 0.00 0.01 0.00 0.00 0.00 0.00 376.83 337.55 0.16 0.16 0.06 0.06 0.80 0.02 0.02 244.34 192.23 0.76 0.03 0.69 0.00 0.16 0.16 0.06 0.06

3: 1985.80 701.20 3525758.75 0.00 0.00 0.00 0.60 3.60 0.20 0.40 1.80 0.00 0.00 0.00 0.00 1.00 1.00 0.00 0.00 0.00 0.00 1.00 0.00 0.00 164.20 69.40 0.31 0.04 0.01 0.10 0.15 0.17 0.15 0.00

4: 931.24 655.00 767574.38 0.00 0.00 0.00 0.00 13.38 0.00 0.05 13.24 0.05 0.00 0.00 0.00 1.43 2.05 0.02 0.00 0.00 0.00 1.00 0.00 0.01 159.29 55.38 0.26 0.03 0.01 0.01 0.02 0.02 0.01 0.03

Number of Iteration: 1
ABCD : END


~~~~~~~~~~~~~~~~~~~~~~~~~~~~~~~~~~~~~~~~~~~~~~~~~~~~~
Input: 819200.txt
~~~~~~~~~~~~~~~~~~~~~~~~~~~~~~~~~~~~~~~~~~~~~~~~~~~~~

ABCD : WGSIZE : 102400
ABCD : INPUT : 819200.txt
ABCD : NUM_I : 3
ABCD : ITERATION : 1
WG size of kernel_swap = 102400, WG size of kernel_kmeans = 102400 

I/O completed

Number of objects: 819200
Number of features: 34
ravi allocate called 
n_points= 819200 
ABCD : KMEANS : KS : 388 microseconds
ravi kmeansOCL called 
n_points= 819200 
ABCD : KMEANS : KC : 2495568 microseconds
ravi kmeansOCL called 
n_points= 819200 
ABCD : KMEANS : KC : 2497240 microseconds
ravi kmeansOCL called 
n_points= 819200 
ABCD : KMEANS : KC : 2494784 microseconds
ravi kmeansOCL called 
n_points= 819200 
ABCD : KMEANS : KC : 2497419 microseconds
ravi kmeansOCL called 
n_points= 819200 
ABCD : KMEANS : KC : 2496160 microseconds
ravi kmeansOCL called 
n_points= 819200 
ABCD : KMEANS : KC : 2495160 microseconds
ravi kmeansOCL called 
n_points= 819200 
ABCD : KMEANS : KC : 2496579 microseconds
ravi kmeansOCL called 
n_points= 819200 
ABCD : KMEANS : KC : 2494416 microseconds
ravi kmeansOCL called 
n_points= 819200 
ABCD : KMEANS : KC : 2494856 microseconds
ravi kmeansOCL called 
n_points= 819200 
ABCD : KMEANS : KC : 2496228 microseconds
ravi kmeansOCL called 
n_points= 819200 
ABCD : KMEANS : KC : 2494813 microseconds
ravi kmeansOCL called 
n_points= 819200 
ABCD : KMEANS : KC : 2495332 microseconds
ravi kmeansOCL called 
n_points= 819200 
ABCD : KMEANS : KC : 2496901 microseconds
ravi kmeansOCL called 
n_points= 819200 
ABCD : KMEANS : KC : 2494376 microseconds
ravi kmeansOCL called 
n_points= 819200 
ABCD : KMEANS : KC : 2496140 microseconds
ravi kmeansOCL called 
n_points= 819200 
ABCD : KMEANS : KC : 2493215 microseconds
ravi kmeansOCL called 
n_points= 819200 
ABCD : KMEANS : KC : 2493911 microseconds
ravi kmeansOCL called 
n_points= 819200 
ABCD : KMEANS : KC : 2495364 microseconds
ravi kmeansOCL called 
n_points= 819200 
ABCD : KMEANS : KC : 2493539 microseconds
ravi kmeansOCL called 
n_points= 819200 
ABCD : KMEANS : KC : 2494661 microseconds
iterated 20 times

================= Centroid Coordinates =================
0: 175.36 2209991.00 0.00 0.00 0.00 0.00 0.00 0.00 0.00 0.00 0.00 0.00 0.00 0.00 0.00 1.71 1.64 0.00 0.00 0.07 0.07 0.98 0.05 0.00 115.36 54.50 0.34 0.05 0.34 0.03 0.07 0.00 0.02 0.00

1: 5051.68 5134229.50 0.00 0.00 0.00 2.71 0.00 0.00 0.00 0.00 0.00 0.00 0.00 0.00 0.00 1.02 1.46 0.02 0.02 0.00 0.00 0.99 0.02 0.06 31.59 35.05 0.89 0.02 0.93 0.10 0.01 0.02 0.00 0.00

2: 56.28 715.76 230.61 0.01 0.00 0.03 0.00 0.00 0.00 0.00 0.01 0.00 0.00 0.00 0.00 376.83 337.55 0.16 0.16 0.06 0.06 0.80 0.02 0.02 244.34 192.23 0.76 0.03 0.69 0.00 0.16 0.16 0.06 0.06

3: 1985.80 701.20 3525758.75 0.00 0.00 0.00 0.60 3.60 0.20 0.40 1.80 0.00 0.00 0.00 0.00 1.00 1.00 0.00 0.00 0.00 0.00 1.00 0.00 0.00 164.20 69.40 0.31 0.04 0.01 0.10 0.15 0.17 0.15 0.00

4: 931.24 655.00 767574.38 0.00 0.00 0.00 0.00 13.38 0.00 0.05 13.24 0.05 0.00 0.00 0.00 1.43 2.05 0.02 0.00 0.00 0.00 1.00 0.00 0.01 159.29 55.38 0.26 0.03 0.01 0.01 0.02 0.02 0.01 0.03

Number of Iteration: 1
ABCD : END


ABCD : WGSIZE : 102400
ABCD : INPUT : 819200.txt
ABCD : NUM_I : 3
ABCD : ITERATION : 2
WG size of kernel_swap = 102400, WG size of kernel_kmeans = 102400 

I/O completed

Number of objects: 819200
Number of features: 34
ravi allocate called 
n_points= 819200 
ABCD : KMEANS : KS : 368 microseconds
ravi kmeansOCL called 
n_points= 819200 
ABCD : KMEANS : KC : 2494881 microseconds
ravi kmeansOCL called 
n_points= 819200 
ABCD : KMEANS : KC : 2496448 microseconds
ravi kmeansOCL called 
n_points= 819200 
ABCD : KMEANS : KC : 2493490 microseconds
ravi kmeansOCL called 
n_points= 819200 
ABCD : KMEANS : KC : 2495048 microseconds
ravi kmeansOCL called 
n_points= 819200 
ABCD : KMEANS : KC : 2495912 microseconds
ravi kmeansOCL called 
n_points= 819200 
ABCD : KMEANS : KC : 2494487 microseconds
ravi kmeansOCL called 
n_points= 819200 
ABCD : KMEANS : KC : 2494183 microseconds
ravi kmeansOCL called 
n_points= 819200 
ABCD : KMEANS : KC : 2495158 microseconds
ravi kmeansOCL called 
n_points= 819200 
ABCD : KMEANS : KC : 2493748 microseconds
ravi kmeansOCL called 
n_points= 819200 
ABCD : KMEANS : KC : 2496334 microseconds
ravi kmeansOCL called 
n_points= 819200 
ABCD : KMEANS : KC : 2495552 microseconds
ravi kmeansOCL called 
n_points= 819200 
ABCD : KMEANS : KC : 2500018 microseconds
ravi kmeansOCL called 
n_points= 819200 
ABCD : KMEANS : KC : 2498654 microseconds
ravi kmeansOCL called 
n_points= 819200 
ABCD : KMEANS : KC : 2494079 microseconds
ravi kmeansOCL called 
n_points= 819200 
ABCD : KMEANS : KC : 2494239 microseconds
ravi kmeansOCL called 
n_points= 819200 
ABCD : KMEANS : KC : 2496848 microseconds
ravi kmeansOCL called 
n_points= 819200 
ABCD : KMEANS : KC : 2495595 microseconds
ravi kmeansOCL called 
n_points= 819200 
ABCD : KMEANS : KC : 2494947 microseconds
ravi kmeansOCL called 
n_points= 819200 
ABCD : KMEANS : KC : 2496006 microseconds
ravi kmeansOCL called 
n_points= 819200 
ABCD : KMEANS : KC : 2495314 microseconds
iterated 20 times

================= Centroid Coordinates =================
0: 175.36 2209991.00 0.00 0.00 0.00 0.00 0.00 0.00 0.00 0.00 0.00 0.00 0.00 0.00 0.00 1.71 1.64 0.00 0.00 0.07 0.07 0.98 0.05 0.00 115.36 54.50 0.34 0.05 0.34 0.03 0.07 0.00 0.02 0.00

1: 5051.68 5134229.50 0.00 0.00 0.00 2.71 0.00 0.00 0.00 0.00 0.00 0.00 0.00 0.00 0.00 1.02 1.46 0.02 0.02 0.00 0.00 0.99 0.02 0.06 31.59 35.05 0.89 0.02 0.93 0.10 0.01 0.02 0.00 0.00

2: 56.28 715.76 230.61 0.01 0.00 0.03 0.00 0.00 0.00 0.00 0.01 0.00 0.00 0.00 0.00 376.83 337.55 0.16 0.16 0.06 0.06 0.80 0.02 0.02 244.34 192.23 0.76 0.03 0.69 0.00 0.16 0.16 0.06 0.06

3: 1985.80 701.20 3525758.75 0.00 0.00 0.00 0.60 3.60 0.20 0.40 1.80 0.00 0.00 0.00 0.00 1.00 1.00 0.00 0.00 0.00 0.00 1.00 0.00 0.00 164.20 69.40 0.31 0.04 0.01 0.10 0.15 0.17 0.15 0.00

4: 931.24 655.00 767574.38 0.00 0.00 0.00 0.00 13.38 0.00 0.05 13.24 0.05 0.00 0.00 0.00 1.43 2.05 0.02 0.00 0.00 0.00 1.00 0.00 0.01 159.29 55.38 0.26 0.03 0.01 0.01 0.02 0.02 0.01 0.03

Number of Iteration: 1
ABCD : END


ABCD : WGSIZE : 102400
ABCD : INPUT : 819200.txt
ABCD : NUM_I : 3
ABCD : ITERATION : 3
WG size of kernel_swap = 102400, WG size of kernel_kmeans = 102400 

I/O completed

Number of objects: 819200
Number of features: 34
ravi allocate called 
n_points= 819200 
ABCD : KMEANS : KS : 362 microseconds
ravi kmeansOCL called 
n_points= 819200 
ABCD : KMEANS : KC : 2496444 microseconds
ravi kmeansOCL called 
n_points= 819200 
ABCD : KMEANS : KC : 2495213 microseconds
ravi kmeansOCL called 
n_points= 819200 
ABCD : KMEANS : KC : 2493087 microseconds
ravi kmeansOCL called 
n_points= 819200 
ABCD : KMEANS : KC : 2496916 microseconds
ravi kmeansOCL called 
n_points= 819200 
ABCD : KMEANS : KC : 2494643 microseconds
ravi kmeansOCL called 
n_points= 819200 
ABCD : KMEANS : KC : 2494143 microseconds
ravi kmeansOCL called 
n_points= 819200 
ABCD : KMEANS : KC : 2495058 microseconds
ravi kmeansOCL called 
n_points= 819200 
ABCD : KMEANS : KC : 2494151 microseconds
ravi kmeansOCL called 
n_points= 819200 
ABCD : KMEANS : KC : 2496173 microseconds
ravi kmeansOCL called 
n_points= 819200 
ABCD : KMEANS : KC : 2494529 microseconds
ravi kmeansOCL called 
n_points= 819200 
ABCD : KMEANS : KC : 2494585 microseconds
ravi kmeansOCL called 
n_points= 819200 
ABCD : KMEANS : KC : 2496457 microseconds
ravi kmeansOCL called 
n_points= 819200 
ABCD : KMEANS : KC : 2493407 microseconds
ravi kmeansOCL called 
n_points= 819200 
ABCD : KMEANS : KC : 2494350 microseconds
ravi kmeansOCL called 
n_points= 819200 
ABCD : KMEANS : KC : 2495074 microseconds
ravi kmeansOCL called 
n_points= 819200 
ABCD : KMEANS : KC : 2496227 microseconds
ravi kmeansOCL called 
n_points= 819200 
ABCD : KMEANS : KC : 2495926 microseconds
ravi kmeansOCL called 
n_points= 819200 
ABCD : KMEANS : KC : 2495755 microseconds
ravi kmeansOCL called 
n_points= 819200 
ABCD : KMEANS : KC : 2493490 microseconds
ravi kmeansOCL called 
n_points= 819200 
ABCD : KMEANS : KC : 2494057 microseconds
iterated 20 times

================= Centroid Coordinates =================
0: 175.36 2209991.00 0.00 0.00 0.00 0.00 0.00 0.00 0.00 0.00 0.00 0.00 0.00 0.00 0.00 1.71 1.64 0.00 0.00 0.07 0.07 0.98 0.05 0.00 115.36 54.50 0.34 0.05 0.34 0.03 0.07 0.00 0.02 0.00

1: 5051.68 5134229.50 0.00 0.00 0.00 2.71 0.00 0.00 0.00 0.00 0.00 0.00 0.00 0.00 0.00 1.02 1.46 0.02 0.02 0.00 0.00 0.99 0.02 0.06 31.59 35.05 0.89 0.02 0.93 0.10 0.01 0.02 0.00 0.00

2: 56.28 715.76 230.61 0.01 0.00 0.03 0.00 0.00 0.00 0.00 0.01 0.00 0.00 0.00 0.00 376.83 337.55 0.16 0.16 0.06 0.06 0.80 0.02 0.02 244.34 192.23 0.76 0.03 0.69 0.00 0.16 0.16 0.06 0.06

3: 1985.80 701.20 3525758.75 0.00 0.00 0.00 0.60 3.60 0.20 0.40 1.80 0.00 0.00 0.00 0.00 1.00 1.00 0.00 0.00 0.00 0.00 1.00 0.00 0.00 164.20 69.40 0.31 0.04 0.01 0.10 0.15 0.17 0.15 0.00

4: 931.24 655.00 767574.38 0.00 0.00 0.00 0.00 13.38 0.00 0.05 13.24 0.05 0.00 0.00 0.00 1.43 2.05 0.02 0.00 0.00 0.00 1.00 0.00 0.01 159.29 55.38 0.26 0.03 0.01 0.01 0.02 0.02 0.01 0.03

Number of Iteration: 1
ABCD : END


