~~~~~~~~~~~~~~~~~~~~~~~~~~~~~~~~~~~~~~~~~~~~~~~~~~~~~
Input: 512_34.txt
~~~~~~~~~~~~~~~~~~~~~~~~~~~~~~~~~~~~~~~~~~~~~~~~~~~~~

ABCD : WGSIZE : 512
ABCD : INPUT : 512_34.txt
ABCD : NUM_I : 3
ABCD : ITERATION : 1
WG size of kernel_swap = 512, WG size of kernel_kmeans = 512 

I/O completed

Number of objects: 512
Number of features: 34
ravi allocate called 
n_points= 512 
ABCD : KMEANS : K1 : 1075 microseconds
ravi kmeansOCL called 
n_points= 512 
ABCD : KMEANS : K2 : 1279 microseconds
ravi kmeansOCL called 
n_points= 512 
ABCD : KMEANS : K2 : 1264 microseconds
ravi kmeansOCL called 
n_points= 512 
ABCD : KMEANS : K2 : 1260 microseconds
ravi kmeansOCL called 
n_points= 512 
ABCD : KMEANS : K2 : 1261 microseconds
ravi kmeansOCL called 
n_points= 512 
ABCD : KMEANS : K2 : 1262 microseconds
ravi kmeansOCL called 
n_points= 512 
ABCD : KMEANS : K2 : 1261 microseconds
ravi kmeansOCL called 
n_points= 512 
ABCD : KMEANS : K2 : 1262 microseconds
ravi kmeansOCL called 
n_points= 512 
ABCD : KMEANS : K2 : 1262 microseconds
ravi kmeansOCL called 
n_points= 512 
ABCD : KMEANS : K2 : 1259 microseconds
ravi kmeansOCL called 
n_points= 512 
ABCD : KMEANS : K2 : 1269 microseconds
ravi kmeansOCL called 
n_points= 512 
ABCD : KMEANS : K2 : 1257 microseconds
ravi kmeansOCL called 
n_points= 512 
ABCD : KMEANS : K2 : 1260 microseconds
ravi kmeansOCL called 
n_points= 512 
ABCD : KMEANS : K2 : 1258 microseconds
ravi kmeansOCL called 
n_points= 512 
ABCD : KMEANS : K2 : 1261 microseconds
ravi kmeansOCL called 
n_points= 512 
ABCD : KMEANS : K2 : 1261 microseconds
ravi kmeansOCL called 
n_points= 512 
ABCD : KMEANS : K2 : 1260 microseconds
iterated 16 times

================= Centroid Coordinates =================
0: 104.22 112.97 147.89 143.78 168.46 170.40 180.27 117.47 122.69 92.68 144.19 135.53 132.43 124.34 120.29 142.06 129.22 108.12 159.36 116.02 135.72 106.31 137.01 146.93 127.03 140.45 117.24 132.07 147.74 151.50 128.07 140.50 85.01 121.09

1: 114.11 125.67 152.23 106.49 112.98 116.28 111.09 151.85 89.60 103.35 91.57 93.62 131.73 129.07 168.99 119.39 128.49 126.44 111.84 115.06 115.91 125.76 106.85 119.05 167.12 119.25 121.97 114.57 169.47 92.33 141.68 117.61 130.67 136.94

2: 109.06 134.97 136.05 120.83 147.53 126.86 73.93 155.64 154.62 156.89 123.19 141.29 94.14 126.45 121.86 122.42 120.14 111.06 162.21 143.08 131.92 132.07 142.92 120.75 90.76 93.82 105.11 135.57 110.18 101.11 88.80 119.78 98.95 103.85

3: 147.22 113.62 112.00 132.49 117.87 107.00 138.65 94.01 109.97 127.93 132.38 136.45 135.75 145.51 110.91 106.97 134.47 153.51 98.52 156.02 123.26 151.12 115.51 132.95 103.21 165.43 166.13 114.98 115.98 129.00 90.62 139.77 136.20 140.99

4: 177.46 123.57 76.07 131.89 118.70 141.96 149.93 133.38 152.78 149.47 120.37 95.40 113.60 109.63 111.35 150.07 129.91 107.48 84.90 102.04 164.31 125.18 145.75 114.70 134.30 109.53 143.39 143.27 102.91 139.27 177.52 116.64 153.81 104.19

Number of Iteration: 1
ABCD : END


ABCD : WGSIZE : 512
ABCD : INPUT : 512_34.txt
ABCD : NUM_I : 3
ABCD : ITERATION : 2
WG size of kernel_swap = 512, WG size of kernel_kmeans = 512 

I/O completed

Number of objects: 512
Number of features: 34
ravi allocate called 
n_points= 512 
ABCD : KMEANS : K1 : 1056 microseconds
ravi kmeansOCL called 
n_points= 512 
ABCD : KMEANS : K2 : 1278 microseconds
ravi kmeansOCL called 
n_points= 512 
ABCD : KMEANS : K2 : 1264 microseconds
ravi kmeansOCL called 
n_points= 512 
ABCD : KMEANS : K2 : 1262 microseconds
ravi kmeansOCL called 
n_points= 512 
ABCD : KMEANS : K2 : 1260 microseconds
ravi kmeansOCL called 
n_points= 512 
ABCD : KMEANS : K2 : 1261 microseconds
ravi kmeansOCL called 
n_points= 512 
ABCD : KMEANS : K2 : 1264 microseconds
ravi kmeansOCL called 
n_points= 512 
ABCD : KMEANS : K2 : 1259 microseconds
ravi kmeansOCL called 
n_points= 512 
ABCD : KMEANS : K2 : 1260 microseconds
ravi kmeansOCL called 
n_points= 512 
ABCD : KMEANS : K2 : 1259 microseconds
ravi kmeansOCL called 
n_points= 512 
ABCD : KMEANS : K2 : 1268 microseconds
ravi kmeansOCL called 
n_points= 512 
ABCD : KMEANS : K2 : 1259 microseconds
ravi kmeansOCL called 
n_points= 512 
ABCD : KMEANS : K2 : 1259 microseconds
ravi kmeansOCL called 
n_points= 512 
ABCD : KMEANS : K2 : 1261 microseconds
ravi kmeansOCL called 
n_points= 512 
ABCD : KMEANS : K2 : 1261 microseconds
ravi kmeansOCL called 
n_points= 512 
ABCD : KMEANS : K2 : 1260 microseconds
ravi kmeansOCL called 
n_points= 512 
ABCD : KMEANS : K2 : 1263 microseconds
iterated 16 times

================= Centroid Coordinates =================
0: 104.22 112.97 147.89 143.78 168.46 170.40 180.27 117.47 122.69 92.68 144.19 135.53 132.43 124.34 120.29 142.06 129.22 108.12 159.36 116.02 135.72 106.31 137.01 146.93 127.03 140.45 117.24 132.07 147.74 151.50 128.07 140.50 85.01 121.09

1: 114.11 125.67 152.23 106.49 112.98 116.28 111.09 151.85 89.60 103.35 91.57 93.62 131.73 129.07 168.99 119.39 128.49 126.44 111.84 115.06 115.91 125.76 106.85 119.05 167.12 119.25 121.97 114.57 169.47 92.33 141.68 117.61 130.67 136.94

2: 109.06 134.97 136.05 120.83 147.53 126.86 73.93 155.64 154.62 156.89 123.19 141.29 94.14 126.45 121.86 122.42 120.14 111.06 162.21 143.08 131.92 132.07 142.92 120.75 90.76 93.82 105.11 135.57 110.18 101.11 88.80 119.78 98.95 103.85

3: 147.22 113.62 112.00 132.49 117.87 107.00 138.65 94.01 109.97 127.93 132.38 136.45 135.75 145.51 110.91 106.97 134.47 153.51 98.52 156.02 123.26 151.12 115.51 132.95 103.21 165.43 166.13 114.98 115.98 129.00 90.62 139.77 136.20 140.99

4: 177.46 123.57 76.07 131.89 118.70 141.96 149.93 133.38 152.78 149.47 120.37 95.40 113.60 109.63 111.35 150.07 129.91 107.48 84.90 102.04 164.31 125.18 145.75 114.70 134.30 109.53 143.39 143.27 102.91 139.27 177.52 116.64 153.81 104.19

Number of Iteration: 1
ABCD : END


ABCD : WGSIZE : 512
ABCD : INPUT : 512_34.txt
ABCD : NUM_I : 3
ABCD : ITERATION : 3
WG size of kernel_swap = 512, WG size of kernel_kmeans = 512 

I/O completed

Number of objects: 512
Number of features: 34
ravi allocate called 
n_points= 512 
ABCD : KMEANS : K1 : 1061 microseconds
ravi kmeansOCL called 
n_points= 512 
ABCD : KMEANS : K2 : 1281 microseconds
ravi kmeansOCL called 
n_points= 512 
ABCD : KMEANS : K2 : 1265 microseconds
ravi kmeansOCL called 
n_points= 512 
ABCD : KMEANS : K2 : 1262 microseconds
ravi kmeansOCL called 
n_points= 512 
ABCD : KMEANS : K2 : 1265 microseconds
ravi kmeansOCL called 
n_points= 512 
ABCD : KMEANS : K2 : 1260 microseconds
ravi kmeansOCL called 
n_points= 512 
ABCD : KMEANS : K2 : 1259 microseconds
ravi kmeansOCL called 
n_points= 512 
ABCD : KMEANS : K2 : 1260 microseconds
ravi kmeansOCL called 
n_points= 512 
ABCD : KMEANS : K2 : 1259 microseconds
ravi kmeansOCL called 
n_points= 512 
ABCD : KMEANS : K2 : 1261 microseconds
ravi kmeansOCL called 
n_points= 512 
ABCD : KMEANS : K2 : 1268 microseconds
ravi kmeansOCL called 
n_points= 512 
ABCD : KMEANS : K2 : 1259 microseconds
ravi kmeansOCL called 
n_points= 512 
ABCD : KMEANS : K2 : 1260 microseconds
ravi kmeansOCL called 
n_points= 512 
ABCD : KMEANS : K2 : 1262 microseconds
ravi kmeansOCL called 
n_points= 512 
ABCD : KMEANS : K2 : 1258 microseconds
ravi kmeansOCL called 
n_points= 512 
ABCD : KMEANS : K2 : 1258 microseconds
ravi kmeansOCL called 
n_points= 512 
ABCD : KMEANS : K2 : 1262 microseconds
iterated 16 times

================= Centroid Coordinates =================
0: 104.22 112.97 147.89 143.78 168.46 170.40 180.27 117.47 122.69 92.68 144.19 135.53 132.43 124.34 120.29 142.06 129.22 108.12 159.36 116.02 135.72 106.31 137.01 146.93 127.03 140.45 117.24 132.07 147.74 151.50 128.07 140.50 85.01 121.09

1: 114.11 125.67 152.23 106.49 112.98 116.28 111.09 151.85 89.60 103.35 91.57 93.62 131.73 129.07 168.99 119.39 128.49 126.44 111.84 115.06 115.91 125.76 106.85 119.05 167.12 119.25 121.97 114.57 169.47 92.33 141.68 117.61 130.67 136.94

2: 109.06 134.97 136.05 120.83 147.53 126.86 73.93 155.64 154.62 156.89 123.19 141.29 94.14 126.45 121.86 122.42 120.14 111.06 162.21 143.08 131.92 132.07 142.92 120.75 90.76 93.82 105.11 135.57 110.18 101.11 88.80 119.78 98.95 103.85

3: 147.22 113.62 112.00 132.49 117.87 107.00 138.65 94.01 109.97 127.93 132.38 136.45 135.75 145.51 110.91 106.97 134.47 153.51 98.52 156.02 123.26 151.12 115.51 132.95 103.21 165.43 166.13 114.98 115.98 129.00 90.62 139.77 136.20 140.99

4: 177.46 123.57 76.07 131.89 118.70 141.96 149.93 133.38 152.78 149.47 120.37 95.40 113.60 109.63 111.35 150.07 129.91 107.48 84.90 102.04 164.31 125.18 145.75 114.70 134.30 109.53 143.39 143.27 102.91 139.27 177.52 116.64 153.81 104.19

Number of Iteration: 1
ABCD : END


~~~~~~~~~~~~~~~~~~~~~~~~~~~~~~~~~~~~~~~~~~~~~~~~~~~~~
Input: 1024_34.txt
~~~~~~~~~~~~~~~~~~~~~~~~~~~~~~~~~~~~~~~~~~~~~~~~~~~~~

ABCD : WGSIZE : 512
ABCD : INPUT : 1024_34.txt
ABCD : NUM_I : 3
ABCD : ITERATION : 1
WG size of kernel_swap = 512, WG size of kernel_kmeans = 512 

I/O completed

Number of objects: 1024
Number of features: 34
ravi allocate called 
n_points= 1024 
ABCD : KMEANS : K1 : 1816 microseconds
ravi kmeansOCL called 
n_points= 1024 
ABCD : KMEANS : K2 : 3348 microseconds
ravi kmeansOCL called 
n_points= 1024 
ABCD : KMEANS : K2 : 3340 microseconds
ravi kmeansOCL called 
n_points= 1024 
ABCD : KMEANS : K2 : 3331 microseconds
ravi kmeansOCL called 
n_points= 1024 
ABCD : KMEANS : K2 : 3332 microseconds
ravi kmeansOCL called 
n_points= 1024 
ABCD : KMEANS : K2 : 3330 microseconds
ravi kmeansOCL called 
n_points= 1024 
ABCD : KMEANS : K2 : 3333 microseconds
ravi kmeansOCL called 
n_points= 1024 
ABCD : KMEANS : K2 : 3329 microseconds
ravi kmeansOCL called 
n_points= 1024 
ABCD : KMEANS : K2 : 3430 microseconds
ravi kmeansOCL called 
n_points= 1024 
ABCD : KMEANS : K2 : 3330 microseconds
ravi kmeansOCL called 
n_points= 1024 
ABCD : KMEANS : K2 : 3342 microseconds
ravi kmeansOCL called 
n_points= 1024 
ABCD : KMEANS : K2 : 3338 microseconds
ravi kmeansOCL called 
n_points= 1024 
ABCD : KMEANS : K2 : 3330 microseconds
ravi kmeansOCL called 
n_points= 1024 
ABCD : KMEANS : K2 : 3332 microseconds
ravi kmeansOCL called 
n_points= 1024 
ABCD : KMEANS : K2 : 3337 microseconds
ravi kmeansOCL called 
n_points= 1024 
ABCD : KMEANS : K2 : 3330 microseconds
ravi kmeansOCL called 
n_points= 1024 
ABCD : KMEANS : K2 : 3334 microseconds
ravi kmeansOCL called 
n_points= 1024 
ABCD : KMEANS : K2 : 3331 microseconds
ravi kmeansOCL called 
n_points= 1024 
ABCD : KMEANS : K2 : 3328 microseconds
ravi kmeansOCL called 
n_points= 1024 
ABCD : KMEANS : K2 : 3334 microseconds
ravi kmeansOCL called 
n_points= 1024 
ABCD : KMEANS : K2 : 3338 microseconds
ravi kmeansOCL called 
n_points= 1024 
ABCD : KMEANS : K2 : 3330 microseconds
ravi kmeansOCL called 
n_points= 1024 
ABCD : KMEANS : K2 : 3336 microseconds
ravi kmeansOCL called 
n_points= 1024 
ABCD : KMEANS : K2 : 3331 microseconds
ravi kmeansOCL called 
n_points= 1024 
ABCD : KMEANS : K2 : 3330 microseconds
ravi kmeansOCL called 
n_points= 1024 
ABCD : KMEANS : K2 : 3331 microseconds
ravi kmeansOCL called 
n_points= 1024 
ABCD : KMEANS : K2 : 3327 microseconds
ravi kmeansOCL called 
n_points= 1024 
ABCD : KMEANS : K2 : 3336 microseconds
ravi kmeansOCL called 
n_points= 1024 
ABCD : KMEANS : K2 : 3332 microseconds
ravi kmeansOCL called 
n_points= 1024 
ABCD : KMEANS : K2 : 3332 microseconds
iterated 29 times

================= Centroid Coordinates =================
0: 108.54 159.82 137.49 107.19 144.93 109.09 149.87 121.93 163.90 169.82 147.21 122.01 140.26 127.92 89.67 105.94 109.96 146.77 123.57 140.61 105.60 154.18 112.66 148.48 108.21 142.16 157.02 118.35 136.45 117.89 105.40 132.59 102.61 139.41

1: 154.50 122.28 109.79 134.68 132.04 122.83 109.10 142.01 156.68 126.45 131.36 130.66 145.18 123.61 134.83 137.84 146.79 108.49 125.12 142.36 184.56 105.42 137.77 159.37 116.08 86.47 104.62 114.20 107.87 128.57 113.71 108.77 127.58 114.87

2: 134.63 145.11 120.94 143.04 127.57 133.79 128.52 131.76 107.31 120.99 105.04 121.49 86.88 128.88 132.69 165.39 138.89 116.35 153.30 129.07 102.93 100.33 87.51 134.83 133.44 166.04 131.53 167.94 113.71 147.44 134.88 136.77 137.83 145.56

3: 110.98 95.49 159.57 99.22 143.05 136.25 128.48 138.77 109.12 101.68 112.99 131.62 120.63 130.50 128.34 113.25 114.18 110.55 89.45 141.21 108.47 133.44 146.97 106.02 151.66 99.25 115.90 128.81 139.43 108.86 153.20 133.13 106.86 104.75

4: 105.41 114.02 97.74 153.13 95.22 118.34 128.32 99.90 108.13 131.27 131.25 138.31 161.85 130.15 136.42 116.09 133.67 140.33 160.75 106.13 142.51 157.73 146.99 86.93 124.42 154.99 119.18 102.59 154.25 142.69 123.28 116.77 156.54 137.31

Number of Iteration: 1
ABCD : END


ABCD : WGSIZE : 512
ABCD : INPUT : 1024_34.txt
ABCD : NUM_I : 3
ABCD : ITERATION : 2
WG size of kernel_swap = 512, WG size of kernel_kmeans = 512 

I/O completed

Number of objects: 1024
Number of features: 34
ravi allocate called 
n_points= 1024 
ABCD : KMEANS : K1 : 1809 microseconds
ravi kmeansOCL called 
n_points= 1024 
ABCD : KMEANS : K2 : 3352 microseconds
ravi kmeansOCL called 
n_points= 1024 
ABCD : KMEANS : K2 : 3337 microseconds
ravi kmeansOCL called 
n_points= 1024 
ABCD : KMEANS : K2 : 3332 microseconds
ravi kmeansOCL called 
n_points= 1024 
ABCD : KMEANS : K2 : 3332 microseconds
ravi kmeansOCL called 
n_points= 1024 
ABCD : KMEANS : K2 : 3330 microseconds
ravi kmeansOCL called 
n_points= 1024 
ABCD : KMEANS : K2 : 3331 microseconds
ravi kmeansOCL called 
n_points= 1024 
ABCD : KMEANS : K2 : 3332 microseconds
ravi kmeansOCL called 
n_points= 1024 
ABCD : KMEANS : K2 : 3336 microseconds
ravi kmeansOCL called 
n_points= 1024 
ABCD : KMEANS : K2 : 3334 microseconds
ravi kmeansOCL called 
n_points= 1024 
ABCD : KMEANS : K2 : 3344 microseconds
ravi kmeansOCL called 
n_points= 1024 
ABCD : KMEANS : K2 : 3331 microseconds
ravi kmeansOCL called 
n_points= 1024 
ABCD : KMEANS : K2 : 3332 microseconds
ravi kmeansOCL called 
n_points= 1024 
ABCD : KMEANS : K2 : 3329 microseconds
ravi kmeansOCL called 
n_points= 1024 
ABCD : KMEANS : K2 : 3332 microseconds
ravi kmeansOCL called 
n_points= 1024 
ABCD : KMEANS : K2 : 3329 microseconds
ravi kmeansOCL called 
n_points= 1024 
ABCD : KMEANS : K2 : 3333 microseconds
ravi kmeansOCL called 
n_points= 1024 
ABCD : KMEANS : K2 : 3329 microseconds
ravi kmeansOCL called 
n_points= 1024 
ABCD : KMEANS : K2 : 3333 microseconds
ravi kmeansOCL called 
n_points= 1024 
ABCD : KMEANS : K2 : 3334 microseconds
ravi kmeansOCL called 
n_points= 1024 
ABCD : KMEANS : K2 : 3335 microseconds
ravi kmeansOCL called 
n_points= 1024 
ABCD : KMEANS : K2 : 3330 microseconds
ravi kmeansOCL called 
n_points= 1024 
ABCD : KMEANS : K2 : 3328 microseconds
ravi kmeansOCL called 
n_points= 1024 
ABCD : KMEANS : K2 : 3331 microseconds
ravi kmeansOCL called 
n_points= 1024 
ABCD : KMEANS : K2 : 3332 microseconds
ravi kmeansOCL called 
n_points= 1024 
ABCD : KMEANS : K2 : 3333 microseconds
ravi kmeansOCL called 
n_points= 1024 
ABCD : KMEANS : K2 : 3329 microseconds
ravi kmeansOCL called 
n_points= 1024 
ABCD : KMEANS : K2 : 3331 microseconds
ravi kmeansOCL called 
n_points= 1024 
ABCD : KMEANS : K2 : 3330 microseconds
ravi kmeansOCL called 
n_points= 1024 
ABCD : KMEANS : K2 : 3331 microseconds
iterated 29 times

================= Centroid Coordinates =================
0: 108.54 159.82 137.49 107.19 144.93 109.09 149.87 121.93 163.90 169.82 147.21 122.01 140.26 127.92 89.67 105.94 109.96 146.77 123.57 140.61 105.60 154.18 112.66 148.48 108.21 142.16 157.02 118.35 136.45 117.89 105.40 132.59 102.61 139.41

1: 154.50 122.28 109.79 134.68 132.04 122.83 109.10 142.01 156.68 126.45 131.36 130.66 145.18 123.61 134.83 137.84 146.79 108.49 125.12 142.36 184.56 105.42 137.77 159.37 116.08 86.47 104.62 114.20 107.87 128.57 113.71 108.77 127.58 114.87

2: 134.63 145.11 120.94 143.04 127.57 133.79 128.52 131.76 107.31 120.99 105.04 121.49 86.88 128.88 132.69 165.39 138.89 116.35 153.30 129.07 102.93 100.33 87.51 134.83 133.44 166.04 131.53 167.94 113.71 147.44 134.88 136.77 137.83 145.56

3: 110.98 95.49 159.57 99.22 143.05 136.25 128.48 138.77 109.12 101.68 112.99 131.62 120.63 130.50 128.34 113.25 114.18 110.55 89.45 141.21 108.47 133.44 146.97 106.02 151.66 99.25 115.90 128.81 139.43 108.86 153.20 133.13 106.86 104.75

4: 105.41 114.02 97.74 153.13 95.22 118.34 128.32 99.90 108.13 131.27 131.25 138.31 161.85 130.15 136.42 116.09 133.67 140.33 160.75 106.13 142.51 157.73 146.99 86.93 124.42 154.99 119.18 102.59 154.25 142.69 123.28 116.77 156.54 137.31

Number of Iteration: 1
ABCD : END


ABCD : WGSIZE : 512
ABCD : INPUT : 1024_34.txt
ABCD : NUM_I : 3
ABCD : ITERATION : 3
WG size of kernel_swap = 512, WG size of kernel_kmeans = 512 

I/O completed

Number of objects: 1024
Number of features: 34
ravi allocate called 
n_points= 1024 
ABCD : KMEANS : K1 : 1829 microseconds
ravi kmeansOCL called 
n_points= 1024 
ABCD : KMEANS : K2 : 3345 microseconds
ravi kmeansOCL called 
n_points= 1024 
ABCD : KMEANS : K2 : 3340 microseconds
ravi kmeansOCL called 
n_points= 1024 
ABCD : KMEANS : K2 : 3331 microseconds
ravi kmeansOCL called 
n_points= 1024 
ABCD : KMEANS : K2 : 3334 microseconds
ravi kmeansOCL called 
n_points= 1024 
ABCD : KMEANS : K2 : 3332 microseconds
ravi kmeansOCL called 
n_points= 1024 
ABCD : KMEANS : K2 : 3333 microseconds
ravi kmeansOCL called 
n_points= 1024 
ABCD : KMEANS : K2 : 3332 microseconds
ravi kmeansOCL called 
n_points= 1024 
ABCD : KMEANS : K2 : 3334 microseconds
ravi kmeansOCL called 
n_points= 1024 
ABCD : KMEANS : K2 : 3328 microseconds
ravi kmeansOCL called 
n_points= 1024 
ABCD : KMEANS : K2 : 3342 microseconds
ravi kmeansOCL called 
n_points= 1024 
ABCD : KMEANS : K2 : 3392 microseconds
ravi kmeansOCL called 
n_points= 1024 
ABCD : KMEANS : K2 : 3331 microseconds
ravi kmeansOCL called 
n_points= 1024 
ABCD : KMEANS : K2 : 3333 microseconds
ravi kmeansOCL called 
n_points= 1024 
ABCD : KMEANS : K2 : 3329 microseconds
ravi kmeansOCL called 
n_points= 1024 
ABCD : KMEANS : K2 : 3330 microseconds
ravi kmeansOCL called 
n_points= 1024 
ABCD : KMEANS : K2 : 3334 microseconds
ravi kmeansOCL called 
n_points= 1024 
ABCD : KMEANS : K2 : 3329 microseconds
ravi kmeansOCL called 
n_points= 1024 
ABCD : KMEANS : K2 : 3331 microseconds
ravi kmeansOCL called 
n_points= 1024 
ABCD : KMEANS : K2 : 3329 microseconds
ravi kmeansOCL called 
n_points= 1024 
ABCD : KMEANS : K2 : 3330 microseconds
ravi kmeansOCL called 
n_points= 1024 
ABCD : KMEANS : K2 : 3330 microseconds
ravi kmeansOCL called 
n_points= 1024 
ABCD : KMEANS : K2 : 3332 microseconds
ravi kmeansOCL called 
n_points= 1024 
ABCD : KMEANS : K2 : 3332 microseconds
ravi kmeansOCL called 
n_points= 1024 
ABCD : KMEANS : K2 : 3336 microseconds
ravi kmeansOCL called 
n_points= 1024 
ABCD : KMEANS : K2 : 3336 microseconds
ravi kmeansOCL called 
n_points= 1024 
ABCD : KMEANS : K2 : 3327 microseconds
ravi kmeansOCL called 
n_points= 1024 
ABCD : KMEANS : K2 : 3332 microseconds
ravi kmeansOCL called 
n_points= 1024 
ABCD : KMEANS : K2 : 3329 microseconds
ravi kmeansOCL called 
n_points= 1024 
ABCD : KMEANS : K2 : 3333 microseconds
iterated 29 times

================= Centroid Coordinates =================
0: 108.54 159.82 137.49 107.19 144.93 109.09 149.87 121.93 163.90 169.82 147.21 122.01 140.26 127.92 89.67 105.94 109.96 146.77 123.57 140.61 105.60 154.18 112.66 148.48 108.21 142.16 157.02 118.35 136.45 117.89 105.40 132.59 102.61 139.41

1: 154.50 122.28 109.79 134.68 132.04 122.83 109.10 142.01 156.68 126.45 131.36 130.66 145.18 123.61 134.83 137.84 146.79 108.49 125.12 142.36 184.56 105.42 137.77 159.37 116.08 86.47 104.62 114.20 107.87 128.57 113.71 108.77 127.58 114.87

2: 134.63 145.11 120.94 143.04 127.57 133.79 128.52 131.76 107.31 120.99 105.04 121.49 86.88 128.88 132.69 165.39 138.89 116.35 153.30 129.07 102.93 100.33 87.51 134.83 133.44 166.04 131.53 167.94 113.71 147.44 134.88 136.77 137.83 145.56

3: 110.98 95.49 159.57 99.22 143.05 136.25 128.48 138.77 109.12 101.68 112.99 131.62 120.63 130.50 128.34 113.25 114.18 110.55 89.45 141.21 108.47 133.44 146.97 106.02 151.66 99.25 115.90 128.81 139.43 108.86 153.20 133.13 106.86 104.75

4: 105.41 114.02 97.74 153.13 95.22 118.34 128.32 99.90 108.13 131.27 131.25 138.31 161.85 130.15 136.42 116.09 133.67 140.33 160.75 106.13 142.51 157.73 146.99 86.93 124.42 154.99 119.18 102.59 154.25 142.69 123.28 116.77 156.54 137.31

Number of Iteration: 1
ABCD : END


~~~~~~~~~~~~~~~~~~~~~~~~~~~~~~~~~~~~~~~~~~~~~~~~~~~~~
Input: 1536_34.txt
~~~~~~~~~~~~~~~~~~~~~~~~~~~~~~~~~~~~~~~~~~~~~~~~~~~~~

ABCD : WGSIZE : 512
ABCD : INPUT : 1536_34.txt
ABCD : NUM_I : 3
ABCD : ITERATION : 1
WG size of kernel_swap = 512, WG size of kernel_kmeans = 512 

I/O completed

Number of objects: 1536
Number of features: 34
ravi allocate called 
n_points= 1536 
ABCD : KMEANS : K1 : 2590 microseconds
ravi kmeansOCL called 
n_points= 1536 
ABCD : KMEANS : K2 : 1279 microseconds
ravi kmeansOCL called 
n_points= 1536 
ABCD : KMEANS : K2 : 1268 microseconds
ravi kmeansOCL called 
n_points= 1536 
ABCD : KMEANS : K2 : 1267 microseconds
ravi kmeansOCL called 
n_points= 1536 
ABCD : KMEANS : K2 : 1263 microseconds
ravi kmeansOCL called 
n_points= 1536 
ABCD : KMEANS : K2 : 1261 microseconds
ravi kmeansOCL called 
n_points= 1536 
ABCD : KMEANS : K2 : 1267 microseconds
ravi kmeansOCL called 
n_points= 1536 
ABCD : KMEANS : K2 : 1265 microseconds
ravi kmeansOCL called 
n_points= 1536 
ABCD : KMEANS : K2 : 1264 microseconds
ravi kmeansOCL called 
n_points= 1536 
ABCD : KMEANS : K2 : 1264 microseconds
ravi kmeansOCL called 
n_points= 1536 
ABCD : KMEANS : K2 : 1272 microseconds
ravi kmeansOCL called 
n_points= 1536 
ABCD : KMEANS : K2 : 1269 microseconds
ravi kmeansOCL called 
n_points= 1536 
ABCD : KMEANS : K2 : 1266 microseconds
ravi kmeansOCL called 
n_points= 1536 
ABCD : KMEANS : K2 : 1261 microseconds
ravi kmeansOCL called 
n_points= 1536 
ABCD : KMEANS : K2 : 1268 microseconds
ravi kmeansOCL called 
n_points= 1536 
ABCD : KMEANS : K2 : 1268 microseconds
ravi kmeansOCL called 
n_points= 1536 
ABCD : KMEANS : K2 : 1263 microseconds
ravi kmeansOCL called 
n_points= 1536 
ABCD : KMEANS : K2 : 1269 microseconds
ravi kmeansOCL called 
n_points= 1536 
ABCD : KMEANS : K2 : 1259 microseconds
ravi kmeansOCL called 
n_points= 1536 
ABCD : KMEANS : K2 : 1271 microseconds
ravi kmeansOCL called 
n_points= 1536 
ABCD : KMEANS : K2 : 1268 microseconds
ravi kmeansOCL called 
n_points= 1536 
ABCD : KMEANS : K2 : 1260 microseconds
ravi kmeansOCL called 
n_points= 1536 
ABCD : KMEANS : K2 : 1269 microseconds
ravi kmeansOCL called 
n_points= 1536 
ABCD : KMEANS : K2 : 1263 microseconds
ravi kmeansOCL called 
n_points= 1536 
ABCD : KMEANS : K2 : 1261 microseconds
ravi kmeansOCL called 
n_points= 1536 
ABCD : KMEANS : K2 : 1268 microseconds
ravi kmeansOCL called 
n_points= 1536 
ABCD : KMEANS : K2 : 1262 microseconds
ravi kmeansOCL called 
n_points= 1536 
ABCD : KMEANS : K2 : 1265 microseconds
ravi kmeansOCL called 
n_points= 1536 
ABCD : KMEANS : K2 : 1264 microseconds
ravi kmeansOCL called 
n_points= 1536 
ABCD : KMEANS : K2 : 1262 microseconds
ravi kmeansOCL called 
n_points= 1536 
ABCD : KMEANS : K2 : 1269 microseconds
ravi kmeansOCL called 
n_points= 1536 
ABCD : KMEANS : K2 : 1261 microseconds
ravi kmeansOCL called 
n_points= 1536 
ABCD : KMEANS : K2 : 1270 microseconds
ravi kmeansOCL called 
n_points= 1536 
ABCD : KMEANS : K2 : 1261 microseconds
ravi kmeansOCL called 
n_points= 1536 
ABCD : KMEANS : K2 : 1259 microseconds
ravi kmeansOCL called 
n_points= 1536 
ABCD : KMEANS : K2 : 1265 microseconds
ravi kmeansOCL called 
n_points= 1536 
ABCD : KMEANS : K2 : 1260 microseconds
ravi kmeansOCL called 
n_points= 1536 
ABCD : KMEANS : K2 : 1264 microseconds
ravi kmeansOCL called 
n_points= 1536 
ABCD : KMEANS : K2 : 1267 microseconds
ravi kmeansOCL called 
n_points= 1536 
ABCD : KMEANS : K2 : 1261 microseconds
iterated 39 times

================= Centroid Coordinates =================
0: 128.51 160.70 112.26 136.32 121.18 132.68 105.99 104.02 112.38 98.07 142.67 104.95 159.17 134.30 115.33 133.07 151.27 113.27 121.94 122.99 141.00 90.29 103.63 120.82 90.95 110.82 120.21 111.81 130.48 118.45 125.99 166.57 134.78 119.46

1: 139.82 89.16 146.18 127.11 110.17 82.84 109.03 104.36 97.14 147.01 116.59 104.63 115.68 156.35 123.66 115.26 110.13 132.80 129.11 119.87 107.40 157.87 126.93 97.05 125.03 143.26 113.51 121.98 114.46 148.54 121.47 147.23 149.69 126.32

2: 126.12 107.15 123.73 119.23 83.85 141.62 133.39 142.78 153.74 128.65 131.43 135.41 123.25 126.24 123.71 105.91 119.29 113.69 141.78 148.10 115.48 107.31 115.80 145.96 149.09 127.61 138.75 162.53 127.27 70.28 159.44 128.80 93.22 107.41

3: 119.93 150.18 122.35 142.09 157.14 121.60 142.82 167.68 124.60 109.26 146.76 132.66 122.87 127.25 172.39 138.73 126.04 119.90 108.66 127.36 119.20 162.70 132.68 162.65 135.82 133.53 143.76 123.63 124.64 128.95 129.59 106.67 143.55 148.39

4: 122.78 122.82 128.13 105.50 159.56 152.13 135.48 110.05 150.40 133.56 111.23 166.50 118.85 91.13 115.92 137.68 127.71 155.17 133.06 122.17 132.08 96.29 157.95 96.49 146.83 121.56 115.32 121.11 125.72 147.77 111.22 102.83 112.99 118.42

Number of Iteration: 1
ABCD : END


ABCD : WGSIZE : 512
ABCD : INPUT : 1536_34.txt
ABCD : NUM_I : 3
ABCD : ITERATION : 2
WG size of kernel_swap = 512, WG size of kernel_kmeans = 512 

I/O completed

Number of objects: 1536
Number of features: 34
ravi allocate called 
n_points= 1536 
ABCD : KMEANS : K1 : 2614 microseconds
ravi kmeansOCL called 
n_points= 1536 
ABCD : KMEANS : K2 : 1283 microseconds
ravi kmeansOCL called 
n_points= 1536 
ABCD : KMEANS : K2 : 1271 microseconds
ravi kmeansOCL called 
n_points= 1536 
ABCD : KMEANS : K2 : 1264 microseconds
ravi kmeansOCL called 
n_points= 1536 
ABCD : KMEANS : K2 : 1268 microseconds
ravi kmeansOCL called 
n_points= 1536 
ABCD : KMEANS : K2 : 1267 microseconds
ravi kmeansOCL called 
n_points= 1536 
ABCD : KMEANS : K2 : 1263 microseconds
ravi kmeansOCL called 
n_points= 1536 
ABCD : KMEANS : K2 : 1263 microseconds
ravi kmeansOCL called 
n_points= 1536 
ABCD : KMEANS : K2 : 1262 microseconds
ravi kmeansOCL called 
n_points= 1536 
ABCD : KMEANS : K2 : 1261 microseconds
ravi kmeansOCL called 
n_points= 1536 
ABCD : KMEANS : K2 : 1275 microseconds
ravi kmeansOCL called 
n_points= 1536 
ABCD : KMEANS : K2 : 1261 microseconds
ravi kmeansOCL called 
n_points= 1536 
ABCD : KMEANS : K2 : 1271 microseconds
ravi kmeansOCL called 
n_points= 1536 
ABCD : KMEANS : K2 : 1268 microseconds
ravi kmeansOCL called 
n_points= 1536 
ABCD : KMEANS : K2 : 1262 microseconds
ravi kmeansOCL called 
n_points= 1536 
ABCD : KMEANS : K2 : 1269 microseconds
ravi kmeansOCL called 
n_points= 1536 
ABCD : KMEANS : K2 : 1262 microseconds
ravi kmeansOCL called 
n_points= 1536 
ABCD : KMEANS : K2 : 1262 microseconds
ravi kmeansOCL called 
n_points= 1536 
ABCD : KMEANS : K2 : 1269 microseconds
ravi kmeansOCL called 
n_points= 1536 
ABCD : KMEANS : K2 : 1328 microseconds
ravi kmeansOCL called 
n_points= 1536 
ABCD : KMEANS : K2 : 1277 microseconds
ravi kmeansOCL called 
n_points= 1536 
ABCD : KMEANS : K2 : 1270 microseconds
ravi kmeansOCL called 
n_points= 1536 
ABCD : KMEANS : K2 : 1264 microseconds
ravi kmeansOCL called 
n_points= 1536 
ABCD : KMEANS : K2 : 1270 microseconds
ravi kmeansOCL called 
n_points= 1536 
ABCD : KMEANS : K2 : 1266 microseconds
ravi kmeansOCL called 
n_points= 1536 
ABCD : KMEANS : K2 : 1268 microseconds
ravi kmeansOCL called 
n_points= 1536 
ABCD : KMEANS : K2 : 1270 microseconds
ravi kmeansOCL called 
n_points= 1536 
ABCD : KMEANS : K2 : 1263 microseconds
ravi kmeansOCL called 
n_points= 1536 
ABCD : KMEANS : K2 : 1270 microseconds
ravi kmeansOCL called 
n_points= 1536 
ABCD : KMEANS : K2 : 1266 microseconds
ravi kmeansOCL called 
n_points= 1536 
ABCD : KMEANS : K2 : 1261 microseconds
ravi kmeansOCL called 
n_points= 1536 
ABCD : KMEANS : K2 : 1271 microseconds
ravi kmeansOCL called 
n_points= 1536 
ABCD : KMEANS : K2 : 1263 microseconds
ravi kmeansOCL called 
n_points= 1536 
ABCD : KMEANS : K2 : 1271 microseconds
ravi kmeansOCL called 
n_points= 1536 
ABCD : KMEANS : K2 : 1268 microseconds
ravi kmeansOCL called 
n_points= 1536 
ABCD : KMEANS : K2 : 1262 microseconds
ravi kmeansOCL called 
n_points= 1536 
ABCD : KMEANS : K2 : 1266 microseconds
ravi kmeansOCL called 
n_points= 1536 
ABCD : KMEANS : K2 : 1269 microseconds
ravi kmeansOCL called 
n_points= 1536 
ABCD : KMEANS : K2 : 1263 microseconds
ravi kmeansOCL called 
n_points= 1536 
ABCD : KMEANS : K2 : 1268 microseconds
iterated 39 times

================= Centroid Coordinates =================
0: 128.51 160.70 112.26 136.32 121.18 132.68 105.99 104.02 112.38 98.07 142.67 104.95 159.17 134.30 115.33 133.07 151.27 113.27 121.94 122.99 141.00 90.29 103.63 120.82 90.95 110.82 120.21 111.81 130.48 118.45 125.99 166.57 134.78 119.46

1: 139.82 89.16 146.18 127.11 110.17 82.84 109.03 104.36 97.14 147.01 116.59 104.63 115.68 156.35 123.66 115.26 110.13 132.80 129.11 119.87 107.40 157.87 126.93 97.05 125.03 143.26 113.51 121.98 114.46 148.54 121.47 147.23 149.69 126.32

2: 126.12 107.15 123.73 119.23 83.85 141.62 133.39 142.78 153.74 128.65 131.43 135.41 123.25 126.24 123.71 105.91 119.29 113.69 141.78 148.10 115.48 107.31 115.80 145.96 149.09 127.61 138.75 162.53 127.27 70.28 159.44 128.80 93.22 107.41

3: 119.93 150.18 122.35 142.09 157.14 121.60 142.82 167.68 124.60 109.26 146.76 132.66 122.87 127.25 172.39 138.73 126.04 119.90 108.66 127.36 119.20 162.70 132.68 162.65 135.82 133.53 143.76 123.63 124.64 128.95 129.59 106.67 143.55 148.39

4: 122.78 122.82 128.13 105.50 159.56 152.13 135.48 110.05 150.40 133.56 111.23 166.50 118.85 91.13 115.92 137.68 127.71 155.17 133.06 122.17 132.08 96.29 157.95 96.49 146.83 121.56 115.32 121.11 125.72 147.77 111.22 102.83 112.99 118.42

Number of Iteration: 1
ABCD : END


ABCD : WGSIZE : 512
ABCD : INPUT : 1536_34.txt
ABCD : NUM_I : 3
ABCD : ITERATION : 3
WG size of kernel_swap = 512, WG size of kernel_kmeans = 512 

I/O completed

Number of objects: 1536
Number of features: 34
ravi allocate called 
n_points= 1536 
ABCD : KMEANS : K1 : 2604 microseconds
ravi kmeansOCL called 
n_points= 1536 
ABCD : KMEANS : K2 : 1290 microseconds
ravi kmeansOCL called 
n_points= 1536 
ABCD : KMEANS : K2 : 1274 microseconds
ravi kmeansOCL called 
n_points= 1536 
ABCD : KMEANS : K2 : 1264 microseconds
ravi kmeansOCL called 
n_points= 1536 
ABCD : KMEANS : K2 : 1272 microseconds
ravi kmeansOCL called 
n_points= 1536 
ABCD : KMEANS : K2 : 1268 microseconds
ravi kmeansOCL called 
n_points= 1536 
ABCD : KMEANS : K2 : 1265 microseconds
ravi kmeansOCL called 
n_points= 1536 
ABCD : KMEANS : K2 : 1264 microseconds
ravi kmeansOCL called 
n_points= 1536 
ABCD : KMEANS : K2 : 1264 microseconds
ravi kmeansOCL called 
n_points= 1536 
ABCD : KMEANS : K2 : 1271 microseconds
ravi kmeansOCL called 
n_points= 1536 
ABCD : KMEANS : K2 : 1279 microseconds
ravi kmeansOCL called 
n_points= 1536 
ABCD : KMEANS : K2 : 1261 microseconds
ravi kmeansOCL called 
n_points= 1536 
ABCD : KMEANS : K2 : 1263 microseconds
ravi kmeansOCL called 
n_points= 1536 
ABCD : KMEANS : K2 : 1261 microseconds
ravi kmeansOCL called 
n_points= 1536 
ABCD : KMEANS : K2 : 1262 microseconds
ravi kmeansOCL called 
n_points= 1536 
ABCD : KMEANS : K2 : 1267 microseconds
ravi kmeansOCL called 
n_points= 1536 
ABCD : KMEANS : K2 : 1261 microseconds
ravi kmeansOCL called 
n_points= 1536 
ABCD : KMEANS : K2 : 1270 microseconds
ravi kmeansOCL called 
n_points= 1536 
ABCD : KMEANS : K2 : 1263 microseconds
ravi kmeansOCL called 
n_points= 1536 
ABCD : KMEANS : K2 : 1261 microseconds
ravi kmeansOCL called 
n_points= 1536 
ABCD : KMEANS : K2 : 1263 microseconds
ravi kmeansOCL called 
n_points= 1536 
ABCD : KMEANS : K2 : 1261 microseconds
ravi kmeansOCL called 
n_points= 1536 
ABCD : KMEANS : K2 : 1264 microseconds
ravi kmeansOCL called 
n_points= 1536 
ABCD : KMEANS : K2 : 1268 microseconds
ravi kmeansOCL called 
n_points= 1536 
ABCD : KMEANS : K2 : 1261 microseconds
ravi kmeansOCL called 
n_points= 1536 
ABCD : KMEANS : K2 : 1265 microseconds
ravi kmeansOCL called 
n_points= 1536 
ABCD : KMEANS : K2 : 1262 microseconds
ravi kmeansOCL called 
n_points= 1536 
ABCD : KMEANS : K2 : 1266 microseconds
ravi kmeansOCL called 
n_points= 1536 
ABCD : KMEANS : K2 : 1265 microseconds
ravi kmeansOCL called 
n_points= 1536 
ABCD : KMEANS : K2 : 1262 microseconds
ravi kmeansOCL called 
n_points= 1536 
ABCD : KMEANS : K2 : 1266 microseconds
ravi kmeansOCL called 
n_points= 1536 
ABCD : KMEANS : K2 : 1270 microseconds
ravi kmeansOCL called 
n_points= 1536 
ABCD : KMEANS : K2 : 1262 microseconds
ravi kmeansOCL called 
n_points= 1536 
ABCD : KMEANS : K2 : 1268 microseconds
ravi kmeansOCL called 
n_points= 1536 
ABCD : KMEANS : K2 : 1260 microseconds
ravi kmeansOCL called 
n_points= 1536 
ABCD : KMEANS : K2 : 1272 microseconds
ravi kmeansOCL called 
n_points= 1536 
ABCD : KMEANS : K2 : 1260 microseconds
ravi kmeansOCL called 
n_points= 1536 
ABCD : KMEANS : K2 : 1264 microseconds
ravi kmeansOCL called 
n_points= 1536 
ABCD : KMEANS : K2 : 1268 microseconds
ravi kmeansOCL called 
n_points= 1536 
ABCD : KMEANS : K2 : 1262 microseconds
iterated 39 times

================= Centroid Coordinates =================
0: 128.51 160.70 112.26 136.32 121.18 132.68 105.99 104.02 112.38 98.07 142.67 104.95 159.17 134.30 115.33 133.07 151.27 113.27 121.94 122.99 141.00 90.29 103.63 120.82 90.95 110.82 120.21 111.81 130.48 118.45 125.99 166.57 134.78 119.46

1: 139.82 89.16 146.18 127.11 110.17 82.84 109.03 104.36 97.14 147.01 116.59 104.63 115.68 156.35 123.66 115.26 110.13 132.80 129.11 119.87 107.40 157.87 126.93 97.05 125.03 143.26 113.51 121.98 114.46 148.54 121.47 147.23 149.69 126.32

2: 126.12 107.15 123.73 119.23 83.85 141.62 133.39 142.78 153.74 128.65 131.43 135.41 123.25 126.24 123.71 105.91 119.29 113.69 141.78 148.10 115.48 107.31 115.80 145.96 149.09 127.61 138.75 162.53 127.27 70.28 159.44 128.80 93.22 107.41

3: 119.93 150.18 122.35 142.09 157.14 121.60 142.82 167.68 124.60 109.26 146.76 132.66 122.87 127.25 172.39 138.73 126.04 119.90 108.66 127.36 119.20 162.70 132.68 162.65 135.82 133.53 143.76 123.63 124.64 128.95 129.59 106.67 143.55 148.39

4: 122.78 122.82 128.13 105.50 159.56 152.13 135.48 110.05 150.40 133.56 111.23 166.50 118.85 91.13 115.92 137.68 127.71 155.17 133.06 122.17 132.08 96.29 157.95 96.49 146.83 121.56 115.32 121.11 125.72 147.77 111.22 102.83 112.99 118.42

Number of Iteration: 1
ABCD : END


